$MeshFormat
2.2 0 8
$EndMeshFormat
$Nodes
14
1 0 0 0
2 10 0 0
3 10 2 0
4 5 2 0
5 0 2 0
6 2.499999999995362 0 0
7 4.999999999992398 0 0
8 7.499999999996199 0 0
9 7.5 2 0
10 2.5 2 0
11 8.749999999998099 1 0
12 1.25 1 0
13 6.25 1.000000000002376 0
14 3.74999999999388 0.9999999999971005 0
$EndNodes
$Elements
16
1 2 2 1 1 8 2 11
2 2 2 1 1 7 8 13
3 2 2 1 1 9 4 13
4 2 2 1 1 3 9 11
5 2 2 1 1 10 5 12
6 2 2 1 1 4 10 14
7 2 2 1 1 6 7 14
8 2 2 1 1 1 6 12
9 2 2 1 1 4 7 13
10 2 2 1 1 7 4 14
11 2 2 1 1 2 3 11
12 2 2 1 1 5 1 12
13 2 2 1 1 9 8 11
14 2 2 1 1 8 9 13
15 2 2 1 1 6 10 12
16 2 2 1 1 10 6 14
$EndElements
