$MeshFormat
2.2 0 8
$EndMeshFormat
$Nodes
553
1 0 0 0
2 10 0 0
3 10 2 0
4 5 2 0
5 0 2 0
6 2.499999999995362 0 0
7 4.999999999992398 0 0
8 7.499999999996199 0 0
9 7.5 2 0
10 2.5 2 0
11 8.749999999998099 1 0
12 1.25 1 0
13 6.25 1.000000000002376 0
14 3.74999999999388 0.9999999999971005 0
15 8.749999999998099 0 0
16 9.37499999999905 0.5 0
17 8.124999999997149 0.5 0
18 6.249999999994298 0 0
19 6.874999999998099 0.500000000001188 0
20 5.624999999996199 0.500000000001188 0
21 6.25 2 0
22 5.625 1.500000000001188 0
23 6.875 1.500000000001188 0
24 8.75 2 0
25 8.12499999999905 1.5 0
26 9.37499999999905 1.5 0
27 1.25 2 0
28 0.625 1.5 0
29 1.875 1.5 0
30 3.75 2 0
31 3.12499999999694 1.49999999999855 0
32 4.37499999999694 1.49999999999855 0
33 3.74999999999388 0 0
34 4.374999999993139 0.4999999999985503 0
35 3.124999999994621 0.4999999999985503 0
36 1.249999999997681 0 0
37 1.874999999997681 0.5 0
38 0.625 0.5 0
39 4.999999999996199 1 0
40 10 1 0
41 0 1 0
42 7.499999999998099 1 0
43 2.499999999997681 1 0
44 8.124999999997149 0 0
45 8.437499999997623 0.25 0
46 7.812499999996674 0.25 0
47 9.062499999998575 0.25 0
48 8.749999999998099 0.5 0
49 9.37499999999905 0 0
50 9.687499999999524 0.25 0
51 9.062499999998575 0.75 0
52 8.437499999997623 0.75 0
53 5.624999999993348 0 0
54 5.937499999995248 0.250000000000594 0
55 5.312499999994298 0.250000000000594 0
56 6.562499999996199 0.250000000000594 0
57 6.249999999997149 0.500000000001188 0
58 6.874999999995248 0 0
59 7.187499999997149 0.250000000000594 0
60 6.56249999999905 0.7500000000017821 0
61 5.937499999998099 0.7500000000017821 0
62 6.875 2 0
63 6.5625 1.750000000000594 0
64 7.1875 1.750000000000594 0
65 5.9375 1.750000000000594 0
66 6.25 1.500000000001188 0
67 5.625 2 0
68 5.3125 1.750000000000594 0
69 5.9375 1.250000000001782 0
70 6.5625 1.250000000001782 0
71 9.375 2 0
72 9.062499999999524 1.75 0
73 9.687499999999524 1.75 0
74 8.437499999999524 1.75 0
75 8.74999999999905 1.5 0
76 8.125 2 0
77 7.812499999999525 1.75 0
78 8.437499999998575 1.25 0
79 9.062499999998575 1.25 0
80 1.875 2 0
81 1.5625 1.75 0
82 2.1875 1.75 0
83 0.9375 1.75 0
84 1.25 1.5 0
85 0.625 2 0
86 0.3125 1.75 0
87 0.9375 1.25 0
88 1.5625 1.25 0
89 4.375 2 0
90 4.062499999998471 1.749999999999275 0
91 4.687499999998471 1.749999999999275 0
92 3.43749999999847 1.749999999999275 0
93 3.74999999999694 1.49999999999855 0
94 3.125 2 0
95 2.81249999999847 1.749999999999275 0
96 3.43749999999541 1.249999999997825 0
97 4.06249999999541 1.249999999997825 0
98 3.124999999994621 0 0
99 3.437499999994251 0.2499999999992752 0
100 2.812499999994992 0.2499999999992752 0
101 4.062499999993509 0.2499999999992752 0
102 3.74999999999388 0.4999999999985503 0
103 4.374999999993139 0 0
104 4.687499999992768 0.2499999999992752 0
105 4.062499999993509 0.7499999999978254 0
106 3.437499999994251 0.7499999999978254 0
107 0.6249999999988405 0 0
108 0.9374999999988405 0.25 0
109 0.3125 0.25 0
110 1.562499999997681 0.25 0
111 1.24999999999884 0.5 0
112 1.874999999996521 0 0
113 2.187499999996521 0.25 0
114 1.56249999999884 0.75 0
115 0.9375 0.75 0
116 4.999999999998099 1.5 0
117 5.312499999998099 1.250000000000594 0
118 5.312499999996199 0.750000000000594 0
119 5.624999999998099 1.000000000001188 0
120 4.999999999994298 0.5 0
121 4.687499999994669 0.7499999999992751 0
122 4.68749999999657 1.249999999999275 0
123 4.37499999999504 0.9999999999985502 0
124 10 0.5 0
125 9.687499999999524 0.75 0
126 9.687499999999524 1.25 0
127 9.37499999999905 1 0
128 10 1.5 0
129 0 1.5 0
130 0.3125 1.25 0
131 0.3125 0.75 0
132 0.625 1 0
133 0 0.5 0
134 7.49999999999905 1.5 0
135 7.812499999998574 1.25 0
136 7.812499999997624 0.75 0
137 8.124999999998099 1 0
138 7.499999999997149 0.5 0
139 7.187499999998099 0.750000000000594 0
140 7.18749999999905 1.250000000000594 0
141 6.87499999999905 1.000000000001188 0
142 2.499999999996521 0.5 0
143 2.187499999997681 0.75 0
144 2.18749999999884 1.25 0
145 1.87499999999884 1 0
146 2.49999999999884 1.5 0
147 2.812499999997311 1.249999999999275 0
148 2.812499999996151 0.7499999999992751 0
149 3.12499999999578 0.9999999999985502 0
150 7.812499999996674 0 0
151 7.968749999996911 0.125 0
152 7.656249999996437 0.125 0
153 8.281249999997385 0.125 0
154 8.124999999997149 0.25 0
155 8.437499999997623 0 0
156 8.593749999997861 0.125 0
157 8.281249999997385 0.375 0
158 7.968749999996911 0.375 0
159 8.906249999998337 0.125 0
160 8.749999999998099 0.25 0
161 8.906249999998337 0.375 0
162 8.593749999997861 0.375 0
163 9.218749999998813 0.375 0
164 9.062499999998575 0.5 0
165 8.437499999997623 0.5 0
166 9.062499999998575 0 0
167 9.218749999998813 0.125 0
168 9.531249999999286 0.125 0
169 9.37499999999905 0.25 0
170 9.687499999999524 0 0
171 9.843749999999762 0.125 0
172 9.531249999999286 0.375 0
173 8.593749999997861 0.625 0
174 8.281249999997385 0.625 0
175 8.906249999998337 0.625 0
176 8.749999999998099 0.75 0
177 9.218749999998813 0.625 0
178 8.906249999998337 0.875 0
179 8.593749999997861 0.875 0
180 5.312499999992873 0 0
181 5.468749999993824 0.125000000000297 0
182 5.156249999993348 0.125000000000297 0
183 5.781249999994298 0.125000000000297 0
184 5.624999999994773 0.250000000000594 0
185 5.937499999993824 0 0
186 6.093749999994773 0.125000000000297 0
187 5.781249999995723 0.3750000000008911 0
188 5.468749999995248 0.3750000000008911 0
189 6.406249999995248 0.125000000000297 0
190 6.249999999995723 0.250000000000594 0
191 6.406249999996674 0.3750000000008911 0
192 6.093749999996199 0.3750000000008911 0
193 6.718749999997149 0.3750000000008911 0
194 6.562499999997624 0.500000000001188 0
195 5.937499999996674 0.500000000001188 0
196 6.562499999994773 0 0
197 6.718749999995723 0.125000000000297 0
198 7.031249999996199 0.125000000000297 0
199 6.874999999996674 0.250000000000594 0
200 7.187499999995723 0 0
201 7.343749999996674 0.125000000000297 0
202 7.031249999997624 0.3750000000008911 0
203 6.093749999997624 0.625000000001485 0
204 5.781249999997149 0.625000000001485 0
205 6.406249999998099 0.625000000001485 0
206 6.249999999998574 0.7500000000017821 0
207 6.718749999998574 0.625000000001485 0
208 6.406249999999525 0.8750000000020791 0
209 6.09374999999905 0.8750000000020791 0
210 7.1875 2 0
211 7.03125 1.875000000000297 0
212 7.34375 1.875000000000297 0
213 6.71875 1.875000000000297 0
214 6.875 1.750000000000594 0
215 6.5625 2 0
216 6.40625 1.875000000000297 0
217 6.71875 1.625000000000891 0
218 7.03125 1.625000000000891 0
219 6.09375 1.875000000000297 0
220 6.25 1.750000000000594 0
221 6.09375 1.625000000000891 0
222 6.40625 1.625000000000891 0
223 5.78125 1.625000000000891 0
224 5.9375 1.500000000001188 0
225 6.5625 1.500000000001188 0
226 5.9375 2 0
227 5.78125 1.875000000000297 0
228 5.46875 1.875000000000297 0
229 5.625 1.750000000000594 0
230 5.3125 2 0
231 5.15625 1.875000000000297 0
232 5.46875 1.625000000000891 0
233 6.40625 1.375000000001485 0
234 6.71875 1.375000000001485 0
235 6.09375 1.375000000001485 0
236 6.25 1.250000000001782 0
237 5.78125 1.375000000001485 0
238 6.09375 1.125000000002079 0
239 6.40625 1.125000000002079 0
240 9.6875 2 0
241 9.531249999999762 1.875 0
242 9.843749999999762 1.875 0
243 9.218749999999762 1.875 0
244 9.374999999999524 1.75 0
245 9.0625 2 0
246 8.906249999999762 1.875 0
247 9.218749999999286 1.625 0
248 9.531249999999286 1.625 0
249 8.593749999999762 1.875 0
250 8.749999999999524 1.75 0
251 8.593749999999286 1.625 0
252 8.906249999999286 1.625 0
253 8.281249999999286 1.625 0
254 8.43749999999905 1.5 0
255 9.06249999999905 1.5 0
256 8.4375 2 0
257 8.281249999999762 1.875 0
258 7.968749999999762 1.875 0
259 8.124999999999524 1.75 0
260 7.8125 2 0
261 7.656249999999762 1.875 0
262 7.968749999999288 1.625 0
263 8.906249999998813 1.375 0
264 9.218749999998813 1.375 0
265 8.593749999998813 1.375 0
266 8.749999999998575 1.25 0
267 8.281249999998813 1.375 0
268 8.593749999998337 1.125 0
269 8.906249999998337 1.125 0
270 2.1875 2 0
271 2.03125 1.875 0
272 2.34375 1.875 0
273 1.71875 1.875 0
274 1.875 1.75 0
275 1.5625 2 0
276 1.40625 1.875 0
277 1.71875 1.625 0
278 2.03125 1.625 0
279 1.09375 1.875 0
280 1.25 1.75 0
281 1.09375 1.625 0
282 1.40625 1.625 0
283 0.78125 1.625 0
284 0.9375 1.5 0
285 1.5625 1.5 0
286 0.9375 2 0
287 0.78125 1.875 0
288 0.46875 1.875 0
289 0.625 1.75 0
290 0.3125 2 0
291 0.15625 1.875 0
292 0.46875 1.625 0
293 1.40625 1.375 0
294 1.71875 1.375 0
295 1.09375 1.375 0
296 1.25 1.25 0
297 0.78125 1.375 0
298 1.09375 1.125 0
299 1.40625 1.125 0
300 4.6875 2 0
301 4.531249999999235 1.874999999999638 0
302 4.843749999999235 1.874999999999638 0
303 4.218749999999235 1.874999999999638 0
304 4.374999999998471 1.749999999999275 0
305 4.0625 2 0
306 3.906249999999235 1.874999999999638 0
307 4.218749999997705 1.624999999998912 0
308 4.531249999997705 1.624999999998912 0
309 3.593749999999235 1.874999999999638 0
310 3.749999999998471 1.749999999999275 0
311 3.593749999997705 1.624999999998912 0
312 3.906249999997705 1.624999999998912 0
313 3.281249999997705 1.624999999998912 0
314 3.43749999999694 1.49999999999855 0
315 4.06249999999694 1.49999999999855 0
316 3.4375 2 0
317 3.281249999999235 1.874999999999638 0
318 2.968749999999235 1.874999999999638 0
319 3.12499999999847 1.749999999999275 0
320 2.8125 2 0
321 2.656249999999235 1.874999999999638 0
322 2.968749999997705 1.624999999998912 0
323 3.906249999996175 1.374999999998188 0
324 4.218749999996176 1.374999999998188 0
325 3.593749999996175 1.374999999998188 0
326 3.74999999999541 1.249999999997825 0
327 3.281249999996175 1.374999999998188 0
328 3.593749999994645 1.124999999997463 0
329 3.906249999994645 1.124999999997463 0
330 2.812499999994992 0 0
331 2.968749999994807 0.1249999999996376 0
332 2.656249999995177 0.1249999999996376 0
333 3.281249999994436 0.1249999999996376 0
334 3.124999999994621 0.2499999999992752 0
335 3.437499999994251 0 0
336 3.593749999994065 0.1249999999996376 0
337 3.281249999994436 0.3749999999989128 0
338 2.968749999994807 0.3749999999989128 0
339 3.906249999993695 0.1249999999996376 0
340 3.74999999999388 0.2499999999992752 0
341 3.906249999993695 0.3749999999989128 0
342 3.593749999994065 0.3749999999989128 0
343 4.218749999993324 0.3749999999989128 0
344 4.062499999993509 0.4999999999985503 0
345 3.437499999994251 0.4999999999985503 0
346 4.062499999993509 0 0
347 4.218749999993324 0.1249999999996376 0
348 4.531249999992953 0.1249999999996376 0
349 4.374999999993138 0.2499999999992752 0
350 4.687499999992768 0 0
351 4.843749999992583 0.1249999999996376 0
352 4.531249999992953 0.3749999999989128 0
353 3.593749999994065 0.6249999999981879 0
354 3.281249999994436 0.6249999999981879 0
355 3.906249999993695 0.6249999999981879 0
356 3.74999999999388 0.7499999999978254 0
357 4.218749999993324 0.6249999999981879 0
358 3.906249999993695 0.8749999999974629 0
359 3.593749999994065 0.8749999999974629 0
360 0.3124999999994202 0 0
361 0.4687499999994202 0.125 0
362 0.15625 0.125 0
363 0.7812499999988405 0.125 0
364 0.6249999999994202 0.25 0
365 0.9374999999982607 0 0
366 1.093749999998261 0.125 0
367 0.7812499999994202 0.375 0
368 0.46875 0.375 0
369 1.406249999997681 0.125 0
370 1.249999999998261 0.25 0
371 1.406249999998261 0.375 0
372 1.09374999999884 0.375 0
373 1.718749999997681 0.375 0
374 1.562499999998261 0.5 0
375 0.93749999999942 0.5 0
376 1.562499999997101 0 0
377 1.718749999997101 0.125 0
378 2.031249999996521 0.125 0
379 1.874999999997101 0.25 0
380 2.187499999995941 0 0
381 2.343749999995941 0.125 0
382 2.031249999997101 0.375 0
383 1.09374999999942 0.625 0
384 0.78125 0.625 0
385 1.40624999999884 0.625 0
386 1.24999999999942 0.75 0
387 1.718749999998261 0.625 0
388 1.40624999999942 0.875 0
389 1.09375 0.875 0
390 4.99999999999905 1.75 0
391 5.15624999999905 1.625000000000297 0
392 5.156249999998099 1.375000000000297 0
393 5.31249999999905 1.500000000000594 0
394 4.999999999997149 1.25 0
395 5.156249999997149 1.125000000000297 0
396 5.46874999999905 1.375000000000891 0
397 5.156249999996199 0.875000000000297 0
398 5.312499999997149 1.000000000000594 0
399 5.468749999997149 0.875000000000891 0
400 5.468749999998099 1.125000000000891 0
401 5.468749999996199 0.6250000000008911 0
402 5.624999999997149 0.7500000000011879 0
403 5.62499999999905 1.250000000001188 0
404 4.999999999995248 0.75 0
405 5.156249999995248 0.625000000000297 0
406 5.156249999994298 0.375000000000297 0
407 5.312499999995248 0.500000000000594 0
408 4.999999999993348 0.25 0
409 5.78124999999905 1.125000000001485 0
410 5.781249999998099 0.875000000001485 0
411 5.93749999999905 1.000000000001782 0
412 4.843749999993532 0.3749999999996376 0
413 4.843749999994484 0.6249999999996376 0
414 4.687499999993719 0.4999999999992751 0
415 4.843749999995434 0.8749999999996376 0
416 4.531249999993904 0.6249999999989128 0
417 4.843749999996384 1.124999999999638 0
418 4.68749999999562 0.999999999999275 0
419 4.531249999995805 1.124999999998913 0
420 4.531249999994855 0.8749999999989126 0
421 4.531249999996755 1.374999999998912 0
422 4.374999999995991 1.24999999999855 0
423 4.37499999999409 0.7499999999985503 0
424 4.843749999997335 1.374999999999638 0
425 4.843749999998285 1.624999999999638 0
426 4.68749999999752 1.499999999999275 0
427 4.218749999994275 0.8749999999981878 0
428 4.218749999995225 1.124999999998188 0
429 4.06249999999446 0.9999999999978253 0
430 10 0.25 0
431 9.843749999999762 0.375 0
432 9.843749999999762 0.625 0
433 9.687499999999524 0.5 0
434 10 0.75 0
435 9.843749999999762 0.875 0
436 9.531249999999286 0.625 0
437 9.843749999999762 1.125 0
438 9.687499999999524 1 0
439 9.531249999999286 1.125 0
440 9.531249999999286 0.875 0
441 9.531249999999286 1.375 0
442 9.37499999999905 1.25 0
443 9.37499999999905 0.75 0
444 10 1.25 0
445 9.843749999999762 1.375 0
446 9.843749999999762 1.625 0
447 9.687499999999524 1.5 0
448 10 1.75 0
449 9.218749999998813 0.875 0
450 9.218749999998813 1.125 0
451 9.062499999998575 1 0
452 0 1.75 0
453 0.15625 1.625 0
454 0.15625 1.375 0
455 0.3125 1.5 0
456 0 1.25 0
457 0.15625 1.125 0
458 0.46875 1.375 0
459 0.15625 0.875 0
460 0.3125 1 0
461 0.46875 0.875 0
462 0.46875 1.125 0
463 0.46875 0.625 0
464 0.625 0.75 0
465 0.625 1.25 0
466 0 0.75 0
467 0.15625 0.625 0
468 0.15625 0.375 0
469 0.3125 0.5 0
470 0 0.25 0
471 0.78125 1.125 0
472 0.78125 0.875 0
473 0.9375 1 0
474 7.499999999999525 1.75 0
475 7.656249999999288 1.625 0
476 7.656249999998812 1.375 0
477 7.81249999999905 1.5 0
478 7.499999999998574 1.25 0
479 7.656249999998336 1.125 0
480 7.968749999998812 1.375 0
481 7.656249999997861 0.875 0
482 7.812499999998099 1 0
483 7.968749999997861 0.875 0
484 7.968749999998336 1.125 0
485 7.968749999997387 0.625 0
486 8.124999999997623 0.75 0
487 8.124999999998575 1.25 0
488 7.499999999997624 0.75 0
489 7.656249999997387 0.625 0
490 7.656249999996911 0.375 0
491 7.812499999997149 0.5 0
492 7.499999999996674 0.25 0
493 8.281249999998337 1.125 0
494 8.281249999997861 0.875 0
495 8.437499999998099 1 0
496 7.343749999997149 0.375000000000297 0
497 7.343749999997624 0.625000000000297 0
498 7.187499999997624 0.500000000000594 0
499 7.343749999998099 0.875000000000297 0
500 7.031249999998099 0.6250000000008911 0
501 7.343749999998574 1.125000000000297 0
502 7.187499999998574 1.000000000000594 0
503 7.03124999999905 1.125000000000891 0
504 7.031249999998574 0.875000000000891 0
505 7.031249999999525 1.375000000000891 0
506 6.874999999999525 1.250000000001188 0
507 6.874999999998574 0.7500000000011879 0
508 7.34374999999905 1.375000000000297 0
509 7.343749999999525 1.625000000000297 0
510 7.187499999999525 1.500000000000594 0
511 6.71874999999905 0.875000000001485 0
512 6.718749999999525 1.125000000001485 0
513 6.562499999999525 1.000000000001782 0
514 2.499999999995941 0.25 0
515 2.343749999996521 0.375 0
516 2.343749999997101 0.625 0
517 2.187499999997101 0.5 0
518 2.499999999997101 0.75 0
519 2.343749999997681 0.875 0
520 2.031249999997681 0.625 0
521 2.343749999998261 1.125 0
522 2.187499999998261 1 0
523 2.03124999999884 1.125 0
524 2.031249999998261 0.875 0
525 2.03124999999942 1.375 0
526 1.87499999999942 1.25 0
527 1.874999999998261 0.75 0
528 2.499999999998261 1.25 0
529 2.34374999999884 1.375 0
530 2.34374999999942 1.625 0
531 2.18749999999942 1.5 0
532 2.49999999999942 1.75 0
533 1.71874999999884 0.875 0
534 1.71874999999942 1.125 0
535 1.56249999999942 1 0
536 2.656249999998655 1.624999999999638 0
537 2.656249999998075 1.374999999999638 0
538 2.812499999997891 1.499999999999275 0
539 2.656249999997496 1.124999999999638 0
540 2.968749999997125 1.374999999998912 0
541 2.656249999996916 0.8749999999996376 0
542 2.812499999996731 0.999999999999275 0
543 2.968749999995965 0.8749999999989126 0
544 2.968749999996545 1.124999999998913 0
545 2.968749999995386 0.6249999999989128 0
546 3.1249999999952 0.7499999999985503 0
547 3.12499999999636 1.24999999999855 0
548 2.656249999996336 0.6249999999996376 0
549 2.656249999995756 0.3749999999996376 0
550 2.812499999995572 0.4999999999992751 0
551 3.281249999995595 1.124999999998188 0
552 3.281249999995016 0.8749999999981878 0
553 3.43749999999483 0.9999999999978253 0
$EndNodes
$Elements
1024
1 2 2 1 1 8 150 152
2 2 2 1 1 150 151 152
3 2 2 1 1 150 44 151
4 2 2 1 1 152 151 46
5 2 2 1 1 44 153 151
6 2 2 1 1 153 154 151
7 2 2 1 1 153 45 154
8 2 2 1 1 151 154 46
9 2 2 1 1 44 155 153
10 2 2 1 1 155 156 153
11 2 2 1 1 155 15 156
12 2 2 1 1 153 156 45
13 2 2 1 1 46 154 158
14 2 2 1 1 154 157 158
15 2 2 1 1 154 45 157
16 2 2 1 1 158 157 17
17 2 2 1 1 15 159 156
18 2 2 1 1 159 160 156
19 2 2 1 1 159 47 160
20 2 2 1 1 156 160 45
21 2 2 1 1 47 161 160
22 2 2 1 1 161 162 160
23 2 2 1 1 161 48 162
24 2 2 1 1 160 162 45
25 2 2 1 1 47 163 161
26 2 2 1 1 163 164 161
27 2 2 1 1 163 16 164
28 2 2 1 1 161 164 48
29 2 2 1 1 45 162 157
30 2 2 1 1 162 165 157
31 2 2 1 1 162 48 165
32 2 2 1 1 157 165 17
33 2 2 1 1 15 166 159
34 2 2 1 1 166 167 159
35 2 2 1 1 166 49 167
36 2 2 1 1 159 167 47
37 2 2 1 1 49 168 167
38 2 2 1 1 168 169 167
39 2 2 1 1 168 50 169
40 2 2 1 1 167 169 47
41 2 2 1 1 49 170 168
42 2 2 1 1 170 171 168
43 2 2 1 1 170 2 171
44 2 2 1 1 168 171 50
45 2 2 1 1 47 169 163
46 2 2 1 1 169 172 163
47 2 2 1 1 169 50 172
48 2 2 1 1 163 172 16
49 2 2 1 1 17 165 174
50 2 2 1 1 165 173 174
51 2 2 1 1 165 48 173
52 2 2 1 1 174 173 52
53 2 2 1 1 48 175 173
54 2 2 1 1 175 176 173
55 2 2 1 1 175 51 176
56 2 2 1 1 173 176 52
57 2 2 1 1 48 164 175
58 2 2 1 1 164 177 175
59 2 2 1 1 164 16 177
60 2 2 1 1 175 177 51
61 2 2 1 1 52 176 179
62 2 2 1 1 176 178 179
63 2 2 1 1 176 51 178
64 2 2 1 1 179 178 11
65 2 2 1 1 7 180 182
66 2 2 1 1 180 181 182
67 2 2 1 1 180 53 181
68 2 2 1 1 182 181 55
69 2 2 1 1 53 183 181
70 2 2 1 1 183 184 181
71 2 2 1 1 183 54 184
72 2 2 1 1 181 184 55
73 2 2 1 1 53 185 183
74 2 2 1 1 185 186 183
75 2 2 1 1 185 18 186
76 2 2 1 1 183 186 54
77 2 2 1 1 55 184 188
78 2 2 1 1 184 187 188
79 2 2 1 1 184 54 187
80 2 2 1 1 188 187 20
81 2 2 1 1 18 189 186
82 2 2 1 1 189 190 186
83 2 2 1 1 189 56 190
84 2 2 1 1 186 190 54
85 2 2 1 1 56 191 190
86 2 2 1 1 191 192 190
87 2 2 1 1 191 57 192
88 2 2 1 1 190 192 54
89 2 2 1 1 56 193 191
90 2 2 1 1 193 194 191
91 2 2 1 1 193 19 194
92 2 2 1 1 191 194 57
93 2 2 1 1 54 192 187
94 2 2 1 1 192 195 187
95 2 2 1 1 192 57 195
96 2 2 1 1 187 195 20
97 2 2 1 1 18 196 189
98 2 2 1 1 196 197 189
99 2 2 1 1 196 58 197
100 2 2 1 1 189 197 56
101 2 2 1 1 58 198 197
102 2 2 1 1 198 199 197
103 2 2 1 1 198 59 199
104 2 2 1 1 197 199 56
105 2 2 1 1 58 200 198
106 2 2 1 1 200 201 198
107 2 2 1 1 200 8 201
108 2 2 1 1 198 201 59
109 2 2 1 1 56 199 193
110 2 2 1 1 199 202 193
111 2 2 1 1 199 59 202
112 2 2 1 1 193 202 19
113 2 2 1 1 20 195 204
114 2 2 1 1 195 203 204
115 2 2 1 1 195 57 203
116 2 2 1 1 204 203 61
117 2 2 1 1 57 205 203
118 2 2 1 1 205 206 203
119 2 2 1 1 205 60 206
120 2 2 1 1 203 206 61
121 2 2 1 1 57 194 205
122 2 2 1 1 194 207 205
123 2 2 1 1 194 19 207
124 2 2 1 1 205 207 60
125 2 2 1 1 61 206 209
126 2 2 1 1 206 208 209
127 2 2 1 1 206 60 208
128 2 2 1 1 209 208 13
129 2 2 1 1 9 210 212
130 2 2 1 1 210 211 212
131 2 2 1 1 210 62 211
132 2 2 1 1 212 211 64
133 2 2 1 1 62 213 211
134 2 2 1 1 213 214 211
135 2 2 1 1 213 63 214
136 2 2 1 1 211 214 64
137 2 2 1 1 62 215 213
138 2 2 1 1 215 216 213
139 2 2 1 1 215 21 216
140 2 2 1 1 213 216 63
141 2 2 1 1 64 214 218
142 2 2 1 1 214 217 218
143 2 2 1 1 214 63 217
144 2 2 1 1 218 217 23
145 2 2 1 1 21 219 216
146 2 2 1 1 219 220 216
147 2 2 1 1 219 65 220
148 2 2 1 1 216 220 63
149 2 2 1 1 65 221 220
150 2 2 1 1 221 222 220
151 2 2 1 1 221 66 222
152 2 2 1 1 220 222 63
153 2 2 1 1 65 223 221
154 2 2 1 1 223 224 221
155 2 2 1 1 223 22 224
156 2 2 1 1 221 224 66
157 2 2 1 1 63 222 217
158 2 2 1 1 222 225 217
159 2 2 1 1 222 66 225
160 2 2 1 1 217 225 23
161 2 2 1 1 21 226 219
162 2 2 1 1 226 227 219
163 2 2 1 1 226 67 227
164 2 2 1 1 219 227 65
165 2 2 1 1 67 228 227
166 2 2 1 1 228 229 227
167 2 2 1 1 228 68 229
168 2 2 1 1 227 229 65
169 2 2 1 1 67 230 228
170 2 2 1 1 230 231 228
171 2 2 1 1 230 4 231
172 2 2 1 1 228 231 68
173 2 2 1 1 65 229 223
174 2 2 1 1 229 232 223
175 2 2 1 1 229 68 232
176 2 2 1 1 223 232 22
177 2 2 1 1 23 225 234
178 2 2 1 1 225 233 234
179 2 2 1 1 225 66 233
180 2 2 1 1 234 233 70
181 2 2 1 1 66 235 233
182 2 2 1 1 235 236 233
183 2 2 1 1 235 69 236
184 2 2 1 1 233 236 70
185 2 2 1 1 66 224 235
186 2 2 1 1 224 237 235
187 2 2 1 1 224 22 237
188 2 2 1 1 235 237 69
189 2 2 1 1 70 236 239
190 2 2 1 1 236 238 239
191 2 2 1 1 236 69 238
192 2 2 1 1 239 238 13
193 2 2 1 1 3 240 242
194 2 2 1 1 240 241 242
195 2 2 1 1 240 71 241
196 2 2 1 1 242 241 73
197 2 2 1 1 71 243 241
198 2 2 1 1 243 244 241
199 2 2 1 1 243 72 244
200 2 2 1 1 241 244 73
201 2 2 1 1 71 245 243
202 2 2 1 1 245 246 243
203 2 2 1 1 245 24 246
204 2 2 1 1 243 246 72
205 2 2 1 1 73 244 248
206 2 2 1 1 244 247 248
207 2 2 1 1 244 72 247
208 2 2 1 1 248 247 26
209 2 2 1 1 24 249 246
210 2 2 1 1 249 250 246
211 2 2 1 1 249 74 250
212 2 2 1 1 246 250 72
213 2 2 1 1 74 251 250
214 2 2 1 1 251 252 250
215 2 2 1 1 251 75 252
216 2 2 1 1 250 252 72
217 2 2 1 1 74 253 251
218 2 2 1 1 253 254 251
219 2 2 1 1 253 25 254
220 2 2 1 1 251 254 75
221 2 2 1 1 72 252 247
222 2 2 1 1 252 255 247
223 2 2 1 1 252 75 255
224 2 2 1 1 247 255 26
225 2 2 1 1 24 256 249
226 2 2 1 1 256 257 249
227 2 2 1 1 256 76 257
228 2 2 1 1 249 257 74
229 2 2 1 1 76 258 257
230 2 2 1 1 258 259 257
231 2 2 1 1 258 77 259
232 2 2 1 1 257 259 74
233 2 2 1 1 76 260 258
234 2 2 1 1 260 261 258
235 2 2 1 1 260 9 261
236 2 2 1 1 258 261 77
237 2 2 1 1 74 259 253
238 2 2 1 1 259 262 253
239 2 2 1 1 259 77 262
240 2 2 1 1 253 262 25
241 2 2 1 1 26 255 264
242 2 2 1 1 255 263 264
243 2 2 1 1 255 75 263
244 2 2 1 1 264 263 79
245 2 2 1 1 75 265 263
246 2 2 1 1 265 266 263
247 2 2 1 1 265 78 266
248 2 2 1 1 263 266 79
249 2 2 1 1 75 254 265
250 2 2 1 1 254 267 265
251 2 2 1 1 254 25 267
252 2 2 1 1 265 267 78
253 2 2 1 1 79 266 269
254 2 2 1 1 266 268 269
255 2 2 1 1 266 78 268
256 2 2 1 1 269 268 11
257 2 2 1 1 10 270 272
258 2 2 1 1 270 271 272
259 2 2 1 1 270 80 271
260 2 2 1 1 272 271 82
261 2 2 1 1 80 273 271
262 2 2 1 1 273 274 271
263 2 2 1 1 273 81 274
264 2 2 1 1 271 274 82
265 2 2 1 1 80 275 273
266 2 2 1 1 275 276 273
267 2 2 1 1 275 27 276
268 2 2 1 1 273 276 81
269 2 2 1 1 82 274 278
270 2 2 1 1 274 277 278
271 2 2 1 1 274 81 277
272 2 2 1 1 278 277 29
273 2 2 1 1 27 279 276
274 2 2 1 1 279 280 276
275 2 2 1 1 279 83 280
276 2 2 1 1 276 280 81
277 2 2 1 1 83 281 280
278 2 2 1 1 281 282 280
279 2 2 1 1 281 84 282
280 2 2 1 1 280 282 81
281 2 2 1 1 83 283 281
282 2 2 1 1 283 284 281
283 2 2 1 1 283 28 284
284 2 2 1 1 281 284 84
285 2 2 1 1 81 282 277
286 2 2 1 1 282 285 277
287 2 2 1 1 282 84 285
288 2 2 1 1 277 285 29
289 2 2 1 1 27 286 279
290 2 2 1 1 286 287 279
291 2 2 1 1 286 85 287
292 2 2 1 1 279 287 83
293 2 2 1 1 85 288 287
294 2 2 1 1 288 289 287
295 2 2 1 1 288 86 289
296 2 2 1 1 287 289 83
297 2 2 1 1 85 290 288
298 2 2 1 1 290 291 288
299 2 2 1 1 290 5 291
300 2 2 1 1 288 291 86
301 2 2 1 1 83 289 283
302 2 2 1 1 289 292 283
303 2 2 1 1 289 86 292
304 2 2 1 1 283 292 28
305 2 2 1 1 29 285 294
306 2 2 1 1 285 293 294
307 2 2 1 1 285 84 293
308 2 2 1 1 294 293 88
309 2 2 1 1 84 295 293
310 2 2 1 1 295 296 293
311 2 2 1 1 295 87 296
312 2 2 1 1 293 296 88
313 2 2 1 1 84 284 295
314 2 2 1 1 284 297 295
315 2 2 1 1 284 28 297
316 2 2 1 1 295 297 87
317 2 2 1 1 88 296 299
318 2 2 1 1 296 298 299
319 2 2 1 1 296 87 298
320 2 2 1 1 299 298 12
321 2 2 1 1 4 300 302
322 2 2 1 1 300 301 302
323 2 2 1 1 300 89 301
324 2 2 1 1 302 301 91
325 2 2 1 1 89 303 301
326 2 2 1 1 303 304 301
327 2 2 1 1 303 90 304
328 2 2 1 1 301 304 91
329 2 2 1 1 89 305 303
330 2 2 1 1 305 306 303
331 2 2 1 1 305 30 306
332 2 2 1 1 303 306 90
333 2 2 1 1 91 304 308
334 2 2 1 1 304 307 308
335 2 2 1 1 304 90 307
336 2 2 1 1 308 307 32
337 2 2 1 1 30 309 306
338 2 2 1 1 309 310 306
339 2 2 1 1 309 92 310
340 2 2 1 1 306 310 90
341 2 2 1 1 92 311 310
342 2 2 1 1 311 312 310
343 2 2 1 1 311 93 312
344 2 2 1 1 310 312 90
345 2 2 1 1 92 313 311
346 2 2 1 1 313 314 311
347 2 2 1 1 313 31 314
348 2 2 1 1 311 314 93
349 2 2 1 1 90 312 307
350 2 2 1 1 312 315 307
351 2 2 1 1 312 93 315
352 2 2 1 1 307 315 32
353 2 2 1 1 30 316 309
354 2 2 1 1 316 317 309
355 2 2 1 1 316 94 317
356 2 2 1 1 309 317 92
357 2 2 1 1 94 318 317
358 2 2 1 1 318 319 317
359 2 2 1 1 318 95 319
360 2 2 1 1 317 319 92
361 2 2 1 1 94 320 318
362 2 2 1 1 320 321 318
363 2 2 1 1 320 10 321
364 2 2 1 1 318 321 95
365 2 2 1 1 92 319 313
366 2 2 1 1 319 322 313
367 2 2 1 1 319 95 322
368 2 2 1 1 313 322 31
369 2 2 1 1 32 315 324
370 2 2 1 1 315 323 324
371 2 2 1 1 315 93 323
372 2 2 1 1 324 323 97
373 2 2 1 1 93 325 323
374 2 2 1 1 325 326 323
375 2 2 1 1 325 96 326
376 2 2 1 1 323 326 97
377 2 2 1 1 93 314 325
378 2 2 1 1 314 327 325
379 2 2 1 1 314 31 327
380 2 2 1 1 325 327 96
381 2 2 1 1 97 326 329
382 2 2 1 1 326 328 329
383 2 2 1 1 326 96 328
384 2 2 1 1 329 328 14
385 2 2 1 1 6 330 332
386 2 2 1 1 330 331 332
387 2 2 1 1 330 98 331
388 2 2 1 1 332 331 100
389 2 2 1 1 98 333 331
390 2 2 1 1 333 334 331
391 2 2 1 1 333 99 334
392 2 2 1 1 331 334 100
393 2 2 1 1 98 335 333
394 2 2 1 1 335 336 333
395 2 2 1 1 335 33 336
396 2 2 1 1 333 336 99
397 2 2 1 1 100 334 338
398 2 2 1 1 334 337 338
399 2 2 1 1 334 99 337
400 2 2 1 1 338 337 35
401 2 2 1 1 33 339 336
402 2 2 1 1 339 340 336
403 2 2 1 1 339 101 340
404 2 2 1 1 336 340 99
405 2 2 1 1 101 341 340
406 2 2 1 1 341 342 340
407 2 2 1 1 341 102 342
408 2 2 1 1 340 342 99
409 2 2 1 1 101 343 341
410 2 2 1 1 343 344 341
411 2 2 1 1 343 34 344
412 2 2 1 1 341 344 102
413 2 2 1 1 99 342 337
414 2 2 1 1 342 345 337
415 2 2 1 1 342 102 345
416 2 2 1 1 337 345 35
417 2 2 1 1 33 346 339
418 2 2 1 1 346 347 339
419 2 2 1 1 346 103 347
420 2 2 1 1 339 347 101
421 2 2 1 1 103 348 347
422 2 2 1 1 348 349 347
423 2 2 1 1 348 104 349
424 2 2 1 1 347 349 101
425 2 2 1 1 103 350 348
426 2 2 1 1 350 351 348
427 2 2 1 1 350 7 351
428 2 2 1 1 348 351 104
429 2 2 1 1 101 349 343
430 2 2 1 1 349 352 343
431 2 2 1 1 349 104 352
432 2 2 1 1 343 352 34
433 2 2 1 1 35 345 354
434 2 2 1 1 345 353 354
435 2 2 1 1 345 102 353
436 2 2 1 1 354 353 106
437 2 2 1 1 102 355 353
438 2 2 1 1 355 356 353
439 2 2 1 1 355 105 356
440 2 2 1 1 353 356 106
441 2 2 1 1 102 344 355
442 2 2 1 1 344 357 355
443 2 2 1 1 344 34 357
444 2 2 1 1 355 357 105
445 2 2 1 1 106 356 359
446 2 2 1 1 356 358 359
447 2 2 1 1 356 105 358
448 2 2 1 1 359 358 14
449 2 2 1 1 1 360 362
450 2 2 1 1 360 361 362
451 2 2 1 1 360 107 361
452 2 2 1 1 362 361 109
453 2 2 1 1 107 363 361
454 2 2 1 1 363 364 361
455 2 2 1 1 363 108 364
456 2 2 1 1 361 364 109
457 2 2 1 1 107 365 363
458 2 2 1 1 365 366 363
459 2 2 1 1 365 36 366
460 2 2 1 1 363 366 108
461 2 2 1 1 109 364 368
462 2 2 1 1 364 367 368
463 2 2 1 1 364 108 367
464 2 2 1 1 368 367 38
465 2 2 1 1 36 369 366
466 2 2 1 1 369 370 366
467 2 2 1 1 369 110 370
468 2 2 1 1 366 370 108
469 2 2 1 1 110 371 370
470 2 2 1 1 371 372 370
471 2 2 1 1 371 111 372
472 2 2 1 1 370 372 108
473 2 2 1 1 110 373 371
474 2 2 1 1 373 374 371
475 2 2 1 1 373 37 374
476 2 2 1 1 371 374 111
477 2 2 1 1 108 372 367
478 2 2 1 1 372 375 367
479 2 2 1 1 372 111 375
480 2 2 1 1 367 375 38
481 2 2 1 1 36 376 369
482 2 2 1 1 376 377 369
483 2 2 1 1 376 112 377
484 2 2 1 1 369 377 110
485 2 2 1 1 112 378 377
486 2 2 1 1 378 379 377
487 2 2 1 1 378 113 379
488 2 2 1 1 377 379 110
489 2 2 1 1 112 380 378
490 2 2 1 1 380 381 378
491 2 2 1 1 380 6 381
492 2 2 1 1 378 381 113
493 2 2 1 1 110 379 373
494 2 2 1 1 379 382 373
495 2 2 1 1 379 113 382
496 2 2 1 1 373 382 37
497 2 2 1 1 38 375 384
498 2 2 1 1 375 383 384
499 2 2 1 1 375 111 383
500 2 2 1 1 384 383 115
501 2 2 1 1 111 385 383
502 2 2 1 1 385 386 383
503 2 2 1 1 385 114 386
504 2 2 1 1 383 386 115
505 2 2 1 1 111 374 385
506 2 2 1 1 374 387 385
507 2 2 1 1 374 37 387
508 2 2 1 1 385 387 114
509 2 2 1 1 115 386 389
510 2 2 1 1 386 388 389
511 2 2 1 1 386 114 388
512 2 2 1 1 389 388 12
513 2 2 1 1 4 390 231
514 2 2 1 1 390 391 231
515 2 2 1 1 390 116 391
516 2 2 1 1 231 391 68
517 2 2 1 1 116 392 391
518 2 2 1 1 392 393 391
519 2 2 1 1 392 117 393
520 2 2 1 1 391 393 68
521 2 2 1 1 116 394 392
522 2 2 1 1 394 395 392
523 2 2 1 1 394 39 395
524 2 2 1 1 392 395 117
525 2 2 1 1 68 393 232
526 2 2 1 1 393 396 232
527 2 2 1 1 393 117 396
528 2 2 1 1 232 396 22
529 2 2 1 1 39 397 395
530 2 2 1 1 397 398 395
531 2 2 1 1 397 118 398
532 2 2 1 1 395 398 117
533 2 2 1 1 118 399 398
534 2 2 1 1 399 400 398
535 2 2 1 1 399 119 400
536 2 2 1 1 398 400 117
537 2 2 1 1 118 401 399
538 2 2 1 1 401 402 399
539 2 2 1 1 401 20 402
540 2 2 1 1 399 402 119
541 2 2 1 1 117 400 396
542 2 2 1 1 400 403 396
543 2 2 1 1 400 119 403
544 2 2 1 1 396 403 22
545 2 2 1 1 39 404 397
546 2 2 1 1 404 405 397
547 2 2 1 1 404 120 405
548 2 2 1 1 397 405 118
549 2 2 1 1 120 406 405
550 2 2 1 1 406 407 405
551 2 2 1 1 406 55 407
552 2 2 1 1 405 407 118
553 2 2 1 1 120 408 406
554 2 2 1 1 408 182 406
555 2 2 1 1 408 7 182
556 2 2 1 1 406 182 55
557 2 2 1 1 118 407 401
558 2 2 1 1 407 188 401
559 2 2 1 1 407 55 188
560 2 2 1 1 401 188 20
561 2 2 1 1 22 403 237
562 2 2 1 1 403 409 237
563 2 2 1 1 403 119 409
564 2 2 1 1 237 409 69
565 2 2 1 1 119 410 409
566 2 2 1 1 410 411 409
567 2 2 1 1 410 61 411
568 2 2 1 1 409 411 69
569 2 2 1 1 119 402 410
570 2 2 1 1 402 204 410
571 2 2 1 1 402 20 204
572 2 2 1 1 410 204 61
573 2 2 1 1 69 411 238
574 2 2 1 1 411 209 238
575 2 2 1 1 411 61 209
576 2 2 1 1 238 209 13
577 2 2 1 1 7 408 351
578 2 2 1 1 408 412 351
579 2 2 1 1 408 120 412
580 2 2 1 1 351 412 104
581 2 2 1 1 120 413 412
582 2 2 1 1 413 414 412
583 2 2 1 1 413 121 414
584 2 2 1 1 412 414 104
585 2 2 1 1 120 404 413
586 2 2 1 1 404 415 413
587 2 2 1 1 404 39 415
588 2 2 1 1 413 415 121
589 2 2 1 1 104 414 352
590 2 2 1 1 414 416 352
591 2 2 1 1 414 121 416
592 2 2 1 1 352 416 34
593 2 2 1 1 39 417 415
594 2 2 1 1 417 418 415
595 2 2 1 1 417 122 418
596 2 2 1 1 415 418 121
597 2 2 1 1 122 419 418
598 2 2 1 1 419 420 418
599 2 2 1 1 419 123 420
600 2 2 1 1 418 420 121
601 2 2 1 1 122 421 419
602 2 2 1 1 421 422 419
603 2 2 1 1 421 32 422
604 2 2 1 1 419 422 123
605 2 2 1 1 121 420 416
606 2 2 1 1 420 423 416
607 2 2 1 1 420 123 423
608 2 2 1 1 416 423 34
609 2 2 1 1 39 394 417
610 2 2 1 1 394 424 417
611 2 2 1 1 394 116 424
612 2 2 1 1 417 424 122
613 2 2 1 1 116 425 424
614 2 2 1 1 425 426 424
615 2 2 1 1 425 91 426
616 2 2 1 1 424 426 122
617 2 2 1 1 116 390 425
618 2 2 1 1 390 302 425
619 2 2 1 1 390 4 302
620 2 2 1 1 425 302 91
621 2 2 1 1 122 426 421
622 2 2 1 1 426 308 421
623 2 2 1 1 426 91 308
624 2 2 1 1 421 308 32
625 2 2 1 1 34 423 357
626 2 2 1 1 423 427 357
627 2 2 1 1 423 123 427
628 2 2 1 1 357 427 105
629 2 2 1 1 123 428 427
630 2 2 1 1 428 429 427
631 2 2 1 1 428 97 429
632 2 2 1 1 427 429 105
633 2 2 1 1 123 422 428
634 2 2 1 1 422 324 428
635 2 2 1 1 422 32 324
636 2 2 1 1 428 324 97
637 2 2 1 1 105 429 358
638 2 2 1 1 429 329 358
639 2 2 1 1 429 97 329
640 2 2 1 1 358 329 14
641 2 2 1 1 2 430 171
642 2 2 1 1 430 431 171
643 2 2 1 1 430 124 431
644 2 2 1 1 171 431 50
645 2 2 1 1 124 432 431
646 2 2 1 1 432 433 431
647 2 2 1 1 432 125 433
648 2 2 1 1 431 433 50
649 2 2 1 1 124 434 432
650 2 2 1 1 434 435 432
651 2 2 1 1 434 40 435
652 2 2 1 1 432 435 125
653 2 2 1 1 50 433 172
654 2 2 1 1 433 436 172
655 2 2 1 1 433 125 436
656 2 2 1 1 172 436 16
657 2 2 1 1 40 437 435
658 2 2 1 1 437 438 435
659 2 2 1 1 437 126 438
660 2 2 1 1 435 438 125
661 2 2 1 1 126 439 438
662 2 2 1 1 439 440 438
663 2 2 1 1 439 127 440
664 2 2 1 1 438 440 125
665 2 2 1 1 126 441 439
666 2 2 1 1 441 442 439
667 2 2 1 1 441 26 442
668 2 2 1 1 439 442 127
669 2 2 1 1 125 440 436
670 2 2 1 1 440 443 436
671 2 2 1 1 440 127 443
672 2 2 1 1 436 443 16
673 2 2 1 1 40 444 437
674 2 2 1 1 444 445 437
675 2 2 1 1 444 128 445
676 2 2 1 1 437 445 126
677 2 2 1 1 128 446 445
678 2 2 1 1 446 447 445
679 2 2 1 1 446 73 447
680 2 2 1 1 445 447 126
681 2 2 1 1 128 448 446
682 2 2 1 1 448 242 446
683 2 2 1 1 448 3 242
684 2 2 1 1 446 242 73
685 2 2 1 1 126 447 441
686 2 2 1 1 447 248 441
687 2 2 1 1 447 73 248
688 2 2 1 1 441 248 26
689 2 2 1 1 16 443 177
690 2 2 1 1 443 449 177
691 2 2 1 1 443 127 449
692 2 2 1 1 177 449 51
693 2 2 1 1 127 450 449
694 2 2 1 1 450 451 449
695 2 2 1 1 450 79 451
696 2 2 1 1 449 451 51
697 2 2 1 1 127 442 450
698 2 2 1 1 442 264 450
699 2 2 1 1 442 26 264
700 2 2 1 1 450 264 79
701 2 2 1 1 51 451 178
702 2 2 1 1 451 269 178
703 2 2 1 1 451 79 269
704 2 2 1 1 178 269 11
705 2 2 1 1 5 452 291
706 2 2 1 1 452 453 291
707 2 2 1 1 452 129 453
708 2 2 1 1 291 453 86
709 2 2 1 1 129 454 453
710 2 2 1 1 454 455 453
711 2 2 1 1 454 130 455
712 2 2 1 1 453 455 86
713 2 2 1 1 129 456 454
714 2 2 1 1 456 457 454
715 2 2 1 1 456 41 457
716 2 2 1 1 454 457 130
717 2 2 1 1 86 455 292
718 2 2 1 1 455 458 292
719 2 2 1 1 455 130 458
720 2 2 1 1 292 458 28
721 2 2 1 1 41 459 457
722 2 2 1 1 459 460 457
723 2 2 1 1 459 131 460
724 2 2 1 1 457 460 130
725 2 2 1 1 131 461 460
726 2 2 1 1 461 462 460
727 2 2 1 1 461 132 462
728 2 2 1 1 460 462 130
729 2 2 1 1 131 463 461
730 2 2 1 1 463 464 461
731 2 2 1 1 463 38 464
732 2 2 1 1 461 464 132
733 2 2 1 1 130 462 458
734 2 2 1 1 462 465 458
735 2 2 1 1 462 132 465
736 2 2 1 1 458 465 28
737 2 2 1 1 41 466 459
738 2 2 1 1 466 467 459
739 2 2 1 1 466 133 467
740 2 2 1 1 459 467 131
741 2 2 1 1 133 468 467
742 2 2 1 1 468 469 467
743 2 2 1 1 468 109 469
744 2 2 1 1 467 469 131
745 2 2 1 1 133 470 468
746 2 2 1 1 470 362 468
747 2 2 1 1 470 1 362
748 2 2 1 1 468 362 109
749 2 2 1 1 131 469 463
750 2 2 1 1 469 368 463
751 2 2 1 1 469 109 368
752 2 2 1 1 463 368 38
753 2 2 1 1 28 465 297
754 2 2 1 1 465 471 297
755 2 2 1 1 465 132 471
756 2 2 1 1 297 471 87
757 2 2 1 1 132 472 471
758 2 2 1 1 472 473 471
759 2 2 1 1 472 115 473
760 2 2 1 1 471 473 87
761 2 2 1 1 132 464 472
762 2 2 1 1 464 384 472
763 2 2 1 1 464 38 384
764 2 2 1 1 472 384 115
765 2 2 1 1 87 473 298
766 2 2 1 1 473 389 298
767 2 2 1 1 473 115 389
768 2 2 1 1 298 389 12
769 2 2 1 1 9 474 261
770 2 2 1 1 474 475 261
771 2 2 1 1 474 134 475
772 2 2 1 1 261 475 77
773 2 2 1 1 134 476 475
774 2 2 1 1 476 477 475
775 2 2 1 1 476 135 477
776 2 2 1 1 475 477 77
777 2 2 1 1 134 478 476
778 2 2 1 1 478 479 476
779 2 2 1 1 478 42 479
780 2 2 1 1 476 479 135
781 2 2 1 1 77 477 262
782 2 2 1 1 477 480 262
783 2 2 1 1 477 135 480
784 2 2 1 1 262 480 25
785 2 2 1 1 42 481 479
786 2 2 1 1 481 482 479
787 2 2 1 1 481 136 482
788 2 2 1 1 479 482 135
789 2 2 1 1 136 483 482
790 2 2 1 1 483 484 482
791 2 2 1 1 483 137 484
792 2 2 1 1 482 484 135
793 2 2 1 1 136 485 483
794 2 2 1 1 485 486 483
795 2 2 1 1 485 17 486
796 2 2 1 1 483 486 137
797 2 2 1 1 135 484 480
798 2 2 1 1 484 487 480
799 2 2 1 1 484 137 487
800 2 2 1 1 480 487 25
801 2 2 1 1 42 488 481
802 2 2 1 1 488 489 481
803 2 2 1 1 488 138 489
804 2 2 1 1 481 489 136
805 2 2 1 1 138 490 489
806 2 2 1 1 490 491 489
807 2 2 1 1 490 46 491
808 2 2 1 1 489 491 136
809 2 2 1 1 138 492 490
810 2 2 1 1 492 152 490
811 2 2 1 1 492 8 152
812 2 2 1 1 490 152 46
813 2 2 1 1 136 491 485
814 2 2 1 1 491 158 485
815 2 2 1 1 491 46 158
816 2 2 1 1 485 158 17
817 2 2 1 1 25 487 267
818 2 2 1 1 487 493 267
819 2 2 1 1 487 137 493
820 2 2 1 1 267 493 78
821 2 2 1 1 137 494 493
822 2 2 1 1 494 495 493
823 2 2 1 1 494 52 495
824 2 2 1 1 493 495 78
825 2 2 1 1 137 486 494
826 2 2 1 1 486 174 494
827 2 2 1 1 486 17 174
828 2 2 1 1 494 174 52
829 2 2 1 1 78 495 268
830 2 2 1 1 495 179 268
831 2 2 1 1 495 52 179
832 2 2 1 1 268 179 11
833 2 2 1 1 8 492 201
834 2 2 1 1 492 496 201
835 2 2 1 1 492 138 496
836 2 2 1 1 201 496 59
837 2 2 1 1 138 497 496
838 2 2 1 1 497 498 496
839 2 2 1 1 497 139 498
840 2 2 1 1 496 498 59
841 2 2 1 1 138 488 497
842 2 2 1 1 488 499 497
843 2 2 1 1 488 42 499
844 2 2 1 1 497 499 139
845 2 2 1 1 59 498 202
846 2 2 1 1 498 500 202
847 2 2 1 1 498 139 500
848 2 2 1 1 202 500 19
849 2 2 1 1 42 501 499
850 2 2 1 1 501 502 499
851 2 2 1 1 501 140 502
852 2 2 1 1 499 502 139
853 2 2 1 1 140 503 502
854 2 2 1 1 503 504 502
855 2 2 1 1 503 141 504
856 2 2 1 1 502 504 139
857 2 2 1 1 140 505 503
858 2 2 1 1 505 506 503
859 2 2 1 1 505 23 506
860 2 2 1 1 503 506 141
861 2 2 1 1 139 504 500
862 2 2 1 1 504 507 500
863 2 2 1 1 504 141 507
864 2 2 1 1 500 507 19
865 2 2 1 1 42 478 501
866 2 2 1 1 478 508 501
867 2 2 1 1 478 134 508
868 2 2 1 1 501 508 140
869 2 2 1 1 134 509 508
870 2 2 1 1 509 510 508
871 2 2 1 1 509 64 510
872 2 2 1 1 508 510 140
873 2 2 1 1 134 474 509
874 2 2 1 1 474 212 509
875 2 2 1 1 474 9 212
876 2 2 1 1 509 212 64
877 2 2 1 1 140 510 505
878 2 2 1 1 510 218 505
879 2 2 1 1 510 64 218
880 2 2 1 1 505 218 23
881 2 2 1 1 19 507 207
882 2 2 1 1 507 511 207
883 2 2 1 1 507 141 511
884 2 2 1 1 207 511 60
885 2 2 1 1 141 512 511
886 2 2 1 1 512 513 511
887 2 2 1 1 512 70 513
888 2 2 1 1 511 513 60
889 2 2 1 1 141 506 512
890 2 2 1 1 506 234 512
891 2 2 1 1 506 23 234
892 2 2 1 1 512 234 70
893 2 2 1 1 60 513 208
894 2 2 1 1 513 239 208
895 2 2 1 1 513 70 239
896 2 2 1 1 208 239 13
897 2 2 1 1 6 514 381
898 2 2 1 1 514 515 381
899 2 2 1 1 514 142 515
900 2 2 1 1 381 515 113
901 2 2 1 1 142 516 515
902 2 2 1 1 516 517 515
903 2 2 1 1 516 143 517
904 2 2 1 1 515 517 113
905 2 2 1 1 142 518 516
906 2 2 1 1 518 519 516
907 2 2 1 1 518 43 519
908 2 2 1 1 516 519 143
909 2 2 1 1 113 517 382
910 2 2 1 1 517 520 382
911 2 2 1 1 517 143 520
912 2 2 1 1 382 520 37
913 2 2 1 1 43 521 519
914 2 2 1 1 521 522 519
915 2 2 1 1 521 144 522
916 2 2 1 1 519 522 143
917 2 2 1 1 144 523 522
918 2 2 1 1 523 524 522
919 2 2 1 1 523 145 524
920 2 2 1 1 522 524 143
921 2 2 1 1 144 525 523
922 2 2 1 1 525 526 523
923 2 2 1 1 525 29 526
924 2 2 1 1 523 526 145
925 2 2 1 1 143 524 520
926 2 2 1 1 524 527 520
927 2 2 1 1 524 145 527
928 2 2 1 1 520 527 37
929 2 2 1 1 43 528 521
930 2 2 1 1 528 529 521
931 2 2 1 1 528 146 529
932 2 2 1 1 521 529 144
933 2 2 1 1 146 530 529
934 2 2 1 1 530 531 529
935 2 2 1 1 530 82 531
936 2 2 1 1 529 531 144
937 2 2 1 1 146 532 530
938 2 2 1 1 532 272 530
939 2 2 1 1 532 10 272
940 2 2 1 1 530 272 82
941 2 2 1 1 144 531 525
942 2 2 1 1 531 278 525
943 2 2 1 1 531 82 278
944 2 2 1 1 525 278 29
945 2 2 1 1 37 527 387
946 2 2 1 1 527 533 387
947 2 2 1 1 527 145 533
948 2 2 1 1 387 533 114
949 2 2 1 1 145 534 533
950 2 2 1 1 534 535 533
951 2 2 1 1 534 88 535
952 2 2 1 1 533 535 114
953 2 2 1 1 145 526 534
954 2 2 1 1 526 294 534
955 2 2 1 1 526 29 294
956 2 2 1 1 534 294 88
957 2 2 1 1 114 535 388
958 2 2 1 1 535 299 388
959 2 2 1 1 535 88 299
960 2 2 1 1 388 299 12
961 2 2 1 1 10 532 321
962 2 2 1 1 532 536 321
963 2 2 1 1 532 146 536
964 2 2 1 1 321 536 95
965 2 2 1 1 146 537 536
966 2 2 1 1 537 538 536
967 2 2 1 1 537 147 538
968 2 2 1 1 536 538 95
969 2 2 1 1 146 528 537
970 2 2 1 1 528 539 537
971 2 2 1 1 528 43 539
972 2 2 1 1 537 539 147
973 2 2 1 1 95 538 322
974 2 2 1 1 538 540 322
975 2 2 1 1 538 147 540
976 2 2 1 1 322 540 31
977 2 2 1 1 43 541 539
978 2 2 1 1 541 542 539
979 2 2 1 1 541 148 542
980 2 2 1 1 539 542 147
981 2 2 1 1 148 543 542
982 2 2 1 1 543 544 542
983 2 2 1 1 543 149 544
984 2 2 1 1 542 544 147
985 2 2 1 1 148 545 543
986 2 2 1 1 545 546 543
987 2 2 1 1 545 35 546
988 2 2 1 1 543 546 149
989 2 2 1 1 147 544 540
990 2 2 1 1 544 547 540
991 2 2 1 1 544 149 547
992 2 2 1 1 540 547 31
993 2 2 1 1 43 518 541
994 2 2 1 1 518 548 541
995 2 2 1 1 518 142 548
996 2 2 1 1 541 548 148
997 2 2 1 1 142 549 548
998 2 2 1 1 549 550 548
999 2 2 1 1 549 100 550
1000 2 2 1 1 548 550 148
1001 2 2 1 1 142 514 549
1002 2 2 1 1 514 332 549
1003 2 2 1 1 514 6 332
1004 2 2 1 1 549 332 100
1005 2 2 1 1 148 550 545
1006 2 2 1 1 550 338 545
1007 2 2 1 1 550 100 338
1008 2 2 1 1 545 338 35
1009 2 2 1 1 31 547 327
1010 2 2 1 1 547 551 327
1011 2 2 1 1 547 149 551
1012 2 2 1 1 327 551 96
1013 2 2 1 1 149 552 551
1014 2 2 1 1 552 553 551
1015 2 2 1 1 552 106 553
1016 2 2 1 1 551 553 96
1017 2 2 1 1 149 546 552
1018 2 2 1 1 546 354 552
1019 2 2 1 1 546 35 354
1020 2 2 1 1 552 354 106
1021 2 2 1 1 96 553 328
1022 2 2 1 1 553 359 328
1023 2 2 1 1 553 106 359
1024 2 2 1 1 328 359 14
$EndElements
