$MeshFormat
2.2 0 8
$EndMeshFormat
$Nodes
900
1 3.33066907387547e-16 0.4385983548579048 0
2 0 0 0
3 0.2813866796372065 0.6212899211044912 0
4 3.122502256758253e-16 0.8039814873510776 0
5 4.787836793695988e-16 0.8946109990860371 0
6 0.2662358000152812 1.083324588412126 0
7 4.371503159461554e-16 1.272038177738215 0
8 -1.304512053934559e-15 1.330451559040233 0
9 0.2713119136810153 1.517306077227915 0
10 -1.40165656858926e-15 1.704160595415598 0
11 -1.471045507628332e-15 1.812647200469568 0
12 0.3218729402366413 1.971225214198065 0
13 -1.52655665885959e-15 2.129803227926562 0
14 6.46531439496556e-15 2.211091083457737 0
15 0.1791029453712725 2.409996370234744 0
16 6.423681031542117e-15 2.608901657011751 0
17 0 2.802495608198964 0
18 0.07949625698584005 2.802495608198962 0
19 0.4465859024584932 2.802495608198971 0
20 0.5127501664253113 2.802495608199071 0
21 0.8411051204322832 2.649116972849048 0
22 0.7694600744392553 2.802495608199071 0
23 1.190346657830942 2.802495608198972 0
24 1.554381223086983 2.802495608198958 0
25 1.936373692343426 2.802495608198966 0
26 2.336199474268428 2.802495608198963 0
27 2.802495608198964 2.802495608198964 0
28 2.802495608198971 2.608901657011751 0
29 2.802495608198971 2.211091083457737 0
30 2.802495608198963 2.129803227926562 0
31 2.802495608198963 1.812647200469568 0
32 2.802495608198963 1.704160595415598 0
33 2.802495608198963 1.330451559040233 0
34 2.802495608198965 1.272038177738215 0
35 2.802495608198965 0.8946109990860373 0
36 2.802495608198964 0.8039814873510776 0
37 2.802495608198964 0.4385983548579048 0
38 2.802495608198964 0 0
39 2.336199474268428 -1.330532906074211e-15 0
40 2.336286583305927 0.005902205267120428 0
41 1.936373692343426 1.635844237846129e-15 0
42 1.554381223086983 -6.550315845288424e-15 0
43 1.572363940458968 0.08288370662989968 0
44 1.190346657830942 6.862566070964249e-15 0
45 0.7694600744392555 1.064981436371681e-13 0
46 0.5127501664253116 1.066924326664775e-13 0
47 0.4465859024584933 6.654399253847032e-15 0
48 0.4630410797221629 0.07944367845644594 0
49 0.07949625698584009 -2.116362640691705e-15 0
50 0.8532181481863172 0.6470024687486923 0
51 1.303061392462594 0.4774028760482676 0
52 0.8070188591970875 1.182979849218551 0
53 1.199902308686703 0.9698818481430159 0
54 1.588454655722836 1.259696734995115 0
55 1.797420629864891 0.560049097391471 0
56 2.340475015335798 0.7148298244223179 0
57 2.542228033221386 1.212827807177055 0
58 1.050188919555361 1.646692068180211 0
59 1.448195655286641 2.022112771774782 0
60 0.8575787882319805 2.03311299834241 0
61 1.582361906002903 2.417569971644962 0
62 2.100584687850485 1.526525421206354 0
63 2.526171385049684 1.878528406026753 0
64 2.026086444388851 2.210393727641245 0
65 2.433862418592077 2.288062145365847 0
66 0 0.3508786838863238 0
67 0 0.263159012914743 0
68 0 0.1754393419431617 0
69 0 0.08771967097158084 0
70 0.09704629033088091 0.4219039221152879 0
71 0.1902964222513517 0.4535440777469861 0
72 0.2571449632582481 0.5258487049629024 0
73 0.2571449632582482 0.71673113724608 0
74 0.1902964222513518 0.7890357644619963 0
75 0.09704629033088091 0.8206759200936945 0
76 0.09405222507372604 0.8852684183568414 0
77 0.1818922741032973 0.9201572509896873 0
78 0.2439030378752806 0.9914858569792586 0
79 0.2439030378752806 1.175163319844994 0
80 0.1818922741032973 1.246491925834565 0
81 0.0940522250737259 1.281380758467411 0
82 0.09510780302939391 1.318726733765108 0
83 0.1847526851518508 1.352590591106842 0
84 0.2483544993689891 1.424268865033458 0
85 0.2483544993689891 1.610343289422373 0
86 0.1847526851518507 1.682021563348989 0
87 0.09510780302939383 1.715885420690723 0
88 0 1.758403897942583 0
89 0.08017156843668899 1.77562103328671 0
90 0.1684732545032276 1.776729942506809 0
91 0.247689722980458 1.81575773470478 0
92 0.3023768966320114 1.88509553449578 0
93 0.3023768966320114 2.057354893900351 0
94 0.247689722980458 2.126692693691351 0
95 0.1684732545032276 2.165720485889321 0
96 0.08017156843668893 2.166829395109421 0
97 0.09093672556733096 2.244185617847996 0
98 0.1556911047127352 2.316099501381762 0
99 0.1556911047127353 2.503893239087727 0
100 0.0909367255673309 2.575807122621493 0
101 0 2.705698632605358 0
102 0.1345976151535355 2.728634764838186 0
103 0.2169661845679474 2.687318876532196 0
104 0.3091159748763891 2.687318876532199 0
105 0.3914845442907986 2.728634764838193 0
106 0.4591298710473047 2.732092924854884 0
107 0.441138845938838 2.645444226572474 0
108 0.4622995871435849 2.559514622068813 0
109 0.5184689940473978 2.491128427361375 0
110 0.5986495547017205 2.453675101852841 0
111 0.6871425690054846 2.454487701338132 0
112 0.7666218262006539 2.493407125462775 0
113 0.8215259356860589 2.562813268275241 0
114 0.8223107919790162 2.733760369515873 0
115 1.106169341152604 2.802495608198964 0
116 1.021992024474267 2.802495608198964 0
117 0.9378147077959298 2.802495608198964 0
118 0.8536373911175925 2.802495608198964 0
119 1.245659736052151 2.73063421931487 0
120 1.327021918463195 2.690586858503331 0
121 1.417705962454725 2.690586858503327 0
122 1.499068144865773 2.730634219314859 0
123 1.840875575029315 2.802495608198964 0
124 1.745377457715204 2.802495608198964 0
125 1.649879340401094 2.802495608198964 0
126 1.957962176842632 2.71784172002388 0
127 2.013576489215728 2.650466712006067 0
128 2.092604941148914 2.613226314167477 0
129 2.179968225462936 2.613226314167476 0
130 2.258996677396123 2.650466712006065 0
131 2.314610989769221 2.717841720023877 0
132 2.709236381412857 2.802495608198964 0
133 2.61597715462675 2.802495608198964 0
134 2.522717927840643 2.802495608198964 0
135 2.429458701054536 2.802495608198964 0
136 2.802495608198964 2.705698632605358 0
137 2.70852457360093 2.596168853302047 0
138 2.63098181128854 2.541581312171307 0
139 2.587300251746557 2.457411240354086 0
140 2.587300251746557 2.362581500115402 0
141 2.63098181128854 2.278411428298181 0
142 2.70852457360093 2.223823887167441 0
143 2.744960371298485 2.059614727016813 0
144 2.724368548435605 1.971225214198065 0
145 2.744960371298485 1.882835701379317 0
146 2.802495608198964 1.758403897942583 0
147 2.723939070533093 1.649742655599926 0
148 2.679599155546183 1.565087982233449 0
149 2.679599155546183 1.469524172222382 0
150 2.723939070533093 1.384869498855904 0
151 2.721030428874562 1.218174210962946 0
152 2.674784187532384 1.132155680861314 0
153 2.674784187532384 1.034493495962939 0
154 2.721030428874562 0.948474965861307 0
155 2.729763165533244 0.7487548030939066 0
156 2.689164540102537 0.6669517072887928 0
157 2.689164540102537 0.5756281349201895 0
158 2.729763165533244 0.4938250391150757 0
159 2.802495608198964 0.08771967097158098 0
160 2.802495608198964 0.175439341943162 0
161 2.802495608198964 0.2631590129147429 0
162 2.802495608198964 0.3508786838863239 0
163 2.429458701054535 0 0
164 2.522717927840643 0 0
165 2.61597715462675 0 0
166 2.709236381412857 0 0
167 2.316112864351405 0.0934379616490281 0
168 2.2596614968524 0.1633145005537348 0
169 2.178320821034145 0.201435125407458 0
170 2.088500276231924 0.2001094884884999 0
171 2.008320006717557 0.1596050200632486 0
172 1.95395535471985 0.08809297775583722 0
173 1.649879340401094 0 0
174 1.745377457715204 0 0
175 1.840875575029315 0 0
176 1.552790223263296 0.1691759801740185 0
177 1.497900375724838 0.2385776481328949 0
178 1.41843838136991 0.2775042242911784 0
179 1.329957906251587 0.2783363307176884 0
180 1.249777868342917 0.2409110932537326 0
181 1.193592481511527 0.1725540220403149 0
182 1.172399314481088 0.08664513687999449 0
183 0.8536373911175926 0 0
184 0.9378147077959298 0 0
185 1.021992024474267 0 0
186 1.106169341152604 0 0
187 0.6871425690054849 0.04125063616099922 0
188 0.5950676718590822 0.04125063616099933 0
189 0.4436698649002269 0.1653112623580373 0
190 0.3893086600711946 0.2345452521196452 0
191 0.3104878910022907 0.2737341828547514 0
192 0.2224760981941547 0.2752866826042387 0
193 0.1423222351002879 0.2389020133065239 0
194 0.08555307872868356 0.1716283274135184 0
195 0.06316550431268617 0.08649735513819079 0
196 0.8303093533169593 0.7399471031574459 0
197 0.7668310975325485 0.8115992419274236 0
198 0.6773254842373819 0.845544243568303 0
199 0.5822971707778102 0.8340057172857752 0
200 0.5035159985520972 0.7796270003968514 0
201 0.4590297847011069 0.6948656016062039 0
202 0.4590297847011069 0.5991393358911807 0
203 0.5035159985520971 0.5143779371005333 0
204 0.5822971707778101 0.4599992202116093 0
205 0.6773254842373817 0.4484606939290814 0
206 0.7668310975325484 0.4824056955699609 0
207 0.8303093533169592 0.5540578343399385 0
208 1.280152597593236 0.5703475104570214 0
209 1.216674341808825 0.6419996492269989 0
210 1.127168728513658 0.6759446508678785 0
211 1.032140415054087 0.6644061245853506 0
212 0.9533592428283737 0.6100274076964267 0
213 0.9088730289773834 0.5252660089057792 0
214 0.9088730289773834 0.4295397431907562 0
215 0.9533592428283736 0.3447783444001087 0
216 1.032140415054087 0.2903996275111847 0
217 1.127168728513658 0.2788611012286568 0
218 1.216674341808825 0.3128061028695363 0
219 1.280152597593236 0.3844582416395138 0
220 0.7841100643277295 1.275924483627305 0
221 0.7206318085433187 1.347576622397283 0
222 0.6311261952481521 1.381521624038162 0
223 0.5360978817885803 1.369983097755634 0
224 0.4573167095628672 1.315604380866711 0
225 0.412830495711877 1.230842982076063 0
226 0.412830495711877 1.13511671636104 0
227 0.4573167095628672 1.050355317570393 0
228 0.5360978817885802 0.9959766006814685 0
229 0.6311261952481519 0.9844380743989407 0
230 0.7206318085433185 1.01838307603982 0
231 0.7841100643277293 1.090035214809798 0
232 1.176993513817345 1.06282648255177 0
233 1.113515258032934 1.134478621321747 0
234 1.024009644737767 1.168423622962627 0
235 0.9289813312781955 1.156885096680099 0
236 0.8502001590524824 1.102506379791175 0
237 0.8057139452014922 1.017744981000527 0
238 0.8057139452014922 0.9220187152855044 0
239 0.8502001590524824 0.8372573164948569 0
240 0.9289813312781954 0.782878599605933 0
241 1.024009644737767 0.771340073323405 0
242 1.113515258032934 0.8052850749642846 0
243 1.176993513817345 0.8769372137342621 0
244 1.565545860853478 1.352641369403868 0
245 1.502067605069067 1.424293508173846 0
246 1.412561991773901 1.458238509814725 0
247 1.317533678314329 1.446699983532198 0
248 1.238752506088616 1.392321266643274 0
249 1.194266292237625 1.307559867852626 0
250 1.194266292237625 1.211833602137603 0
251 1.238752506088616 1.127072203346956 0
252 1.317533678314329 1.072693486458032 0
253 1.4125619917739 1.061154960175504 0
254 1.502067605069067 1.095099961816383 0
255 1.565545860853478 1.166752100586361 0
256 1.774511834995533 0.6529937318002247 0
257 1.711033579211122 0.7246458705702024 0
258 1.621527965915956 0.7585908722110818 0
259 1.526499652456384 0.747052345928554 0
260 1.447718480230671 0.6926736290396301 0
261 1.403232266379681 0.6079122302489827 0
262 1.403232266379681 0.5121859645339595 0
263 1.447718480230671 0.427424565743312 0
264 1.526499652456384 0.3730458488543881 0
265 1.621527965915955 0.3615073225718602 0
266 1.711033579211122 0.3954523242127397 0
267 1.774511834995533 0.4671044629827172 0
268 2.31756622046644 0.8077744588310716 0
269 2.25408796468203 0.8794265976010491 0
270 2.164582351386863 0.9133715992419287 0
271 2.069554037927291 0.9018330729594008 0
272 1.990772865701578 0.847454356070477 0
273 1.946286651850588 0.7626929572798296 0
274 1.946286651850588 0.6669666915648064 0
275 1.990772865701578 0.5822052927741589 0
276 2.069554037927291 0.527826575885235 0
277 2.164582351386863 0.5162880496027071 0
278 2.25408796468203 0.5502330512435866 0
279 2.31756622046644 0.621885190013564 0
280 2.519319238352028 1.305772441585809 0
281 2.455840982567617 1.377424580355786 0
282 2.366335369272451 1.411369581996666 0
283 2.271307055812879 1.399831055714138 0
284 2.192525883587166 1.345452338825214 0
285 2.148039669736176 1.260690940034567 0
286 2.148039669736176 1.164964674319544 0
287 2.192525883587166 1.080203275528896 0
288 2.271307055812879 1.025824558639972 0
289 2.366335369272451 1.014286032357444 0
290 2.455840982567617 1.048231033998324 0
291 2.519319238352028 1.119883172768301 0
292 1.027280124686003 1.739636702588965 0
293 0.9638018689015924 1.811288841358942 0
294 0.8742962556064258 1.845233842999822 0
295 0.779267942146854 1.833695316717294 0
296 0.700486769921141 1.77931659982837 0
297 0.6560005560701507 1.694555201037723 0
298 0.6560005560701507 1.598828935322699 0
299 0.7004867699211409 1.514067536532052 0
300 0.7792679421468539 1.459688819643128 0
301 0.8742962556064255 1.4481502933606 0
302 0.9638018689015923 1.482095295001479 0
303 1.027280124686003 1.553747433771457 0
304 1.425286860417283 2.115057406183535 0
305 1.361808604632872 2.186709544953513 0
306 1.272302991337706 2.220654546594393 0
307 1.177274677878134 2.209116020311865 0
308 1.098493505652421 2.154737303422941 0
309 1.05400729180143 2.069975904632293 0
310 1.05400729180143 1.97424963891727 0
311 1.098493505652421 1.889488240126623 0
312 1.177274677878134 1.835109523237699 0
313 1.272302991337705 1.823570996955171 0
314 1.361808604632872 1.857515998596051 0
315 1.425286860417283 1.929168137366028 0
316 0.8346699933626225 2.126057632751163 0
317 0.7711917375782117 2.197709771521141 0
318 0.6816861242830451 2.23165477316202 0
319 0.5866578108234733 2.220116246879493 0
320 0.5078766385977602 2.165737529990569 0
321 0.4633904247467701 2.080976131199921 0
322 0.4633904247467701 1.985249865484898 0
323 0.5078766385977602 1.900488466694251 0
324 0.5866578108234732 1.846109749805327 0
325 0.681686124283045 1.834571223522799 0
326 0.7711917375782116 1.868516225163678 0
327 0.8346699933626224 1.940168363933656 0
328 1.559453111133545 2.510514606053715 0
329 1.495974855349135 2.582166744823693 0
330 1.406469242053968 2.616111746464572 0
331 1.311440928594396 2.604573220182045 0
332 1.232659756368683 2.550194503293121 0
333 1.188173542517693 2.465433104502473 0
334 1.188173542517693 2.36970683878745 0
335 1.232659756368683 2.284945439996803 0
336 1.311440928594396 2.230566723107879 0
337 1.406469242053968 2.219028196825351 0
338 1.495974855349135 2.25297319846623 0
339 1.559453111133545 2.324625337236208 0
340 2.077675892981127 1.619470055615107 0
341 2.014197637196717 1.691122194385085 0
342 1.92469202390155 1.725067196025964 0
343 1.829663710441978 1.713528669743437 0
344 1.750882538216265 1.659149952854513 0
345 1.706396324365275 1.574388554063865 0
346 1.706396324365275 1.478662288348842 0
347 1.750882538216265 1.393900889558195 0
348 1.829663710441978 1.339522172669271 0
349 1.92469202390155 1.327983646386743 0
350 2.014197637196717 1.361928648027622 0
351 2.077675892981127 1.4335807867976 0
352 2.503262590180326 1.971473040435507 0
353 2.439784334395915 2.043125179205485 0
354 2.350278721100749 2.077070180846364 0
355 2.255250407641177 2.065531654563836 0
356 2.176469235415464 2.011152937674912 0
357 2.131983021564474 1.926391538884265 0
358 2.131983021564474 1.830665273169242 0
359 2.176469235415464 1.745903874378594 0
360 2.255250407641177 1.69152515748967 0
361 2.350278721100749 1.679986631207143 0
362 2.439784334395915 1.713931632848022 0
363 2.503262590180326 1.785583771617999 0
364 2.003177649519493 2.303338362049999 0
365 1.939699393735082 2.374990500819977 0
366 1.850193780439916 2.408935502460856 0
367 1.755165466980344 2.397396976178328 0
368 1.676384294754631 2.343018259289404 0
369 1.631898080903641 2.258256860498757 0
370 1.631898080903641 2.162530594783734 0
371 1.676384294754631 2.077769195993086 0
372 1.755165466980344 2.023390479104163 0
373 1.850193780439915 2.011851952821635 0
374 1.939699393735082 2.045796954462514 0
375 2.003177649519493 2.117449093232492 0
376 2.410953623722719 2.3810067797746 0
377 2.347475367938308 2.452658918544578 0
378 2.257969754643142 2.486603920185457 0
379 2.16294144118357 2.47506539390293 0
380 2.084160268957857 2.420686677014006 0
381 2.039674055106867 2.335925278223358 0
382 2.039674055106867 2.240199012508335 0
383 2.084160268957857 2.155437613717687 0
384 2.16294144118357 2.101058896828763 0
385 2.257969754643142 2.089520370546236 0
386 2.347475367938308 2.123465372187115 0
387 2.410953623722719 2.195117510957093 0
388 2.345138014883524 0.1730841663699847 0
389 1.862210661400018 1.253551291764105 0
390 2.732386873481818 0.3045954823712749 0
391 2.63163097762308 0.4980992087640895 0
392 1.691537591910517 0.8116840595262103 0
393 0.8471849178407176 2.469320410362211 0
394 1.64888372008853 1.655591086785641 0
395 2.409513032444558 0.7811417399536453 0
396 0.6212908445750234 0.1131009436441459 0
397 2.013332242851688 0.2492954045575992 0
398 1.978463844992952 0.9424983555287496 0
399 2.353174253991114 0.5389944495574033 0
400 1.13268108564074 2.542694448437761 0
401 0.5859429477673472 1.639983360616036 0
402 0.2529881618596159 2.350896412833352 0
403 2.562625386510867 0.08065855096624297 0
404 1.798700398151205 2.477646035800468 0
405 0.847500204793313 2.225505673277282 0
406 1.34987758379779 1.767223677710192 0
407 0.8103565342031092 0.06879002095522302 0
408 0.3306196475315948 1.8063578486523 0
409 1.439776267775207 0.792559156555377 0
410 1.600242721657948 1.077415648484519 0
411 1.666385495394572 1.974522336435669 0
412 1.801039474263998 0.09061418145153732 0
413 2.482473578827793 2.718248287536188 0
414 0.4990668709448799 2.258385032605846 0
415 1.692507169904661 2.710028474775022 0
416 0.4766574231247664 0.2516653893171574 0
417 0.74514510347755 0.3824875637551468 0
418 2.419257218637202 0.5940402284469416 0
419 1.088619932178627 2.457669237065955 0
420 2.239547898159681 0.4586966596996563 0
421 2.329424571019737 0.4197176187007592 0
422 1.435703268160697 1.788445774141184 0
423 1.415264494195055 1.689701363501796 0
424 1.807884667630991 0.3703913820099463 0
425 2.44048540967254 1.471911216071147 0
426 1.513091334758975 0.8445971432857053 0
427 1.127047000737434 1.586105194487234 0
428 1.699720120528756 1.740056843562981 0
429 2.638620293742449 0.7430126961730712 0
430 1.085383979242349 2.35511998621018 0
431 1.324640408454585 1.680405709955858 0
432 0.9796740507917756 0.07172332612683863 0
433 1.683341241495522 0.296870973558643 0
434 0.3388611435430513 1.588196342137081 0
435 2.538700389413567 2.064676266982766 0
436 2.62528754829972 0.9524181592579852 0
437 0.2540920304043743 2.474661532647493 0
438 1.046143285458806 2.544077585254323 0
439 2.051790297075057 1.860261096538421 0
440 1.659337561155972 1.147604387874123 0
441 1.689651005674055 1.056804536391908 0
442 0.948446296006515 1.387608659286119 0
443 0.2863383367349475 0.8107759855719359 0
444 2.118737823848397 0.2797628078437613 0
445 0.4197452496413595 0.3152289871030467 0
446 0.6670845553381237 0.3482542099638741 0
447 0.7341975367859243 0.2900586344630958 0
448 2.356110274011108 2.617117913751824 0
449 0.331454718664937 2.409996370234744 0
450 0.9799033661350984 2.729595913533117 0
451 0.7769074488062185 2.409434121194425 0
452 1.781274321118531 1.808018751779305 0
453 1.898467190520589 0.8862165538832744 0
454 1.896586165199559 0.9839073490452467 0
455 1.969993371426388 1.037852234548334 0
456 1.930126735729729 0.2053377291209417 0
457 2.438339729962955 0.5120980747085893 0
458 2.536247611085473 2.537325616502976 0
459 2.741296540593996 1.793396807538009 0
460 1.351299197764643 0.9853639185356051 0
461 1.980219742460456 0.4800150669731124 0
462 1.472341333932275 1.519144374623481 0
463 0.4704050968126755 0.9543363280783194 0
464 1.927021841458294 2.635529710176731 0
465 0.9457338645858266 0.2503793486391561 0
466 1.533642695338693 1.874717968457771 0
467 2.607413611406275 0.6220320409407412 0
468 0.4198398715483409 2.20709940173528 0
469 2.306205946399899 1.602156900583331 0
470 0.4496139454247138 1.411020235798557 0
471 2.264423375816317 0.247694417986642 0
472 1.962213523748432 1.239917449710699 0
473 1.142988539189411 1.403029158438203 0
474 0.5001738744596068 1.805072611762404 0
475 2.533576034698409 1.694783920135784 0
476 1.986758875823042 2.569335997930891 0
477 1.63575761665897 0.1426294187003043 0
478 0.3381819352687165 0.3674987308106006 0
479 0.5283994498053572 1.465408082510592 0
480 0.8585497300332043 2.379151986719076 0
481 2.44048540967254 0.9537443982829634 0
482 1.626172749889644 0.985152397621931 0
483 1.888883401061406 1.079323203977093 0
484 2.726528144725963 0.1315795064573717 0
485 1.10859662103667 0.1479534004951626 0
486 2.622478995095386 2.636029084778825 0
487 1.366421459179001 0.7265662134531845 0
488 2.598490711653057 1.805509116881176 0
489 1.816978101448737 0.9347049604237921 0
490 2.053920287990949 0.340645260790533 0
491 2.351539101448373 0.2766590647560034 0
492 2.428457959458405 0.2258166429675623 0
493 2.432219334315375 0.3161032035153963 0
494 2.50858257091419 0.2699952403412118 0
495 2.519065717996042 0.3763950419690356 0
496 1.142135731533478 1.673324787057637 0
497 1.081843393409799 2.634192333734459 0
498 1.693963531134149 1.247958514871032 0
499 2.546602313451544 0.7003828967261342 0
500 2.558879259764121 0.7945096460209119 0
501 0.9305200520580471 2.427355614222225 0
502 0.9389356644323215 2.341099072903179 0
503 1.960676479570339 0.3256634075424778 0
504 1.520582848129815 1.735915860487666 0
505 0.2827808985596596 1.339719105697636 0
506 1.798457837652166 0.2735102981451394 0
507 2.599844398176227 1.515528487760225 0
508 1.846652812550697 0.7993400126677449 0
509 1.355275911589593 0.8201325964123233 0
510 1.48671203217399 1.000613326101023 0
511 1.59538968619901 2.59379475053461 0
512 1.109890225152059 1.302480584961355 0
513 0.6291775973295541 2.378456536830084 0
514 0.3718008590872262 2.570419333593578 0
515 1.206928530501426 0.7915651290925628 0
516 0.9053000441375064 2.58918071349861 0
517 0.5182332008459056 0.3336347691775741 0
518 0.5646109964844568 0.2592116177908186 0
519 2.490162519612589 1.62401171067972 0
520 0.4164529914514278 0.5100696428058238 0
521 1.002844874113922 2.150882795340762 0
522 1.903458601689383 1.946902709497369 0
523 1.753604430794827 1.132037235655697 0
524 0.5261237430279612 2.402963362190786 0
525 2.630760526288938 2.187638123448001 0
526 2.589438018968383 0.3094261625677095 0
527 2.583855313324103 0.2249189132056522 0
528 2.085221661293966 2.00351547096313 0
529 2.42980413812786 0.1412537924521731 0
530 1.222982303990349 1.47305912584649 0
531 1.653219384560076 2.529670807504438 0
532 1.580735663216131 2.081623704075266 0
533 0.978008236257412 1.233746548152459 0
534 0.4210899746341668 2.294105343245189 0
535 0.3385691285235828 2.243580268290616 0
536 2.596826294622563 1.421721181625906 0
537 1.623494946446645 1.526525421206354 0
538 2.637328976435091 1.323776024905478 0
539 2.595209402158443 1.944840321558081 0
540 1.364286261660301 1.53556700864618 0
541 0.8654524438776694 0.2977677169698818 0
542 0.8632971254163269 0.2173250878720017 0
543 1.211173748642237 1.607012871526309 0
544 0.2787734443015597 2.61493794888317 0
545 1.594560289755212 1.801131133231783 0
546 2.139831738625871 0.3664003817386343 0
547 1.558872012018768 1.610750031316294 0
548 2.658098606988969 0.816633108293889 0
549 0.3259304850595073 1.662437828807141 0
550 0.4053466737478987 1.64727774554205 0
551 0.4216156746670392 1.562801118367731 0
552 2.116344496792719 0.9732789368594378 0
553 2.678104447136843 0.4186745885189633 0
554 0.3334838056753631 1.017777430019127 0
555 0.9435241915466344 1.908487988881145 0
556 1.560293517543407 1.980726777074928 0
557 1.059404959941983 2.246568998449896 0
558 2.750773896846271 1.300053262551069 0
559 0.5248063295190759 0.1384963576670901 0
560 1.79783815265975 1.925823931912054 0
561 0.4488994481986941 0.4081464535829995 0
562 2.644260410233574 2.044355975674974 0
563 2.496675379483493 2.220210406904648 0
564 0.4132551331278603 0.7727896521110058 0
565 1.150948186902472 2.707447109343027 0
566 0.4273276375201374 2.474436433518109 0
567 0.8018728555222255 2.319317901176517 0
568 0.378806630661165 1.859649032569505 0
569 1.905932866650043 2.553630660564122 0
570 1.844455034897649 2.631446591613952 0
571 2.166188313129045 1.580690937789833 0
572 2.20534498158724 1.494848414830994 0
573 2.630583138181429 1.71437956785279 0
574 1.430876262050504 0.9103233744067261 0
575 2.54665777249528 0.5422099507637049 0
576 1.600527116449342 0.2466927230487512 0
577 1.869179666230757 0.4563945992725547 0
578 1.701287014969346 1.881324676849759 0
579 0.3061512534489965 0.9158625611026613 0
580 2.441267068240802 2.471806631256816 0
581 2.308828555659761 1.487897252390182 0
582 0.341736632191183 1.435328194184456 0
583 0.3350816058677597 2.139384275439268 0
584 1.794073820961188 1.035700392705182 0
585 0.971182114977535 2.014633148765171 0
586 1.269656308086129 0.9124185918850629 0
587 1.596000867337777 2.727606782771435 0
588 1.057593569204086 1.462947582289242 0
589 1.862168591903914 1.866345980742559 0
590 2.067684196146555 2.518956616936278 0
591 1.985807235518025 2.474517112090908 0
592 2.289263556167114 0.333368447445979 0
593 0.1541134504202992 0.3330299242163537 0
594 2.381207634399041 1.546001029464923 0
595 0.2551542683356234 2.198980829080311 0
596 1.368360322090406 0.3526854926134617 0
597 2.346774856302502 0.9025496163981006 0
598 0.8637824288512952 1.345823596393066 0
599 1.907796199006111 0.5624828770360226 0
600 1.967664573287119 1.133701920866016 0
601 2.0510334879334 1.101087546485505 0
602 2.549604842313123 1.02593775288933 0
603 2.522012349332112 2.636708040933658 0
604 2.449571205648567 2.576031211145982 0
605 2.050956952484245 1.197335146784704 0
606 1.432957991199068 1.59924465514525 0
607 2.720536709949473 2.670831070980321 0
608 2.409066191923608 2.109061532938413 0
609 2.558951563928757 0.4482389039654355 0
610 1.983885426513867 1.779741813624537 0
611 0.3632135307983873 0.6909050955634441 0
612 1.238533087224252 1.684486256591317 0
613 1.726921905802487 0.9627770553297851 0
614 0.04470298905367076 1.301463512166346 0
615 1.022795289339131 0.1983951099818373 0
616 2.587011329589813 1.616849665327827 0
617 0.9404079707402402 0.1533282485587166 0
618 1.068770808077277 2.721472378282281 0
619 0.6334494466689711 1.77988488341904 0
620 1.210857522883148 2.648337150859385 0
621 1.874674213893233 0.1318165519763386 0
622 0.2507068469291502 0.3575287770730762 0
623 1.683521440383161 2.620429558685011 0
624 0.9942514106669245 2.619416504019958 0
625 1.655233906677765 1.397755397640374 0
626 2.568067617539598 2.7218396303443 0
627 2.431238020716956 0.4124816608421737 0
628 0.7350241038472003 0.1198290529006099 0
629 0.6857445626696054 0.1963447346145109 0
630 2.388392426347393 0.07609135530024247 0
631 0.5630083906548637 2.315925587369158 0
632 2.083750830543953 0.4384886464858015 0
633 0.5730947079432773 1.550958059837389 0
634 1.142892277701276 2.283061381162812 0
635 1.793121130256737 2.718324382112782 0
636 0.8975282932947998 2.717443928649455 0
637 1.540480880209362 2.166917057207575 0
638 0.3711695775658519 1.35666870856905 0
639 2.72924822476616 0.2188952830907429 0
640 0.4499229909623735 0.8627054967409457 0
641 0.3370703712969709 2.495958623627349 0
642 0.8791807503916578 1.2386755089199 0
643 1.064080682813436 0.07289969466584734 0
644 2.326381362328743 2.537185413897117 0
645 0.8959213409610403 0.07151124117408858 0
646 0.4271320589872458 2.377997398622516 0
647 2.50217961737551 2.401011051224609 0
648 0.3844664050494369 2.045223298146218 0
649 2.673664205973684 1.83803463725539 0
650 2.512405132670464 0.1668648323391193 0
651 1.702219619744359 0.07846823951527226 0
652 1.741363098706519 0.1614140427637019 0
653 1.116682584939286 1.769487947662861 0
654 0.9188933125194906 2.099998186876879 0
655 1.782032725719199 1.218989963875839 0
656 1.675391595853267 2.436716348905255 0
657 0.7025567503761988 0.9310671336623624 0
658 2.53649908942995 0.9343626654833468 0
659 2.481949763751541 0.8562907289919832 0
660 1.315608917634426 0.6407151636452448 0
661 2.083708241828265 1.759628051235322 0
662 0.9499901290275847 2.249079525431487 0
663 2.656715315138723 0.08185690635444476 0
664 2.430374350366789 0.685888833275318 0
665 0.5543360337074005 1.734031964434532 0
666 0.4567018226316951 1.723510495660186 0
667 0.3250441205267931 1.177342473206292 0
668 1.039418268232761 1.377444969291306 0
669 1.86026555402519 0.6297274022737585 0
670 2.700462247796637 2.13250539770179 0
671 0.6194426773785146 1.472056514226466 0
672 1.59486766617814 0.8330449135255468 0
673 0.1389512468395671 1.299797502293482 0
674 1.55260942975239 0.9284230721696458 0
675 0.1737626435583932 2.609172594260036 0
676 1.946968153600827 1.865634793391575 0
677 1.875197823575938 0.2857943553115618 0
678 2.102825833634878 1.345246862106864 0
679 0.775547544027575 0.1993875671728664 0
680 0.2886852844380876 0.4420790642055258 0
681 1.842162672447563 1.161514574068812 0
682 2.656718258642132 0.1784978275942928 0
683 0.5291747043806272 0.9064276875974689 0
684 2.012335238329458 2.401529892037062 0
685 1.131877752314653 1.500704386722524 0
686 0.3688746952275959 0.599519938459853 0
687 0.07635338869783892 0.3076168851595236 0
688 1.883301575138009 2.718022270054212 0
689 0.1590389271307333 0.8556991417319448 0
690 2.658512450736117 0.262112026090074 0
691 2.635000369702836 1.20162118919246 0
692 2.501733141374394 0.6225369911681211 0
693 1.678952172253828 0.2167891745647987 0
694 0.3616488251371337 0.8466662233765221 0
695 2.519123157910292 2.307733925247825 0
696 0.9370030225669499 0.7026002961862089 0
697 2.011153923381364 1.956808079726692 0
698 2.395471306435482 2.707576647130364 0
699 1.774843194118095 0.8605709755202018 0
700 2.239807759761649 2.561559380573707 0
701 0.2648447266874812 1.727973103606373 0
702 0.3751872212918668 1.730752413941285 0
703 1.857732049895258 0.7142387903600207 0
704 0.4997973968269795 1.627493117002308 0
705 1.739328793091337 2.551846723280882 0
706 2.730439081675944 1.718871091439957 0
707 2.593007828116765 0.8729783356300387 0
708 1.591104005162028 1.448713046365244 0
709 1.01035936184422 2.393705457714139 0
710 1.941988957378394 0.4059635233233145 0
711 2.477699109387643 0.0767224469063621 0
712 0.3514770470179087 1.278618584925201 0
713 0.8379495356672606 0.3866025822115275 0
714 1.086574343513876 1.220523055665897 0
715 0.8505672088943069 0.4755743728435925 0
716 2.667060153474631 1.909961684767184 0
717 2.517337261689197 1.467092569139573 0
718 0.5810927847972625 0.3761073560568635 0
719 2.192421350982996 1.000736030539913 0
720 2.529240452747805 1.552847560181219 0
721 0.3647840369943254 0.4467782435198525 0
722 2.203383152919629 0.3180189200460231 0
723 1.275491182084581 0.7370236896429676 0
724 1.04609605618283 1.822892832873822 0
725 0.9145416709439682 2.512481314850845 0
726 0.7065486869035675 1.426411169304325 0
727 0.04381984286652063 1.738517736833904 0
728 1.296886064700576 1.602681001049704 0
729 1.744512330817012 1.310397655802497 0
730 2.159754111486544 1.423247224607882 0
731 1.893612868933912 2.472244950921407 0
732 0.07123584129444871 2.658090270443497 0
733 0.34097932465262 2.325633348095688 0
734 0.5909132487369277 0.1826062765307248 0
735 0.8765389013279423 2.301542552210707 0
736 0.714073821042408 2.345494922881773 0
737 0.9975415565407559 2.478703126494374 0
738 1.010322720416385 2.315038026129463 0
739 2.485914989886484 0.761463468171375 0
740 2.59932165193661 1.114012559326072 0
741 0.5308657947679006 0.06660891233342525 0
742 1.479645487221658 2.656247156432951 0
743 2.143157073760606 1.673784087755634 0
744 0.1889794516730174 2.24044214590942 0
745 1.276344790068045 1.000244050477442 0
746 1.761314467401641 2.638221483282404 0
747 1.472445535628752 2.173414722033728 0
748 2.145082818616496 2.554933430279719 0
749 2.090061533159525 2.078474578775877 0
750 2.607214793120632 0.3906218045633967 0
751 1.820928300759064 0.1956045484872664 0
752 0.6498115213695228 0.2697590136842292 0
753 1.494995380886677 1.653043928986586 0
754 1.458887411196072 0.3463917350282153 0
755 0.8367591031992487 0.1383618697722511 0
756 1.501643047249567 2.086284308478517 0
757 0.6097630311347918 0.9162432428657198 0
758 1.878921786928486 1.788497611171245 0
759 0.04311253833681472 0.8505415625159281 0
760 1.885602281637859 0.3644492529713788 0
761 0.362785438402127 2.652833970997497 0
762 2.474587757899659 2.134879078452256 0
763 2.555711346538001 2.159211388961554 0
764 0.4021460198149283 1.929081457855723 0
765 1.368830499232394 0.4334281036439503 0
766 0.648939349424061 2.296040325775765 0
767 2.366736916733511 0.3516659990520621 0
768 2.028750790464168 1.283648349291891 0
769 1.661158756275212 0.8969420789488869 0
770 0.3589821862984361 1.092783305113795 0
771 1.6188489642163 1.732564520726632 0
772 0.4274330864128375 1.485734842620889 0
773 0.2616416772057983 1.261654333435922 0
774 0.9347131958568907 1.304093784270254 0
775 1.649542057041048 1.313689934542577 0
776 0.9064357736934083 1.973915227680966 0
777 1.776051843780204 0.7605789067407674 0
778 2.025862832217886 2.040408835432141 0
779 1.273507218223556 0.8332744710245763 0
780 0.2319074238944101 0.863358354757505 0
781 2.668702741968304 0.3466947639139222 0
782 2.277035973556484 0.9528705577411654 0
783 0.4906288172298561 2.333658907134583 0
784 1.350549677822839 0.9065520861362839 0
785 0.4162868998927737 1.796996865997837 0
786 1.883696656449986 0.06165651721150178 0
787 0.4096537997027028 2.133065601041483 0
788 2.443845993057842 2.65102730238886 0
789 1.02192020340388 1.298253605074608 0
790 2.746559868366035 0.3947385193721145 0
791 1.670619945035784 1.811022219118174 0
792 1.621131493006169 1.887240851861347 0
793 0.7883367281834245 1.383555898988859 0
794 0.2225472703431786 2.547411211874549 0
795 2.536949788190129 1.380378657037089 0
796 0.3295547751678154 0.5242642525097413 0
797 0.8060943979613219 0.2673869223610921 0
798 2.587148557730973 0.1505773435428002 0
799 1.021262138801234 1.904287638064034 0
800 0.06365110731687396 0.2361413117934155 0
801 2.170660548662284 0.4331186359665877 0
802 0.06446471729515335 2.73379817734959 0
803 1.528759115855497 0.3034807739651986 0
804 1.177323396707777 0.7261585794282756 0
805 2.730679705528048 0.8515207648729789 0
806 1.021992024474267 0.1273493212215824 0
807 1.204070633952576 1.756704960286918 0
808 0.03253870163866668 0.04374847289164063 0
809 1.098865084086979 0.2186071561529166 0
810 2.246559688372311 1.553210506475396 0
811 1.823890738187631 2.554172740910539 0
812 2.663462772285293 2.729469674711019 0
813 0.03367621740132876 0.1312519521594855 0
814 1.179604866014625 0.2420670286118385 0
815 1.49231534102619 1.939047333717674 0
816 2.73768675178236 0.06318710984916853 0
817 0.4956888896746579 1.536230895736573 0
818 2.121151286966868 1.062160846952279 0
819 2.225589924595051 0.3857194423061396 0
820 1.563597563360312 1.682492643137396 0
821 0.7500156836463824 0.8795763742041355 0
822 0.8864399433272584 0.5840884299227092 0
823 2.613978984054143 2.117677430553817 0
824 2.58475731372142 1.272605905957387 0
825 0.9371430301729244 2.656750053740438 0
826 1.558681547305476 1.013080506616409 0
827 2.042824118706593 0.9991508072126331 0
828 2.753494509448876 2.174305899063382 0
829 0.3909357817788186 0.9463668951974683 0
830 1.08988255895648 0.7349799267719774 0
831 0.526807720634354 0.4184531472259159 0
832 2.667861146081763 0.8924528180167496 0
833 2.566650444301853 2.230641054572042 0
834 0.7628115224037875 0.9698818481430159 0
835 0.2553935732928658 2.279272084265191 0
836 0.3368604714539996 0.7619905464919826 0
837 1.564841717232271 2.232327321516965 0
838 2.4019964243214 0.8520868481706024 0
839 2.401940181428538 1.620514983030569 0
840 0.2904441756817893 2.541467028291819 0
841 2.516748637112086 2.466888634834621 0
842 1.819825959223023 1.101221608263093 0
843 2.393596174994237 2.528835230951781 0
844 1.348092390504183 0.5604821595518273 0
845 0.7443594345657408 2.267466684824 0
846 2.687793497528355 1.277802530409554 0
847 0.8663452749798557 1.170261708652431 0
848 2.006433220127674 0.397542589440113 0
849 1.020065218845937 2.678802028315991 0
850 2.641566292295227 1.976104284540527 0
851 1.550151979934153 2.658818496624479 0
852 1.152989848911381 2.612502466812269 0
853 1.282890370514048 0.3183877024694599 0
854 0.5274837391531629 0.2047203942369711 0
855 1.626577708121441 2.660244692121331 0
856 1.633241501411423 0.06429476917438715 0
857 2.49621890204054 0.4761927064185301 0
858 0.9176908629549638 2.171331713966908 0
859 0.9734297116784572 2.550572925720349 0
860 1.911933332101892 1.17892983533957 0
861 2.45484073739244 1.543054132610912 0
862 2.608415150136159 1.877379144828125 0
863 1.242604346216271 1.05355690064608 0
864 2.742717982420569 2.742788515580408 0
865 1.277693817614223 1.74824416352451 0
866 2.481724252938568 0.5574075981188412 0
867 2.677416114993218 1.77031377391497 0
868 1.548018962773519 1.51549517025171 0
869 2.659018900508259 1.650579114196552 0
870 0.2544094640750501 2.411387671487583 0
871 0.4410580126852468 1.858257686975944 0
872 2.569226525643638 1.749290649930825 0
873 1.118070753854986 2.22609666223225 0
874 0.7499171174205885 0.0593411260523129 0
875 2.304606889504184 0.483081501347289 0
876 2.579726995891939 2.006549214599826 0
877 0.7949316579923953 0.3285512576870704 0
878 0.6021967709540554 0.3144547183737507 0
879 1.723941274448941 2.484627131149919 0
880 2.223472285860608 1.620273518018773 0
881 1.365279961602995 1.617336468490725 0
882 1.755986224667672 0.3232363390348507 0
883 2.382614770855485 0.4690617597123203 0
884 1.130745699669583 2.405626549784507 0
885 1.745336822901718 0.2348395561202794 0
886 1.196166914984523 1.538420945782264 0
887 1.273912548490314 2.655789352965748 0
888 1.515950828644733 1.807922914310376 0
889 0.3556379366542692 1.517306077227915 0
890 1.273766430769449 1.531425773472877 0
891 1.730169032501003 1.951265356075411 0
892 1.765385172576382 1.730188554485059 0
893 1.911126523814774 0.8208645001792834 0
894 1.615464107304095 2.023799149171087 0
895 1.445503937601694 1.864272584383428 0
896 1.631571061100136 1.208503907426806 0
897 1.414375344270858 0.9752495484909701 0
898 1.62486865655721 1.594483319403178 0
899 2.656219323008179 1.388934633965575 0
900 1.495825308947811 1.585923289833054 0
$EndNodes
$Elements
1443
1 2 2 0 0 676 758 610
2 2 2 0 0 520 561 203
3 2 2 0 0 118 636 117
4 2 2 0 0 559 741 396
5 2 2 0 0 560 589 522
6 2 2 0 0 613 769 699
7 2 2 0 0 701 702 408
8 2 2 0 0 486 603 458
9 2 2 0 0 466 792 556
10 2 2 0 0 593 622 71
11 2 2 0 0 440 523 498
12 2 2 0 0 70 593 71
13 2 2 0 0 567 845 405
14 2 2 0 0 82 673 83
15 2 2 0 0 425 594 581
16 2 2 0 0 102 732 675
17 2 2 0 0 500 707 659
18 2 2 0 0 495 857 627
19 2 2 0 0 577 599 55
20 2 2 0 0 700 748 379
21 2 2 0 0 535 595 583
22 2 2 0 0 462 606 540
23 2 2 0 0 487 660 261
24 2 2 0 0 304 747 337
25 2 2 0 0 601 605 600
26 2 2 0 0 609 857 495
27 2 2 0 0 233 251 250
28 2 2 0 0 557 634 430
29 2 2 0 0 560 578 452
30 2 2 0 0 467 575 391
31 2 2 0 0 523 655 498
32 2 2 0 0 283 581 572
33 2 2 0 0 429 499 467
34 2 2 0 0 57 740 691
35 2 2 0 0 138 486 458
36 2 2 0 0 699 769 392
37 2 2 0 0 659 707 658
38 2 2 0 0 556 792 411
39 2 2 0 0 388 491 471
40 2 2 0 0 610 661 439
41 2 2 0 0 574 674 510
42 2 2 0 0 549 702 701
43 2 2 0 0 530 685 473
44 2 2 0 0 505 638 582
45 2 2 0 0 89 87 90
46 2 2 0 0 514 761 544
47 2 2 0 0 453 699 508
48 2 2 0 0 121 120 330
49 2 2 0 0 521 585 309
50 2 2 0 0 267 577 55
51 2 2 0 0 505 582 84
52 2 2 0 0 521 654 585
53 2 2 0 0 481 602 290
54 2 2 0 0 274 599 275
55 2 2 0 0 61 531 328
56 2 2 0 0 136 607 28
57 2 2 0 0 481 658 602
58 2 2 0 0 248 530 473
59 2 2 0 0 425 581 282
60 2 2 0 0 462 540 246
61 2 2 0 0 373 560 522
62 2 2 0 0 58 496 292
63 2 2 0 0 249 512 250
64 2 2 0 0 260 487 261
65 2 2 0 0 418 664 279
66 2 2 0 0 489 699 453
67 2 2 0 0 61 656 531
68 2 2 0 0 496 653 292
69 2 2 0 0 512 714 250
70 2 2 0 0 28 607 137
71 2 2 0 0 439 661 358
72 2 2 0 0 19 105 106
73 2 2 0 0 302 668 588
74 2 2 0 0 442 668 302
75 2 2 0 0 478 622 191
76 2 2 0 0 274 669 599
77 2 2 0 0 66 687 70
78 2 2 0 0 227 770 554
79 2 2 0 0 279 664 56
80 2 2 0 0 444 490 397
81 2 2 0 0 666 704 665
82 2 2 0 0 298 671 299
83 2 2 0 0 633 671 298
84 2 2 0 0 232 251 233
85 2 2 0 0 405 845 317
86 2 2 0 0 222 671 223
87 2 2 0 0 600 605 472
88 2 2 0 0 223 671 479
89 2 2 0 0 231 237 236
90 2 2 0 0 265 576 433
91 2 2 0 0 452 589 560
92 2 2 0 0 565 618 497
93 2 2 0 0 50 696 196
94 2 2 0 0 259 672 426
95 2 2 0 0 258 672 259
96 2 2 0 0 396 741 188
97 2 2 0 0 376 695 647
98 2 2 0 0 426 674 574
99 2 2 0 0 451 480 393
100 2 2 0 0 77 780 78
101 2 2 0 0 625 775 729
102 2 2 0 0 445 478 191
103 2 2 0 0 555 799 585
104 2 2 0 0 114 636 118
105 2 2 0 0 182 643 186
106 2 2 0 0 454 584 489
107 2 2 0 0 483 584 454
108 2 2 0 0 65 695 376
109 2 2 0 0 665 704 401
110 2 2 0 0 330 120 331
111 2 2 0 0 26 698 135
112 2 2 0 0 78 780 579
113 2 2 0 0 556 756 59
114 2 2 0 0 191 622 192
115 2 2 0 0 97 96 95
116 2 2 0 0 201 686 202
117 2 2 0 0 554 829 227
118 2 2 0 0 157 467 391
119 2 2 0 0 286 605 601
120 2 2 0 0 429 467 156
121 2 2 0 0 638 712 224
122 2 2 0 0 430 738 557
123 2 2 0 0 714 789 533
124 2 2 0 0 234 714 533
125 2 2 0 0 448 843 604
126 2 2 0 0 389 729 655
127 2 2 0 0 224 712 225
128 2 2 0 0 476 590 128
129 2 2 0 0 388 471 168
130 2 2 0 0 467 692 575
131 2 2 0 0 341 743 661
132 2 2 0 0 123 688 25
133 2 2 0 0 368 61 339
134 2 2 0 0 625 729 347
135 2 2 0 0 348 729 389
136 2 2 0 0 407 755 628
137 2 2 0 0 449 646 566
138 2 2 0 0 611 686 201
139 2 2 0 0 340 743 341
140 2 2 0 0 585 799 310
141 2 2 0 0 270 782 719
142 2 2 0 0 456 621 172
143 2 2 0 0 610 758 342
144 2 2 0 0 269 782 270
145 2 2 0 0 171 456 172
146 2 2 0 0 628 755 679
147 2 2 0 0 572 730 283
148 2 2 0 0 291 740 57
149 2 2 0 0 102 675 103
150 2 2 0 0 273 703 274
151 2 2 0 0 544 761 104
152 2 2 0 0 170 444 397
153 2 2 0 0 519 616 475
154 2 2 0 0 199 683 200
155 2 2 0 0 196 696 240
156 2 2 0 0 405 735 567
157 2 2 0 0 200 683 640
158 2 2 0 0 190 445 191
159 2 2 0 0 378 700 379
160 2 2 0 0 588 685 303
161 2 2 0 0 303 685 427
162 2 2 0 0 90 87 86
163 2 2 0 0 380 684 381
164 2 2 0 0 409 574 509
165 2 2 0 0 106 20 19
166 2 2 0 0 744 835 98
167 2 2 0 0 445 561 478
168 2 2 0 0 112 451 393
169 2 2 0 0 46 48 47
170 2 2 0 0 426 574 409
171 2 2 0 0 109 566 524
172 2 2 0 0 106 105 107
173 2 2 0 0 127 476 128
174 2 2 0 0 514 566 108
175 2 2 0 0 110 524 513
176 2 2 0 0 153 602 436
177 2 2 0 0 583 595 94
178 2 2 0 0 520 721 561
179 2 2 0 0 311 653 312
180 2 2 0 0 497 852 565
181 2 2 0 0 66 70 1
182 2 2 0 0 429 548 500
183 2 2 0 0 506 677 424
184 2 2 0 0 311 724 653
185 2 2 0 0 93 648 583
186 2 2 0 0 557 873 634
187 2 2 0 0 677 760 424
188 2 2 0 0 231 236 52
189 2 2 0 0 524 631 513
190 2 2 0 0 461 599 577
191 2 2 0 0 276 632 277
192 2 2 0 0 397 503 456
193 2 2 0 0 632 801 277
194 2 2 0 0 477 576 176
195 2 2 0 0 650 711 403
196 2 2 0 0 566 646 524
197 2 2 0 0 519 720 616
198 2 2 0 0 80 773 83
199 2 2 0 0 25 688 126
200 2 2 0 0 514 641 566
201 2 2 0 0 143 562 144
202 2 2 0 0 131 698 26
203 2 2 0 0 477 693 576
204 2 2 0 0 640 829 694
205 2 2 0 0 167 630 388
206 2 2 0 0 604 788 448
207 2 2 0 0 677 751 456
208 2 2 0 0 528 697 357
209 2 2 0 0 648 787 583
210 2 2 0 0 230 237 231
211 2 2 0 0 764 871 323
212 2 2 0 0 538 795 280
213 2 2 0 0 83 773 505
214 2 2 0 0 388 630 529
215 2 2 0 0 280 824 538
216 2 2 0 0 683 757 228
217 2 2 0 0 548 707 500
218 2 2 0 0 503 677 456
219 2 2 0 0 386 608 387
220 2 2 0 0 471 722 169
221 2 2 0 0 535 583 468
222 2 2 0 0 98 835 402
223 2 2 0 0 228 757 229
224 2 2 0 0 145 459 31
225 2 2 0 0 169 722 444
226 2 2 0 0 561 721 478
227 2 2 0 0 576 693 433
228 2 2 0 0 566 641 449
229 2 2 0 0 644 843 448
230 2 2 0 0 70 687 593
231 2 2 0 0 113 725 516
232 2 2 0 0 357 697 439
233 2 2 0 0 532 756 556
234 2 2 0 0 177 803 178
235 2 2 0 0 569 591 476
236 2 2 0 0 14 96 97
237 2 2 0 0 2 808 69
238 2 2 0 0 143 670 562
239 2 2 0 0 421 819 592
240 2 2 0 0 537 708 346
241 2 2 0 0 346 708 625
242 2 2 0 0 130 700 448
243 2 2 0 0 393 725 113
244 2 2 0 0 463 829 640
245 2 2 0 0 499 692 467
246 2 2 0 0 289 597 481
247 2 2 0 0 458 604 580
248 2 2 0 0 591 684 380
249 2 2 0 0 420 819 421
250 2 2 0 0 581 594 469
251 2 2 0 0 403 798 650
252 2 2 0 0 186 44 182
253 2 2 0 0 561 831 203
254 2 2 0 0 3 796 686
255 2 2 0 0 549 701 85
256 2 2 0 0 562 850 144
257 2 2 0 0 75 759 4
258 2 2 0 0 580 841 458
259 2 2 0 0 322 764 323
260 2 2 0 0 153 740 602
261 2 2 0 0 294 555 327
262 2 2 0 0 612 728 431
263 2 2 0 0 111 736 451
264 2 2 0 0 396 734 559
265 2 2 0 0 513 736 111
266 2 2 0 0 215 713 541
267 2 2 0 0 6 667 79
268 2 2 0 0 449 733 646
269 2 2 0 0 435 762 353
270 2 2 0 0 475 616 573
271 2 2 0 0 448 700 644
272 2 2 0 0 214 713 215
273 2 2 0 0 85 701 86
274 2 2 0 0 178 803 754
275 2 2 0 0 508 703 273
276 2 2 0 0 59 815 556
277 2 2 0 0 569 731 591
278 2 2 0 0 556 815 466
279 2 2 0 0 543 728 612
280 2 2 0 0 713 715 206
281 2 2 0 0 72 796 3
282 2 2 0 0 205 718 446
283 2 2 0 0 577 710 461
284 2 2 0 0 95 744 97
285 2 2 0 0 226 770 227
286 2 2 0 0 242 830 804
287 2 2 0 0 589 758 676
288 2 2 0 0 368 339 369
289 2 2 0 0 417 713 206
290 2 2 0 0 6 770 667
291 2 2 0 0 678 768 285
292 2 2 0 0 368 656 61
293 2 2 0 0 502 735 662
294 2 2 0 0 485 643 182
295 2 2 0 0 129 748 700
296 2 2 0 0 30 828 670
297 2 2 0 0 204 718 205
298 2 2 0 0 391 750 553
299 2 2 0 0 613 699 489
300 2 2 0 0 296 619 297
301 2 2 0 0 285 768 605
302 2 2 0 0 227 829 463
303 2 2 0 0 609 750 391
304 2 2 0 0 731 811 404
305 2 2 0 0 242 804 515
306 2 2 0 0 265 803 576
307 2 2 0 0 536 795 538
308 2 2 0 0 584 613 489
309 2 2 0 0 582 638 470
310 2 2 0 0 544 840 514
311 2 2 0 0 590 591 380
312 2 2 0 0 92 764 12
313 2 2 0 0 337 747 338
314 2 2 0 0 664 692 499
315 2 2 0 0 703 777 256
316 2 2 0 0 365 684 591
317 2 2 0 0 256 777 257
318 2 2 0 0 474 665 324
319 2 2 0 0 588 668 473
320 2 2 0 0 353 762 608
321 2 2 0 0 351 730 62
322 2 2 0 0 62 730 572
323 2 2 0 0 419 709 430
324 2 2 0 0 509 723 487
325 2 2 0 0 411 792 578
326 2 2 0 0 196 240 239
327 2 2 0 0 499 739 664
328 2 2 0 0 581 810 572
329 2 2 0 0 13 96 14
330 2 2 0 0 163 630 40
331 2 2 0 0 601 818 286
332 2 2 0 0 30 670 143
333 2 2 0 0 125 587 415
334 2 2 0 0 659 739 500
335 2 2 0 0 473 685 588
336 2 2 0 0 469 810 581
337 2 2 0 0 117 636 450
338 2 2 0 0 353 608 354
339 2 2 0 0 629 752 734
340 2 2 0 0 456 751 621
341 2 2 0 0 324 665 619
342 2 2 0 0 651 652 477
343 2 2 0 0 734 752 518
344 2 2 0 0 460 745 586
345 2 2 0 0 568 764 92
346 2 2 0 0 509 779 723
347 2 2 0 0 585 776 555
348 2 2 0 0 586 784 460
349 2 2 0 0 331 887 332
350 2 2 0 0 555 776 327
351 2 2 0 0 34 558 151
352 2 2 0 0 595 835 744
353 2 2 0 0 220 642 598
354 2 2 0 0 579 780 443
355 2 2 0 0 150 846 558
356 2 2 0 0 140 695 141
357 2 2 0 0 289 782 597
358 2 2 0 0 646 733 534
359 2 2 0 0 384 749 356
360 2 2 0 0 3 611 73
361 2 2 0 0 274 703 669
362 2 2 0 0 569 811 731
363 2 2 0 0 212 696 50
364 2 2 0 0 181 814 809
365 2 2 0 0 195 808 49
366 2 2 0 0 356 749 528
367 2 2 0 0 621 751 412
368 2 2 0 0 181 809 485
369 2 2 0 0 585 654 60
370 2 2 0 0 150 558 33
371 2 2 0 0 629 679 447
372 2 2 0 0 443 694 579
373 2 2 0 0 239 821 197
374 2 2 0 0 91 701 408
375 2 2 0 0 332 887 620
376 2 2 0 0 69 813 68
377 2 2 0 0 83 673 80
378 2 2 0 0 40 630 167
379 2 2 0 0 281 717 425
380 2 2 0 0 479 817 772
381 2 2 0 0 412 751 652
382 2 2 0 0 662 738 502
383 2 2 0 0 691 740 152
384 2 2 0 0 5 759 76
385 2 2 0 0 619 665 297
386 2 2 0 0 146 706 32
387 2 2 0 0 522 697 374
388 2 2 0 0 483 842 584
389 2 2 0 0 379 590 380
390 2 2 0 0 504 771 545
391 2 2 0 0 115 618 565
392 2 2 0 0 479 772 470
393 2 2 0 0 304 756 747
394 2 2 0 0 578 791 452
395 2 2 0 0 705 811 746
396 2 2 0 0 395 739 659
397 2 2 0 0 774 789 442
398 2 2 0 0 449 641 437
399 2 2 0 0 652 693 477
400 2 2 0 0 591 731 365
401 2 2 0 0 250 714 233
402 2 2 0 0 470 772 582
403 2 2 0 0 42 856 43
404 2 2 0 0 359 743 360
405 2 2 0 0 568 871 764
406 2 2 0 0 115 565 23
407 2 2 0 0 695 833 141
408 2 2 0 0 545 792 466
409 2 2 0 0 747 756 637
410 2 2 0 0 118 22 114
411 2 2 0 0 575 609 391
412 2 2 0 0 419 737 709
413 2 2 0 0 538 846 150
414 2 2 0 0 675 732 100
415 2 2 0 0 452 791 428
416 2 2 0 0 241 696 211
417 2 2 0 0 196 239 197
418 2 2 0 0 238 821 239
419 2 2 0 0 442 789 668
420 2 2 0 0 275 599 461
421 2 2 0 0 388 492 491
422 2 2 0 0 281 795 717
423 2 2 0 0 335 634 307
424 2 2 0 0 616 869 573
425 2 2 0 0 116 618 115
426 2 2 0 0 283 730 284
427 2 2 0 0 729 775 498
428 2 2 0 0 697 778 374
429 2 2 0 0 366 731 404
430 2 2 0 0 583 787 468
431 2 2 0 0 491 592 471
432 2 2 0 0 598 793 220
433 2 2 0 0 297 665 401
434 2 2 0 0 429 500 499
435 2 2 0 0 24 587 125
436 2 2 0 0 334 634 335
437 2 2 0 0 32 706 147
438 2 2 0 0 482 613 441
439 2 2 0 0 441 613 584
440 2 2 0 0 46 741 48
441 2 2 0 0 444 546 490
442 2 2 0 0 490 503 397
443 2 2 0 0 746 811 570
444 2 2 0 0 529 711 650
445 2 2 0 0 533 642 235
446 2 2 0 0 597 838 481
447 2 2 0 0 743 880 360
448 2 2 0 0 390 790 781
449 2 2 0 0 145 649 459
450 2 2 0 0 480 501 393
451 2 2 0 0 349 768 350
452 2 2 0 0 472 768 349
453 2 2 0 0 450 618 116
454 2 2 0 0 461 632 276
455 2 2 0 0 660 723 209
456 2 2 0 0 135 698 413
457 2 2 0 0 603 626 413
458 2 2 0 0 319 631 414
459 2 2 0 0 465 617 615
460 2 2 0 0 451 567 480
461 2 2 0 0 617 645 432
462 2 2 0 0 670 823 562
463 2 2 0 0 660 844 261
464 2 2 0 0 60 776 585
465 2 2 0 0 506 751 677
466 2 2 0 0 413 626 134
467 2 2 0 0 173 856 42
468 2 2 0 0 423 881 606
469 2 2 0 0 324 619 325
470 2 2 0 0 565 852 620
471 2 2 0 0 134 626 133
472 2 2 0 0 401 704 633
473 2 2 0 0 74 689 75
474 2 2 0 0 573 867 488
475 2 2 0 0 635 688 123
476 2 2 0 0 662 735 405
477 2 2 0 0 603 604 458
478 2 2 0 0 486 626 603
479 2 2 0 0 504 820 771
480 2 2 0 0 627 857 457
481 2 2 0 0 476 591 590
482 2 2 0 0 354 608 386
483 2 2 0 0 99 675 100
484 2 2 0 0 21 636 114
485 2 2 0 0 194 813 195
486 2 2 0 0 473 668 512
487 2 2 0 0 886 890 543
488 2 2 0 0 602 658 436
489 2 2 0 0 243 779 586
490 2 2 0 0 515 779 243
491 2 2 0 0 375 749 383
492 2 2 0 0 495 750 609
493 2 2 0 0 139 647 140
494 2 2 0 0 431 881 423
495 2 2 0 0 293 799 555
496 2 2 0 0 192 622 593
497 2 2 0 0 105 761 107
498 2 2 0 0 465 615 216
499 2 2 0 0 723 804 209
500 2 2 0 0 430 634 334
501 2 2 0 0 570 688 635
502 2 2 0 0 601 827 818
503 2 2 0 0 682 798 663
504 2 2 0 0 497 624 438
505 2 2 0 0 542 617 465
506 2 2 0 0 724 799 293
507 2 2 0 0 781 790 553
508 2 2 0 0 594 839 469
509 2 2 0 0 363 488 63
510 2 2 0 0 543 890 728
511 2 2 0 0 574 784 509
512 2 2 0 0 448 788 698
513 2 2 0 0 163 711 630
514 2 2 0 0 400 497 438
515 2 2 0 0 356 528 357
516 2 2 0 0 23 565 119
517 2 2 0 0 414 468 320
518 2 2 0 0 523 681 655
519 2 2 0 0 573 869 706
520 2 2 0 0 541 542 465
521 2 2 0 0 400 438 419
522 2 2 0 0 229 657 230
523 2 2 0 0 50 822 212
524 2 2 0 0 215 465 216
525 2 2 0 0 562 823 435
526 2 2 0 0 439 676 610
527 2 2 0 0 630 711 529
528 2 2 0 0 414 534 468
529 2 2 0 0 478 680 622
530 2 2 0 0 593 687 193
531 2 2 0 0 400 419 333
532 2 2 0 0 319 766 631
533 2 2 0 0 434 549 85
534 2 2 0 0 15 437 99
535 2 2 0 0 446 447 417
536 2 2 0 0 388 529 492
537 2 2 0 0 215 541 465
538 2 2 0 0 158 790 37
539 2 2 0 0 240 696 241
540 2 2 0 0 399 457 418
541 2 2 0 0 323 474 324
542 2 2 0 0 319 414 320
543 2 2 0 0 63 539 352
544 2 2 0 0 332 400 333
545 2 2 0 0 205 446 417
546 2 2 0 0 692 866 575
547 2 2 0 0 434 550 549
548 2 2 0 0 484 682 663
549 2 2 0 0 492 493 491
550 2 2 0 0 277 420 278
551 2 2 0 0 399 418 279
552 2 2 0 0 402 733 449
553 2 2 0 0 86 701 90
554 2 2 0 0 494 526 495
555 2 2 0 0 587 855 415
556 2 2 0 0 73 443 74
557 2 2 0 0 599 669 55
558 2 2 0 0 175 412 174
559 2 2 0 0 165 403 164
560 2 2 0 0 153 436 154
561 2 2 0 0 329 742 330
562 2 2 0 0 90 701 91
563 2 2 0 0 76 689 77
564 2 2 0 0 325 619 296
565 2 2 0 0 138 458 139
566 2 2 0 0 492 494 493
567 2 2 0 0 266 424 267
568 2 2 0 0 494 527 526
569 2 2 0 0 278 399 279
570 2 2 0 0 56 395 268
571 2 2 0 0 376 580 377
572 2 2 0 0 600 860 483
573 2 2 0 0 766 845 736
574 2 2 0 0 391 553 158
575 2 2 0 0 424 577 267
576 2 2 0 0 124 635 123
577 2 2 0 0 48 559 189
578 2 2 0 0 308 557 521
579 2 2 0 0 415 635 124
580 2 2 0 0 220 793 221
581 2 2 0 0 526 750 495
582 2 2 0 0 316 405 317
583 2 2 0 0 137 486 138
584 2 2 0 0 596 765 219
585 2 2 0 0 481 838 659
586 2 2 0 0 534 535 468
587 2 2 0 0 546 632 490
588 2 2 0 0 265 433 266
589 2 2 0 0 330 742 121
590 2 2 0 0 300 793 301
591 2 2 0 0 301 793 598
592 2 2 0 0 818 827 552
593 2 2 0 0 275 461 276
594 2 2 0 0 289 481 290
595 2 2 0 0 205 417 206
596 2 2 0 0 387 563 65
597 2 2 0 0 531 623 511
598 2 2 0 0 352 435 353
599 2 2 0 0 98 402 15
600 2 2 0 0 308 521 309
601 2 2 0 0 187 628 396
602 2 2 0 0 52 642 220
603 2 2 0 0 268 597 269
604 2 2 0 0 494 495 493
605 2 2 0 0 589 676 522
606 2 2 0 0 135 413 134
607 2 2 0 0 328 511 329
608 2 2 0 0 328 531 511
609 2 2 0 0 362 475 363
610 2 2 0 0 366 404 367
611 2 2 0 0 83 505 84
612 2 2 0 0 84 582 9
613 2 2 0 0 137 607 486
614 2 2 0 0 362 519 475
615 2 2 0 0 9 434 85
616 2 2 0 0 360 469 361
617 2 2 0 0 398 453 272
618 2 2 0 0 372 560 373
619 2 2 0 0 313 406 314
620 2 2 0 0 270 552 271
621 2 2 0 0 455 600 483
622 2 2 0 0 427 496 58
623 2 2 0 0 281 425 282
624 2 2 0 0 259 426 409
625 2 2 0 0 441 523 440
626 2 2 0 0 427 543 496
627 2 2 0 0 371 411 372
628 2 2 0 0 423 504 422
629 2 2 0 0 309 585 310
630 2 2 0 0 373 522 374
631 2 2 0 0 303 427 58
632 2 2 0 0 252 460 253
633 2 2 0 0 302 588 303
634 2 2 0 0 344 428 394
635 2 2 0 0 441 584 523
636 2 2 0 0 254 410 255
637 2 2 0 0 234 533 235
638 2 2 0 0 245 462 246
639 2 2 0 0 344 394 345
640 2 2 0 0 243 586 53
641 2 2 0 0 248 473 249
642 2 2 0 0 346 625 347
643 2 2 0 0 409 509 487
644 2 2 0 0 259 409 260
645 2 2 0 0 247 530 248
646 2 2 0 0 409 487 260
647 2 2 0 0 341 610 342
648 2 2 0 0 398 454 453
649 2 2 0 0 62 571 340
650 2 2 0 0 257 392 258
651 2 2 0 0 301 442 302
652 2 2 0 0 406 431 423
653 2 2 0 0 410 441 440
654 2 2 0 0 301 598 442
655 2 2 0 0 398 455 454
656 2 2 0 0 455 483 454
657 2 2 0 0 543 612 496
658 2 2 0 0 242 515 243
659 2 2 0 0 253 510 254
660 2 2 0 0 389 472 349
661 2 2 0 0 293 555 294
662 2 2 0 0 348 389 349
663 2 2 0 0 410 440 255
664 2 2 0 0 285 605 286
665 2 2 0 0 345 537 346
666 2 2 0 0 410 482 441
667 2 2 0 0 454 489 453
668 2 2 0 0 357 439 358
669 2 2 0 0 455 601 600
670 2 2 0 0 246 540 247
671 2 2 0 0 473 512 249
672 2 2 0 0 271 398 272
673 2 2 0 0 406 422 314
674 2 2 0 0 406 423 422
675 2 2 0 0 62 572 571
676 2 2 0 0 282 581 283
677 2 2 0 0 370 532 371
678 2 2 0 0 401 633 298
679 2 2 0 0 223 479 470
680 2 2 0 0 3 686 611
681 2 2 0 0 297 401 298
682 2 2 0 0 223 470 224
683 2 2 0 0 17 802 18
684 2 2 0 0 480 502 501
685 2 2 0 0 125 415 124
686 2 2 0 0 264 803 265
687 2 2 0 0 148 507 149
688 2 2 0 0 148 616 507
689 2 2 0 0 507 536 149
690 2 2 0 0 227 463 228
691 2 2 0 0 113 516 21
692 2 2 0 0 167 388 168
693 2 2 0 0 370 637 532
694 2 2 0 0 290 602 291
695 2 2 0 0 141 525 142
696 2 2 0 0 181 485 182
697 2 2 0 0 469 839 361
698 2 2 0 0 162 390 161
699 2 2 0 0 200 564 201
700 2 2 0 0 625 708 244
701 2 2 0 0 553 790 158
702 2 2 0 0 78 554 6
703 2 2 0 0 437 870 449
704 2 2 0 0 550 704 666
705 2 2 0 0 470 638 224
706 2 2 0 0 434 551 550
707 2 2 0 0 187 396 188
708 2 2 0 0 492 650 494
709 2 2 0 0 157 391 158
710 2 2 0 0 156 467 157
711 2 2 0 0 82 614 81
712 2 2 0 0 101 802 17
713 2 2 0 0 103 544 104
714 2 2 0 0 155 429 156
715 2 2 0 0 161 639 160
716 2 2 0 0 678 730 351
717 2 2 0 0 202 520 203
718 2 2 0 0 168 471 169
719 2 2 0 0 43 477 176
720 2 2 0 0 468 787 320
721 2 2 0 0 628 629 396
722 2 2 0 0 390 639 161
723 2 2 0 0 169 444 170
724 2 2 0 0 78 579 554
725 2 2 0 0 112 393 113
726 2 2 0 0 564 611 201
727 2 2 0 0 160 484 159
728 2 2 0 0 174 651 173
729 2 2 0 0 488 872 573
730 2 2 0 0 495 627 493
731 2 2 0 0 170 397 171
732 2 2 0 0 483 860 681
733 2 2 0 0 154 805 35
734 2 2 0 0 36 805 155
735 2 2 0 0 676 697 522
736 2 2 0 0 91 408 92
737 2 2 0 0 439 697 676
738 2 2 0 0 93 583 94
739 2 2 0 0 474 785 666
740 2 2 0 0 394 820 547
741 2 2 0 0 200 640 564
742 2 2 0 0 219 853 596
743 2 2 0 0 620 852 332
744 2 2 0 0 117 450 116
745 2 2 0 0 109 524 110
746 2 2 0 0 235 847 236
747 2 2 0 0 189 416 190
748 2 2 0 0 108 566 109
749 2 2 0 0 421 875 420
750 2 2 0 0 111 451 112
751 2 2 0 0 622 680 71
752 2 2 0 0 107 514 108
753 2 2 0 0 160 639 484
754 2 2 0 0 365 731 366
755 2 2 0 0 704 817 633
756 2 2 0 0 122 587 24
757 2 2 0 0 126 464 127
758 2 2 0 0 321 787 648
759 2 2 0 0 416 518 517
760 2 2 0 0 350 678 351
761 2 2 0 0 449 870 402
762 2 2 0 0 430 884 419
763 2 2 0 0 367 656 368
764 2 2 0 0 547 868 537
765 2 2 0 0 110 513 111
766 2 2 0 0 424 882 506
767 2 2 0 0 166 663 165
768 2 2 0 0 488 867 649
769 2 2 0 0 435 763 762
770 2 2 0 0 529 650 492
771 2 2 0 0 186 643 185
772 2 2 0 0 343 758 452
773 2 2 0 0 60 654 316
774 2 2 0 0 435 876 562
775 2 2 0 0 642 847 235
776 2 2 0 0 94 595 95
777 2 2 0 0 397 456 171
778 2 2 0 0 376 647 580
779 2 2 0 0 377 644 378
780 2 2 0 0 635 746 570
781 2 2 0 0 286 818 287
782 2 2 0 0 185 432 184
783 2 2 0 0 416 445 190
784 2 2 0 0 498 775 54
785 2 2 0 0 155 548 429
786 2 2 0 0 176 576 177
787 2 2 0 0 412 652 651
788 2 2 0 0 130 448 131
789 2 2 0 0 184 645 183
790 2 2 0 0 517 561 445
791 2 2 0 0 679 755 542
792 2 2 0 0 706 869 147
793 2 2 0 0 464 570 569
794 2 2 0 0 408 568 92
795 2 2 0 0 320 787 321
796 2 2 0 0 183 407 45
797 2 2 0 0 481 659 658
798 2 2 0 0 494 650 527
799 2 2 0 0 12 648 93
800 2 2 0 0 545 888 504
801 2 2 0 0 466 888 545
802 2 2 0 0 178 596 179
803 2 2 0 0 71 680 72
804 2 2 0 0 416 517 445
805 2 2 0 0 447 752 629
806 2 2 0 0 379 748 590
807 2 2 0 0 452 892 343
808 2 2 0 0 556 894 532
809 2 2 0 0 54 896 498
810 2 2 0 0 547 898 394
811 2 2 0 0 498 896 440
812 2 2 0 0 411 894 556
813 2 2 0 0 510 897 574
814 2 2 0 0 428 892 452
815 2 2 0 0 537 898 547
816 2 2 0 0 578 891 411
817 2 2 0 0 508 893 453
818 2 2 0 0 560 891 578
819 2 2 0 0 273 893 508
820 2 2 0 0 55 669 256
821 2 2 0 0 208 844 660
822 2 2 0 0 596 853 179
823 2 2 0 0 192 593 193
824 2 2 0 0 334 884 430
825 2 2 0 0 211 830 241
826 2 2 0 0 412 651 174
827 2 2 0 0 509 784 779
828 2 2 0 0 779 784 586
829 2 2 0 0 512 789 714
830 2 2 0 0 623 746 415
831 2 2 0 0 150 899 538
832 2 2 0 0 565 620 119
833 2 2 0 0 538 899 536
834 2 2 0 0 464 476 127
835 2 2 0 0 262 844 51
836 2 2 0 0 53 863 232
837 2 2 0 0 155 805 548
838 2 2 0 0 658 707 436
839 2 2 0 0 188 741 46
840 2 2 0 0 383 749 384
841 2 2 0 0 461 848 632
842 2 2 0 0 663 798 403
843 2 2 0 0 244 708 245
844 2 2 0 0 10 727 88
845 2 2 0 0 464 569 476
846 2 2 0 0 318 845 766
847 2 2 0 0 185 643 432
848 2 2 0 0 629 734 396
849 2 2 0 0 432 806 617
850 2 2 0 0 573 872 475
851 2 2 0 0 358 661 359
852 2 2 0 0 615 806 485
853 2 2 0 0 557 662 521
854 2 2 0 0 431 865 612
855 2 2 0 0 694 829 579
856 2 2 0 0 219 765 51
857 2 2 0 0 51 765 262
858 2 2 0 0 208 660 209
859 2 2 0 0 56 664 395
860 2 2 0 0 611 836 73
861 2 2 0 0 341 661 610
862 2 2 0 0 432 645 184
863 2 2 0 0 486 812 626
864 2 2 0 0 321 648 322
865 2 2 0 0 452 758 589
866 2 2 0 0 618 849 497
867 2 2 0 0 165 663 403
868 2 2 0 0 7 614 8
869 2 2 0 0 687 800 193
870 2 2 0 0 284 730 678
871 2 2 0 0 472 860 600
872 2 2 0 0 825 849 450
873 2 2 0 0 479 671 633
874 2 2 0 0 183 645 407
875 2 2 0 0 164 711 163
876 2 2 0 0 592 767 421
877 2 2 0 0 719 782 288
878 2 2 0 0 225 667 226
879 2 2 0 0 586 745 53
880 2 2 0 0 288 782 289
881 2 2 0 0 812 864 132
882 2 2 0 0 463 683 228
883 2 2 0 0 642 774 598
884 2 2 0 0 99 794 675
885 2 2 0 0 617 806 615
886 2 2 0 0 332 852 400
887 2 2 0 0 21 825 636
888 2 2 0 0 804 830 210
889 2 2 0 0 604 843 580
890 2 2 0 0 616 720 507
891 2 2 0 0 607 812 486
892 2 2 0 0 667 773 79
893 2 2 0 0 647 695 140
894 2 2 0 0 605 768 472
895 2 2 0 0 392 672 258
896 2 2 0 0 640 683 463
897 2 2 0 0 457 883 627
898 2 2 0 0 525 670 142
899 2 2 0 0 103 675 544
900 2 2 0 0 612 807 496
901 2 2 0 0 557 738 662
902 2 2 0 0 636 825 450
903 2 2 0 0 318 766 319
904 2 2 0 0 516 825 21
905 2 2 0 0 284 678 285
906 2 2 0 0 415 746 635
907 2 2 0 0 617 755 645
908 2 2 0 0 679 797 447
909 2 2 0 0 312 807 313
910 2 2 0 0 674 826 510
911 2 2 0 0 505 712 638
912 2 2 0 0 104 761 105
913 2 2 0 0 628 679 629
914 2 2 0 0 572 810 571
915 2 2 0 0 514 840 641
916 2 2 0 0 596 754 263
917 2 2 0 0 474 666 665
918 2 2 0 0 655 729 498
919 2 2 0 0 661 743 359
920 2 2 0 0 68 800 67
921 2 2 0 0 245 868 462
922 2 2 0 0 464 688 570
923 2 2 0 0 152 740 153
924 2 2 0 0 194 800 68
925 2 2 0 0 496 807 653
926 2 2 0 0 217 814 218
927 2 2 0 0 375 778 749
928 2 2 0 0 523 842 681
929 2 2 0 0 421 767 627
930 2 2 0 0 691 846 824
931 2 2 0 0 639 682 484
932 2 2 0 0 67 687 66
933 2 2 0 0 392 769 672
934 2 2 0 0 237 834 238
935 2 2 0 0 263 765 596
936 2 2 0 0 527 690 526
937 2 2 0 0 97 744 98
938 2 2 0 0 154 832 805
939 2 2 0 0 121 742 122
940 2 2 0 0 202 686 520
941 2 2 0 0 510 826 254
942 2 2 0 0 271 827 398
943 2 2 0 0 455 827 601
944 2 2 0 0 254 826 410
945 2 2 0 0 552 827 271
946 2 2 0 0 674 769 482
947 2 2 0 0 672 769 674
948 2 2 0 0 406 865 431
949 2 2 0 0 126 688 464
950 2 2 0 0 590 748 128
951 2 2 0 0 236 847 52
952 2 2 0 0 438 737 419
953 2 2 0 0 535 835 595
954 2 2 0 0 218 853 219
955 2 2 0 0 550 702 549
956 2 2 0 0 659 838 395
957 2 2 0 0 655 681 389
958 2 2 0 0 162 790 390
959 2 2 0 0 615 809 216
960 2 2 0 0 412 786 621
961 2 2 0 0 712 773 667
962 2 2 0 0 179 853 180
963 2 2 0 0 151 691 152
964 2 2 0 0 672 674 426
965 2 2 0 0 390 690 639
966 2 2 0 0 763 833 563
967 2 2 0 0 206 715 207
968 2 2 0 0 639 690 682
969 2 2 0 0 38 816 166
970 2 2 0 0 627 767 493
971 2 2 0 0 129 700 130
972 2 2 0 0 563 695 65
973 2 2 0 0 211 696 212
974 2 2 0 0 136 864 607
975 2 2 0 0 203 831 204
976 2 2 0 0 144 716 145
977 2 2 0 0 415 855 623
978 2 2 0 0 213 715 214
979 2 2 0 0 546 801 632
980 2 2 0 0 159 816 38
981 2 2 0 0 640 694 564
982 2 2 0 0 542 755 617
983 2 2 0 0 175 786 412
984 2 2 0 0 180 853 218
985 2 2 0 0 75 689 76
986 2 2 0 0 133 812 132
987 2 2 0 0 551 704 550
988 2 2 0 0 810 880 571
989 2 2 0 0 531 705 623
990 2 2 0 0 485 806 643
991 2 2 0 0 682 690 527
992 2 2 0 0 448 698 131
993 2 2 0 0 478 721 680
994 2 2 0 0 189 854 416
995 2 2 0 0 574 897 784
996 2 2 0 0 706 867 573
997 2 2 0 0 511 851 329
998 2 2 0 0 547 900 868
999 2 2 0 0 403 711 164
1000 2 2 0 0 216 809 217
1001 2 2 0 0 369 837 370
1002 2 2 0 0 717 861 425
1003 2 2 0 0 653 724 292
1004 2 2 0 0 888 895 422
1005 2 2 0 0 370 837 637
1006 2 2 0 0 720 861 717
1007 2 2 0 0 784 897 460
1008 2 2 0 0 444 722 546
1009 2 2 0 0 418 692 664
1010 2 2 0 0 708 868 245
1011 2 2 0 0 592 722 471
1012 2 2 0 0 502 709 501
1013 2 2 0 0 824 846 538
1014 2 2 0 0 686 796 520
1015 2 2 0 0 142 828 29
1016 2 2 0 0 606 753 423
1017 2 2 0 0 567 735 480
1018 2 2 0 0 395 838 268
1019 2 2 0 0 772 817 551
1020 2 2 0 0 559 854 189
1021 2 2 0 0 233 714 234
1022 2 2 0 0 501 725 393
1023 2 2 0 0 287 719 288
1024 2 2 0 0 607 864 812
1025 2 2 0 0 361 839 362
1026 2 2 0 0 362 839 519
1027 2 2 0 0 705 746 623
1028 2 2 0 0 518 878 517
1029 2 2 0 0 139 841 647
1030 2 2 0 0 268 838 597
1031 2 2 0 0 507 717 536
1032 2 2 0 0 485 809 615
1033 2 2 0 0 644 700 378
1034 2 2 0 0 339 837 369
1035 2 2 0 0 637 756 532
1036 2 2 0 0 315 815 59
1037 2 2 0 0 459 706 146
1038 2 2 0 0 666 702 550
1039 2 2 0 0 270 719 552
1040 2 2 0 0 222 726 671
1041 2 2 0 0 671 726 299
1042 2 2 0 0 51 844 208
1043 2 2 0 0 839 861 519
1044 2 2 0 0 218 814 180
1045 2 2 0 0 480 735 502
1046 2 2 0 0 666 785 702
1047 2 2 0 0 424 760 577
1048 2 2 0 0 338 747 637
1049 2 2 0 0 316 858 405
1050 2 2 0 0 292 724 293
1051 2 2 0 0 425 861 594
1052 2 2 0 0 197 821 198
1053 2 2 0 0 413 788 603
1054 2 2 0 0 745 863 53
1055 2 2 0 0 221 726 222
1056 2 2 0 0 89 727 87
1057 2 2 0 0 299 726 300
1058 2 2 0 0 497 849 624
1059 2 2 0 0 207 715 213
1060 2 2 0 0 807 865 313
1061 2 2 0 0 221 793 726
1062 2 2 0 0 669 703 256
1063 2 2 0 0 726 793 300
1064 2 2 0 0 435 823 763
1065 2 2 0 0 257 777 392
1066 2 2 0 0 347 729 348
1067 2 2 0 0 500 739 499
1068 2 2 0 0 16 732 101
1069 2 2 0 0 100 732 16
1070 2 2 0 0 466 895 888
1071 2 2 0 0 451 736 567
1072 2 2 0 0 244 775 625
1073 2 2 0 0 482 769 613
1074 2 2 0 0 516 859 624
1075 2 2 0 0 433 885 882
1076 2 2 0 0 212 822 213
1077 2 2 0 0 207 822 50
1078 2 2 0 0 338 837 339
1079 2 2 0 0 41 786 175
1080 2 2 0 0 210 830 211
1081 2 2 0 0 199 757 683
1082 2 2 0 0 580 843 377
1083 2 2 0 0 225 712 667
1084 2 2 0 0 214 715 713
1085 2 2 0 0 491 767 592
1086 2 2 0 0 624 825 516
1087 2 2 0 0 534 733 535
1088 2 2 0 0 287 818 719
1089 2 2 0 0 414 783 534
1090 2 2 0 0 262 765 263
1091 2 2 0 0 762 763 563
1092 2 2 0 0 594 861 839
1093 2 2 0 0 18 802 102
1094 2 2 0 0 602 740 291
1095 2 2 0 0 664 739 395
1096 2 2 0 0 350 768 678
1097 2 2 0 0 145 716 649
1098 2 2 0 0 719 818 552
1099 2 2 0 0 462 900 606
1100 2 2 0 0 571 743 340
1101 2 2 0 0 404 879 367
1102 2 2 0 0 517 831 561
1103 2 2 0 0 446 752 447
1104 2 2 0 0 650 798 527
1105 2 2 0 0 122 851 587
1106 2 2 0 0 193 800 194
1107 2 2 0 0 487 723 660
1108 2 2 0 0 654 858 316
1109 2 2 0 0 73 836 443
1110 2 2 0 0 252 745 460
1111 2 2 0 0 694 836 564
1112 2 2 0 0 377 843 644
1113 2 2 0 0 374 778 375
1114 2 2 0 0 621 786 172
1115 2 2 0 0 12 764 648
1116 2 2 0 0 606 881 540
1117 2 2 0 0 649 862 488
1118 2 2 0 0 443 836 694
1119 2 2 0 0 490 848 503
1120 2 2 0 0 166 816 663
1121 2 2 0 0 608 762 387
1122 2 2 0 0 443 780 74
1123 2 2 0 0 172 786 41
1124 2 2 0 0 524 783 631
1125 2 2 0 0 641 840 437
1126 2 2 0 0 423 753 504
1127 2 2 0 0 534 783 646
1128 2 2 0 0 102 802 732
1129 2 2 0 0 882 885 506
1130 2 2 0 0 128 748 129
1131 2 2 0 0 504 888 422
1132 2 2 0 0 59 756 304
1133 2 2 0 0 631 766 513
1134 2 2 0 0 198 757 199
1135 2 2 0 0 45 874 187
1136 2 2 0 0 342 758 343
1137 2 2 0 0 263 754 264
1138 2 2 0 0 180 814 181
1139 2 2 0 0 525 833 763
1140 2 2 0 0 517 878 718
1141 2 2 0 0 4 759 5
1142 2 2 0 0 657 757 198
1143 2 2 0 0 229 757 657
1144 2 2 0 0 503 760 677
1145 2 2 0 0 363 872 488
1146 2 2 0 0 68 813 194
1147 2 2 0 0 667 770 226
1148 2 2 0 0 387 762 563
1149 2 2 0 0 327 776 60
1150 2 2 0 0 501 737 725
1151 2 2 0 0 488 862 63
1152 2 2 0 0 49 808 2
1153 2 2 0 0 329 851 742
1154 2 2 0 0 710 848 461
1155 2 2 0 0 595 744 95
1156 2 2 0 0 367 879 656
1157 2 2 0 0 147 869 148
1158 2 2 0 0 76 759 75
1159 2 2 0 0 148 869 616
1160 2 2 0 0 428 791 771
1161 2 2 0 0 771 791 545
1162 2 2 0 0 119 887 120
1163 2 2 0 0 251 863 252
1164 2 2 0 0 493 767 491
1165 2 2 0 0 530 890 886
1166 2 2 0 0 737 859 725
1167 2 2 0 0 533 789 774
1168 2 2 0 0 541 797 542
1169 2 2 0 0 27 864 136
1170 2 2 0 0 603 788 604
1171 2 2 0 0 52 847 642
1172 2 2 0 0 554 770 6
1173 2 2 0 0 771 820 394
1174 2 2 0 0 428 771 394
1175 2 2 0 0 628 874 407
1176 2 2 0 0 178 754 596
1177 2 2 0 0 631 783 414
1178 2 2 0 0 598 774 442
1179 2 2 0 0 54 775 244
1180 2 2 0 0 79 773 80
1181 2 2 0 0 15 870 437
1182 2 2 0 0 533 774 642
1183 2 2 0 0 539 876 352
1184 2 2 0 0 48 741 559
1185 2 2 0 0 597 782 269
1186 2 2 0 0 626 812 133
1187 2 2 0 0 63 862 539
1188 2 2 0 0 420 875 278
1189 2 2 0 0 663 816 484
1190 2 2 0 0 389 860 472
1191 2 2 0 0 437 794 99
1192 2 2 0 0 716 862 649
1193 2 2 0 0 648 764 322
1194 2 2 0 0 278 875 399
1195 2 2 0 0 651 856 173
1196 2 2 0 0 266 882 424
1197 2 2 0 0 392 777 699
1198 2 2 0 0 508 777 703
1199 2 2 0 0 457 866 418
1200 2 2 0 0 434 889 551
1201 2 2 0 0 624 849 825
1202 2 2 0 0 132 864 27
1203 2 2 0 0 507 720 717
1204 2 2 0 0 645 755 407
1205 2 2 0 0 352 876 435
1206 2 2 0 0 482 826 674
1207 2 2 0 0 433 882 266
1208 2 2 0 0 475 872 363
1209 2 2 0 0 419 884 333
1210 2 2 0 0 402 870 15
1211 2 2 0 0 649 867 459
1212 2 2 0 0 710 760 503
1213 2 2 0 0 528 778 697
1214 2 2 0 0 399 883 457
1215 2 2 0 0 582 889 9
1216 2 2 0 0 9 889 434
1217 2 2 0 0 875 883 399
1218 2 2 0 0 307 873 308
1219 2 2 0 0 571 880 743
1220 2 2 0 0 450 849 618
1221 2 2 0 0 333 884 334
1222 2 2 0 0 107 761 514
1223 2 2 0 0 577 760 710
1224 2 2 0 0 277 801 420
1225 2 2 0 0 540 890 247
1226 2 2 0 0 247 890 530
1227 2 2 0 0 230 834 237
1228 2 2 0 0 521 858 654
1229 2 2 0 0 255 896 54
1230 2 2 0 0 372 891 560
1231 2 2 0 0 411 891 372
1232 2 2 0 0 344 892 428
1233 2 2 0 0 345 898 537
1234 2 2 0 0 453 893 272
1235 2 2 0 0 272 893 273
1236 2 2 0 0 394 898 345
1237 2 2 0 0 343 892 344
1238 2 2 0 0 440 896 255
1239 2 2 0 0 422 895 314
1240 2 2 0 0 253 897 510
1241 2 2 0 0 460 897 253
1242 2 2 0 0 532 894 371
1243 2 2 0 0 314 895 315
1244 2 2 0 0 371 894 411
1245 2 2 0 0 37 790 162
1246 2 2 0 0 149 899 150
1247 2 2 0 0 536 899 149
1248 2 2 0 0 646 783 524
1249 2 2 0 0 43 856 477
1250 2 2 0 0 280 795 281
1251 2 2 0 0 821 834 657
1252 2 2 0 0 575 857 609
1253 2 2 0 0 709 738 430
1254 2 2 0 0 718 831 517
1255 2 2 0 0 721 796 680
1256 2 2 0 0 662 858 521
1257 2 2 0 0 477 856 651
1258 2 2 0 0 308 873 557
1259 2 2 0 0 310 799 311
1260 2 2 0 0 458 841 139
1261 2 2 0 0 754 803 264
1262 2 2 0 0 187 874 628
1263 2 2 0 0 633 817 479
1264 2 2 0 0 709 737 501
1265 2 2 0 0 563 833 695
1266 2 2 0 0 627 883 421
1267 2 2 0 0 209 804 210
1268 2 2 0 0 427 886 543
1269 2 2 0 0 502 738 709
1270 2 2 0 0 657 834 230
1271 2 2 0 0 323 871 474
1272 2 2 0 0 436 832 154
1273 2 2 0 0 408 785 568
1274 2 2 0 0 35 805 36
1275 2 2 0 0 33 558 34
1276 2 2 0 0 198 821 657
1277 2 2 0 0 620 887 119
1278 2 2 0 0 400 852 497
1279 2 2 0 0 717 795 536
1280 2 2 0 0 624 859 438
1281 2 2 0 0 723 779 515
1282 2 2 0 0 809 814 217
1283 2 2 0 0 57 824 280
1284 2 2 0 0 752 878 518
1285 2 2 0 0 421 883 875
1286 2 2 0 0 398 827 455
1287 2 2 0 0 410 826 482
1288 2 2 0 0 551 817 704
1289 2 2 0 0 241 830 242
1290 2 2 0 0 402 835 733
1291 2 2 0 0 584 842 523
1292 2 2 0 0 317 845 318
1293 2 2 0 0 69 808 195
1294 2 2 0 0 542 797 679
1295 2 2 0 0 656 879 531
1296 2 2 0 0 623 855 511
1297 2 2 0 0 690 781 526
1298 2 2 0 0 141 833 525
1299 2 2 0 0 637 837 338
1300 2 2 0 0 742 851 122
1301 2 2 0 0 576 803 177
1302 2 2 0 0 261 844 262
1303 2 2 0 0 484 816 159
1304 2 2 0 0 447 877 417
1305 2 2 0 0 579 829 554
1306 2 2 0 0 416 854 518
1307 2 2 0 0 750 781 553
1308 2 2 0 0 438 859 737
1309 2 2 0 0 525 823 670
1310 2 2 0 0 505 773 712
1311 2 2 0 0 313 865 406
1312 2 2 0 0 29 828 30
1313 2 2 0 0 515 804 723
1314 2 2 0 0 681 860 389
1315 2 2 0 0 360 880 469
1316 2 2 0 0 213 822 207
1317 2 2 0 0 632 848 490
1318 2 2 0 0 564 836 611
1319 2 2 0 0 668 789 512
1320 2 2 0 0 653 807 312
1321 2 2 0 0 675 794 544
1322 2 2 0 0 195 813 69
1323 2 2 0 0 749 778 528
1324 2 2 0 0 503 848 710
1325 2 2 0 0 570 811 569
1326 2 2 0 0 868 900 462
1327 2 2 0 0 693 885 433
1328 2 2 0 0 404 811 705
1329 2 2 0 0 151 846 691
1330 2 2 0 0 546 819 801
1331 2 2 0 0 311 799 724
1332 2 2 0 0 643 806 432
1333 2 2 0 0 390 781 690
1334 2 2 0 0 232 863 251
1335 2 2 0 0 120 887 331
1336 2 2 0 0 513 766 736
1337 2 2 0 0 647 841 580
1338 2 2 0 0 238 834 821
1339 2 2 0 0 722 819 546
1340 2 2 0 0 474 871 785
1341 2 2 0 0 699 777 508
1342 2 2 0 0 31 459 146
1343 2 2 0 0 315 895 815
1344 2 2 0 0 815 895 466
1345 2 2 0 0 702 785 408
1346 2 2 0 0 469 880 810
1347 2 2 0 0 670 828 142
1348 2 2 0 0 805 832 548
1349 2 2 0 0 418 866 692
1350 2 2 0 0 74 780 689
1351 2 2 0 0 527 798 682
1352 2 2 0 0 67 800 687
1353 2 2 0 0 558 846 151
1354 2 2 0 0 407 874 45
1355 2 2 0 0 698 788 413
1356 2 2 0 0 680 796 72
1357 2 2 0 0 691 824 57
1358 2 2 0 0 725 859 516
1359 2 2 0 0 520 796 721
1360 2 2 0 0 531 879 705
1361 2 2 0 0 685 886 427
1362 2 2 0 0 634 873 307
1363 2 2 0 0 405 858 662
1364 2 2 0 0 519 861 720
1365 2 2 0 0 736 845 567
1366 2 2 0 0 733 835 535
1367 2 2 0 0 713 877 541
1368 2 2 0 0 681 842 483
1369 2 2 0 0 526 781 750
1370 2 2 0 0 144 850 716
1371 2 2 0 0 547 820 753
1372 2 2 0 0 551 889 772
1373 2 2 0 0 732 802 101
1374 2 2 0 0 751 885 652
1375 2 2 0 0 530 886 685
1376 2 2 0 0 548 832 707
1377 2 2 0 0 506 885 751
1378 2 2 0 0 562 876 850
1379 2 2 0 0 459 867 706
1380 2 2 0 0 850 876 539
1381 2 2 0 0 801 819 420
1382 2 2 0 0 592 819 722
1383 2 2 0 0 707 832 436
1384 2 2 0 0 753 820 504
1385 2 2 0 0 612 865 807
1386 2 2 0 0 791 792 545
1387 2 2 0 0 578 792 791
1388 2 2 0 0 652 885 693
1389 2 2 0 0 204 831 718
1390 2 2 0 0 537 868 708
1391 2 2 0 0 718 878 446
1392 2 2 0 0 705 879 404
1393 2 2 0 0 689 780 77
1394 2 2 0 0 763 823 525
1395 2 2 0 0 716 850 539
1396 2 2 0 0 541 877 797
1397 2 2 0 0 417 877 713
1398 2 2 0 0 753 900 547
1399 2 2 0 0 252 863 745
1400 2 2 0 0 540 881 728
1401 2 2 0 0 734 854 559
1402 2 2 0 0 539 862 716
1403 2 2 0 0 518 854 734
1404 2 2 0 0 728 881 431
1405 2 2 0 0 437 840 794
1406 2 2 0 0 728 890 540
1407 2 2 0 0 81 673 82
1408 2 2 0 0 446 878 752
1409 2 2 0 0 575 866 857
1410 2 2 0 0 606 900 753
1411 2 2 0 0 857 866 457
1412 2 2 0 0 785 871 568
1413 2 2 0 0 794 840 544
1414 2 2 0 0 772 889 582
1415 2 2 0 0 851 855 587
1416 2 2 0 0 797 877 447
1417 2 2 0 0 511 855 851
1418 2 2 0 0 81 614 7
1419 2 2 0 0 8 614 82
1420 2 2 0 0 87 727 10
1421 2 2 0 0 364 64 382
1422 2 2 0 0 80 673 81
1423 2 2 0 0 306 305 336
1424 2 2 0 0 11 88 89
1425 2 2 0 0 39 163 40
1426 2 2 0 0 383 64 375
1427 2 2 0 0 382 64 383
1428 2 2 0 0 88 727 89
1429 2 2 0 0 295 294 326
1430 2 2 0 0 326 294 327
1431 2 2 0 0 296 295 325
1432 2 2 0 0 325 295 326
1433 2 2 0 0 305 304 337
1434 2 2 0 0 336 305 337
1435 2 2 0 0 307 306 335
1436 2 2 0 0 335 306 336
1437 2 2 0 0 355 354 385
1438 2 2 0 0 385 354 386
1439 2 2 0 0 356 355 384
1440 2 2 0 0 384 355 385
1441 2 2 0 0 365 364 381
1442 2 2 0 0 381 364 382
1443 2 2 0 0 381 684 365
$EndElements
