$MeshFormat
2.2 0 8
$EndMeshFormat
$Nodes
362
1 -2.758210326803123e-15 0.1788269624412775 0
2 0 0 0
3 0.2488320077823239 0.3727739526626948 0
4 -2.733924198139448e-15 0.566720942884112 0
5 2.449429548079252e-15 0.7150140992006233 0
6 0.2427871482086091 0.9103836463367493 0
7 2.407796184655808e-15 1.105753193472875 0
8 6.75848266240564e-15 1.246391227262763 0
9 0.1874617672227637 1.445997822140846 0
10 6.716849298982197e-15 1.64560441701893 0
11 0 1.681497364919379 0
12 0.2070933734970193 1.681497364919376 0
13 0.58466307225937 1.589470183709429 0
14 0.5622327710217165 1.68149736491938 0
15 0.6296997414661518 1.681497364919381 0
16 1.01713698708461 1.681497364919381 0
17 1.081803304865692 1.681497364919374 0
18 1.481740595101421 1.681497364919375 0
19 1.681497364919379 1.681497364919379 0
20 1.681497364919386 1.64560441701893 0
21 1.681497364919385 1.246391227262763 0
22 1.681497364919381 1.105753193472875 0
23 1.681497364919381 0.7150140992006233 0
24 1.681497364919376 0.566720942884112 0
25 1.681497364919376 0.1788269624412775 0
26 1.681497364919379 0 0
27 1.481740595101421 -3.706236706424448e-15 0
28 1.481771949983556 0.003541323160272257 0
29 1.081803304865692 -4.734927727678695e-15 0
30 1.01713698708461 1.953298633949885e-15 0
31 1.023418364275381 0.0497302239779398 0
32 0.6296997414661518 2.546574062733953e-15 0
33 0.5622327710217165 1.457167719820518e-15 0
34 0.2070933734970195 -2.393918396847994e-15 0
35 1.033072793433702 0.755818040997069 0
36 1.484285009201479 0.4288978946533908 0
37 1.295651866633311 1.326236236584747 0
38 0 0.08941348122063864 0
39 0.09007574793765732 0.1770727674388966 0
40 0.171782401119504 0.21502985363445 0
41 0.2285402138657357 0.2849960473203935 0
42 0.2285402138657357 0.4605518580049959 0
43 0.1717824011195041 0.5305180516909395 0
44 0.09007574793765724 0.568475137886493 0
45 0 0.6408675210423678 0
46 0.08857686091475303 0.7156959420247183 0
47 0.1681716974128047 0.754567360856506 0
48 0.2231713352107396 0.8240034108683248 0
49 0.2231713352107396 0.9967638818051737 0
50 0.1681716974128047 1.066199931816993 0
51 0.08857686091475307 1.10507135064878 0
52 0 1.176072210367819 0
53 0.07260411372758746 1.265026054089439 0
54 0.1332486777385034 1.309081144112654 0
55 0.1734152319701945 1.372368283581746 0
56 0.1734152319701945 1.519627360699947 0
57 0.1332486777385034 1.582914500169039 0
58 0.07260411372758743 1.626969590192254 0
59 0.1380622489980128 1.681497364919379 0
60 0.0690311244990065 1.681497364919379 0
61 0.1847290182184674 1.594605749381236 0
62 0.2026029769818981 1.50668056052175 0
63 0.2571179738287645 1.435417439928842 0
64 0.3373024332881205 1.39515865580582 0
65 0.4270185969551262 1.394006607747698 0
66 0.5082103753577178 1.432193154563005 0
67 0.5645372791647369 1.502032950849707 0
68 0.6693123140965298 1.603746902915977 0
69 0.7382600916187221 1.550263314527668 0
70 0.8234183642753806 1.531227588897319 0
71 0.9085766369320395 1.550263314527668 0
72 0.9775244144542319 1.603746902915977 0
73 1.102690133926078 1.595989807359253 0
74 1.158264224427593 1.52773057726526 0
75 1.237761150092805 1.489941149671356 0
76 1.325782749874308 1.489941149671356 0
77 1.40527967553952 1.527730577265261 0
78 1.460853766041035 1.595989807359254 0
79 1.5816189800104 1.681497364919379 0
80 1.590341048778421 1.629897786709127 0
81 1.516001479135687 1.574854162251672 0
82 1.474380209984628 1.492247611891937 0
83 1.474380209984628 1.399748032389756 0
84 1.516001479135687 1.317141482030021 0
85 1.590341048778421 1.262097857572566 0
86 1.681497364919379 1.176072210367819 0
87 1.600505755233009 1.067478582900523 0
88 1.544345979763125 0.9976884240439408 0
89 1.524284513127988 0.9103836463367493 0
90 1.544345979763125 0.8230788686295579 0
91 1.600505755233009 0.7532887097729752 0
92 1.681497364919379 0.6408675210423677 0
93 1.603325375730011 0.5272730942564741 0
94 1.549496854339631 0.4582116510330914 0
95 1.530329372701703 0.3727739526626948 0
96 1.549496854339631 0.2873362542922981 0
97 1.603325375730011 0.2182748110689156 0
98 1.681497364919379 0.08941348122063875 0
99 1.5816189800104 0 0
100 1.461745632566706 0.09077361980239659 0
101 1.40567721420896 0.1605364998289609 0
102 1.324795134341249 0.1988590274467092 0
103 1.235297095011229 0.1980666116327511 0
104 1.155106257656988 0.1583179440932513 0
105 1.100281893906316 0.08757321915863836 0
106 1.000381584337974 0.142918306612354 0
107 0.936578176824597 0.2146388557223889 0
108 0.8467063923166748 0.2483697662396655 0
109 0.7514697960371179 0.2363405225374352 0
110 0.6728078330907252 0.181322275015515 0
111 0.6288416867759019 0.09598945628094795 0
112 0.5065882949159601 0.06651063787477474 0
113 0.4280219602513159 0.1032162740762692 0
114 0.3413041842674189 0.1032162740762681 0
115 0.2627378496027756 0.06651063787477154 0
116 0.0690311244990064 0 0
117 0.1380622489980129 0 0
118 1.010163998564344 0.8487626754058226 0
119 0.9466857427799329 0.9204148141758002 0
120 0.8571801294847663 0.9543598158166797 0
121 0.7621518160251946 0.9428212895341519 0
122 0.6833706437994815 0.8884425726452281 0
123 0.6388844299484913 0.8036811738545806 0
124 0.6388844299484913 0.7079549081395574 0
125 0.6833706437994814 0.6231935093489099 0
126 0.7621518160251944 0.568814792459986 0
127 0.8571801294847661 0.5572762661774582 0
128 0.9466857427799328 0.5912212678183376 0
129 1.010163998564344 0.6628734065883151 0
130 1.461376214332121 0.5218425290621445 0
131 1.39789795854771 0.593494667832122 0
132 1.308392345252544 0.6274396694730016 0
133 1.213364031792972 0.6159011431904737 0
134 1.134582859567259 0.5615224263015499 0
135 1.090096645716269 0.4767610275109024 0
136 1.090096645716269 0.3810347617958793 0
137 1.134582859567259 0.2962733630052318 0
138 1.213364031792972 0.2418946461163078 0
139 1.308392345252543 0.23035611983378 0
140 1.39789795854771 0.2643011214746595 0
141 1.461376214332121 0.335953260244637 0
142 1.272743071763953 1.419180870993501 0
143 1.209264815979542 1.490833009763479 0
144 1.119759202684375 1.524778011404358 0
145 1.024730889224803 1.51323948512183 0
146 0.9459497169990905 1.458860768232906 0
147 0.9014635031481002 1.374099369442259 0
148 0.9014635031481002 1.278373103727236 0
149 0.9459497169990904 1.193611704936588 0
150 1.024730889224803 1.139232988047664 0
151 1.119759202684375 1.127694461765137 0
152 1.209264815979542 1.161639463406016 0
153 1.272743071763953 1.233291602175993 0
154 0.5006850057812817 1.342785738480271 0
155 0.3147453139216466 0.4344182600426872 0
156 0.3057087052133287 0.9699117075566877 0
157 1.195689302940094 1.069634747364931 0
158 0.6760504547838336 0.9778488120220461 0
159 0.6597254302460138 0.2899308423560553 0
160 0.267233583633078 0.7569972834231192 0
161 1.10186916041119 0.8185939758016288 0
162 0.5914268555572352 0.6186326233836439 0
163 1.460290868235941 0.8359384959358045 0
164 0.815884117850542 1.317920089878799 0
165 1.496790145068103 1.065424962561416 0
166 0.2066293328024918 1.310872636568576 0
167 0.3848502278609372 0.1858970846490801 0
168 0.8138834781828801 1.229730319842635 0
169 0.7383027697279347 1.268476425410157 0
170 0.5508884289755468 0.7536661356537329 0
171 0.492348087209394 0.6718369435247035 0
172 0.5510535424547222 0.8501084307239315 0
173 0.6190242758035953 0.5312099701973774 0
174 0.788670463542451 0.3248324561366092 0
175 0.285472858631366 0.5319624013179307 0
176 0.3798526108170661 0.4974708708293408 0
177 0.4036718566752137 0.4079605614359066 0
178 1.281681672199904 1.102248571391294 0
179 1.267714059731465 1.007518806338396 0
180 0.3811628122369092 1.31688615491105 0
181 0.4572234538896786 1.254616306476525 0
182 0.3706080811778084 1.228992567312953 0
183 0.4377105680326031 1.167414356135247 0
184 0.5180822902978529 1.193009275413317 0
185 0.5037379581092503 1.106067756395931 0
186 0.4845704832272648 0.8138081934017835 0
187 0.4842544323429654 0.1636456108249978 0
188 0.8838837532329424 0.3368440099100023 0
189 1.249523284824579 0.7028781222908607 0
190 0.7382254254781446 1.184006608293524 0
191 0.6002032855415625 1.412637534670358 0
192 0.4726022923986318 0.892284128511739 0
193 0.2558048995604542 1.079112990343037 0
194 1.35794835510354 1.168715205768771 0
195 1.458498985220045 0.987572428383257 0
196 0.4567775416582612 0.2450084446569153 0
197 1.040477443082427 0.9395625268880377 0
198 1.511227361406273 0.7495519728295339 0
199 0.1484953180957751 1.241776959397962 0
200 0.8185947187636755 1.136324201066824 0
201 0.696716111853474 0.3783530962818598 0
202 0.4691127245962037 0.4719988225024494 0
203 1.408846962131322 0.7531211358487426 0
204 1.368668122735307 0.834749506212898 0
205 0.3078455484308121 0.8524552040098775 0
206 0.9313301698848555 0.4967346321029776 0
207 0.3601719482337616 0.5839458406621536 0
208 0.2309887164438015 1.225357897921564 0
209 0.4929811017128523 0.3828884343736463 0
210 0.3754331800946951 0.2691468841735448 0
211 0.5828369421243894 1.131665783131067 0
212 0.7600289765523575 1.474976933902145 0
213 0.6008898549392472 1.310686670483459 0
214 0.416575621122895 1.074427271983015 0
215 1.136299296154611 0.9366245488262197 0
216 1.501548521478537 1.221096769340579 0
217 0.9274999583721589 1.013950708114154 0
218 0.2237321702609412 0.6029845223878137 0
219 1.562414316687578 0.6710866518086049 0
220 0.7897084529288804 0.4804220268788895 0
221 0.3580141906028663 0.7577889805428608 0
222 1.435577936677861 1.276841096114281 0
223 1.414537780367012 1.060670353377935 0
224 0.1742935434806959 0.06426352192494222 0
225 0.2920473489345994 0.1654409607685531 0
226 1.170947666713056 0.6965700424107122 0
227 0.9817632417944679 0.3097993481986849 0
228 0.5554747272778267 0.9442794494511062 0
229 0.5616886428043092 0.4457370770415774 0
230 1.344942009888543 1.407298889359397 0
231 1.523738084414312 0.2089759989028811 0
232 1.568818531810534 0.1375471714166446 0
233 0.543306673133449 0.22889972241092 0
234 0.7395663364167523 1.09981866194605 0
235 0.6710131056025062 1.36618317877616 0
236 0.5756894969638559 0.3500870883713169 0
237 1.11287223898797 1.022521275237134 0
238 0.6601850086299542 1.487914736361911 0
239 0.2876553894120485 1.279012640773562 0
240 0.6606182471415402 1.235355970336055 0
241 1.579758657756789 1.170387133535173 0
242 0.4746079365314864 0.9902153809985951 0
243 1.365319468556023 0.9878287743146958 0
244 0.3257864519641325 0.6744245311527817 0
245 0.5312214757196411 0.5381008488872139 0
246 1.481045066245842 0.6658836230823164 0
247 0.1597144139613267 0.6646166404163266 0
248 0.3810586502851617 0.9103836463367493 0
249 0.07911878820430229 1.187523777015714 0
250 0.5687056191680961 1.042391155378849 0
251 1.010561218569665 0.4188424167488136 0
252 1.182697588087743 0.7683992753308091 0
253 0.08761761652271616 0.08154797206042785 0
254 0.1780574867831193 1.151770211669328 0
255 0.2146662572118662 0.1415236027780383 0
256 1.045730040904311 0.5711272364998482 0
257 1.533162107506487 0.5858521290093537 0
258 0.8172310814635845 1.035866600303581 0
259 1.531819216012678 0.06998205261332091 0
260 1.4473861748489 1.146230858651102 0
261 1.287539153386666 0.7868401918790711 0
262 1.294124389222247 0.8756398153558379 0
263 1.615415504478531 0.6116235248537349 0
264 0.3510740886274707 1.140027015693543 0
265 0.443270503962459 0.5530814532274374 0
266 0.2711574347437082 1.358649746807524 0
267 0.3292140452595855 0.3346113187915684 0
268 0.8529989761660868 1.455995831060127 0
269 0.4067685706687947 0.6934100926693241 0
270 1.526695671899918 1.634982330051962 0
271 0.3443779914317446 1.050983510847249 0
272 0.7045829032794746 0.516357440300181 0
273 0.8707709215623376 0.4331863663622753 0
274 1.027927918460354 1.057820838586768 0
275 1.3317376159003 0.7080146353546998 0
276 0.9453754206036385 1.11282056992831 0
277 1.024202292613497 0.2283498659195967 0
278 0.6550555787171157 1.057594626967534 0
279 0.2712771574486922 1.159186555735041 0
280 1.049484190529159 1.626805288514366 0
281 0.3868260271219665 0.9969712364346017 0
282 1.107309961481499 0.6406927734103393 0
283 0.428732740710783 0.3238905395641122 0
284 1.145161584143339 0.2273428169099346 0
285 1.396513043366657 0.9116204310113463 0
286 1.35788503917134 1.262674392730259 0
287 1.078236322934146 0.1581386779719867 0
288 0.5332558128673788 1.269360000038059 0
289 0.1231748733962184 1.632815330631222 0
290 0.5153257512472738 0.3024314640495548 0
291 1.409181025829812 1.352533691204096 0
292 0.4031577833278962 0.8287006787483637 0
293 1.186102976511363 0.9910033001819571 0
294 0.6472159549851251 0.4557434035552265 0
295 0.5749175048858939 0.145802478329098 0
296 0.3084051059763028 0.2427495968714767 0
297 1.414584274474046 1.445603812115138 0
298 1.478870105193927 0.264391096132396 0
299 0.6603300712749386 1.1555886928874 0
300 0.09240658423512638 0.6421169009542057 0
301 0.7957673901976876 1.401120135766551 0
302 1.628507909996379 1.211231718815295 0
303 0.7945795614869841 0.3976961088691118 0
304 1.403042209193931 0.6662618930506208 0
305 1.338121919145554 1.061454994210745 0
306 0.9370785583414829 0.3963325440947788 0
307 1.628266061247575 0.6783761013356613 0
308 0.1474310181221653 0.1317743473880489 0
309 1.05483776616373 1.572911899063157 0
310 0.2412212269652102 0.6778116513844678 0
311 0.7023961824196658 1.428043718299125 0
312 0.7338410520012311 1.020560164957871 0
313 1.064394640400749 0.3102737620963568 0
314 0.5749255152186157 0.06346400133747421 0
315 1.63243385753713 1.140912701920347 0
316 1.101010194781922 0.7238245857564789 0
317 1.228229975810101 0.9356558158776026 0
318 1.180734176771867 0.853918074023023 0
319 0.4205860651845215 0.6235759662606666 0
320 1.536840137977062 0.5232948508402658 0
321 0.1531699691744066 0.5973724790417441 0
322 0.6133752872852427 0.9008502432474205 0
323 1.609723638971567 0.07143119533822873 0
324 0.2430882654216016 0.2099480122745823 0
325 0.8739354776839483 1.183501236203346 0
326 0.585677897771689 1.225090506650166 0
327 0.3049321655662655 1.213303134679684 0
328 0.7372269076898137 1.347630187926332 0
329 0.6707678262357641 1.302122819939265 0
330 1.050579541363454 0.1095901069302297 0
331 0.2191563481135845 1.384661185805507 0
332 1.450515626447044 0.2091767521640787 0
333 1.419654752087699 1.210888331670879 0
334 0.4531379794335021 0.7479936395011625 0
335 0.8744120161957233 1.092727739314964 0
336 1.45661908455406 1.542684746097428 0
337 0.5821833199475379 0.2782201304640011 0
338 0.03783457868230877 0.0433021854031389 0
339 0.04192391227976444 1.143605132876297 0
340 1.525197850877067 1.134123661397759 0
341 1.490385717576705 0.1461653491213805 0
342 0.5006285380369677 0.6065595654012712 0
343 0.6349065328505343 1.549656315366187 0
344 1.304404956469051 0.9492303505401816 0
345 1.377455655759501 0.2126459041496376 0
346 0.04482482677086985 0.670571896302891 0
347 1.464263715591839 0.5938915080774074 0
348 1.004880763571007 0.5109373161361759 0
349 0.0451390127830722 0.6137629804280781 0
350 0.6079955174878653 0.9870750301829223 0
351 1.633398543277263 0.1354161668710919 0
352 0.6095256082282591 0.2233826455485579 0
353 0.5573024872018157 0.6838097454774709 0
354 0.2916803921676238 0.6139554410065237 0
355 1.280409478761735 1.166473710685519 0
356 0.6302405456487862 0.3917028369172694 0
357 1.086885310997261 0.8855870747984806 0
358 0.0444233411150935 0.1317152957903103 0
359 0.7241454504197642 0.3073642293279899 0
360 0.9122328910421705 0.2774129950176855 0
361 0.7265605969067876 0.4457144151770537 0
362 0.3193195174201967 1.337426799574489 0
$EndNodes
$Elements
575
1 2 2 0 0 180 181 154
2 2 2 0 0 204 261 203
3 2 2 0 0 30 29 31
4 2 2 0 0 197 274 217
5 2 2 0 0 261 275 203
6 2 2 0 0 194 305 223
7 2 2 0 0 175 218 43
8 2 2 0 0 142 76 75
9 2 2 0 0 221 334 292
10 2 2 0 0 144 309 145
11 2 2 0 0 117 253 116
12 2 2 0 0 36 94 130
13 2 2 0 0 197 217 119
14 2 2 0 0 154 213 191
15 2 2 0 0 292 334 186
16 2 2 0 0 160 221 205
17 2 2 0 0 215 237 197
18 2 2 0 0 165 223 195
19 2 2 0 0 173 272 125
20 2 2 0 0 227 313 251
21 2 2 0 0 163 203 198
22 2 2 0 0 145 72 71
23 2 2 0 0 65 180 154
24 2 2 0 0 125 272 126
25 2 2 0 0 284 313 277
26 2 2 0 0 282 316 129
27 2 2 0 0 220 273 127
28 2 2 0 0 127 273 206
29 2 2 0 0 77 336 78
30 2 2 0 0 151 274 237
31 2 2 0 0 42 175 43
32 2 2 0 0 150 274 151
33 2 2 0 0 242 250 185
34 2 2 0 0 173 245 229
35 2 2 0 0 41 296 267
36 2 2 0 0 81 336 82
37 2 2 0 0 187 196 167
38 2 2 0 0 214 242 185
39 2 2 0 0 242 281 248
40 2 2 0 0 205 248 156
41 2 2 0 0 52 249 8
42 2 2 0 0 129 316 35
43 2 2 0 0 41 267 3
44 2 2 0 0 225 255 115
45 2 2 0 0 251 313 136
46 2 2 0 0 154 191 66
47 2 2 0 0 156 193 49
48 2 2 0 0 223 260 194
49 2 2 0 0 242 248 192
50 2 2 0 0 165 195 88
51 2 2 0 0 203 246 198
52 2 2 0 0 160 205 48
53 2 2 0 0 229 294 173
54 2 2 0 0 204 285 262
55 2 2 0 0 114 225 115
56 2 2 0 0 6 205 156
57 2 2 0 0 285 344 262
58 2 2 0 0 163 198 90
59 2 2 0 0 57 289 58
60 2 2 0 0 15 13 68
61 2 2 0 0 156 271 193
62 2 2 0 0 193 279 254
63 2 2 0 0 137 313 284
64 2 2 0 0 262 318 261
65 2 2 0 0 145 71 146
66 2 2 0 0 102 345 139
67 2 2 0 0 69 238 212
68 2 2 0 0 37 291 230
69 2 2 0 0 71 268 146
70 2 2 0 0 70 268 71
71 2 2 0 0 31 330 106
72 2 2 0 0 8 249 53
73 2 2 0 0 113 187 167
74 2 2 0 0 94 320 130
75 2 2 0 0 203 304 246
76 2 2 0 0 178 305 194
77 2 2 0 0 224 253 117
78 2 2 0 0 193 254 50
79 2 2 0 0 72 309 280
80 2 2 0 0 286 291 37
81 2 2 0 0 141 95 36
82 2 2 0 0 96 95 141
83 2 2 0 0 61 289 57
84 2 2 0 0 264 279 193
85 2 2 0 0 193 271 264
86 2 2 0 0 159 356 236
87 2 2 0 0 241 340 87
88 2 2 0 0 195 285 89
89 2 2 0 0 87 340 165
90 2 2 0 0 89 285 163
91 2 2 0 0 167 296 225
92 2 2 0 0 76 297 77
93 2 2 0 0 101 345 102
94 2 2 0 0 238 311 212
95 2 2 0 0 261 318 252
96 2 2 0 0 103 284 104
97 2 2 0 0 210 296 167
98 2 2 0 0 277 287 284
99 2 2 0 0 226 282 133
100 2 2 0 0 133 282 134
101 2 2 0 0 58 289 60
102 2 2 0 0 237 274 197
103 2 2 0 0 139 345 140
104 2 2 0 0 51 254 249
105 2 2 0 0 180 239 182
106 2 2 0 0 112 314 295
107 2 2 0 0 37 230 142
108 2 2 0 0 201 356 159
109 2 2 0 0 236 337 159
110 2 2 0 0 81 270 78
111 2 2 0 0 215 293 237
112 2 2 0 0 192 292 186
113 2 2 0 0 251 306 227
114 2 2 0 0 166 331 55
115 2 2 0 0 180 362 239
116 2 2 0 0 99 259 28
117 2 2 0 0 228 250 242
118 2 2 0 0 112 295 187
119 2 2 0 0 199 208 166
120 2 2 0 0 79 270 80
121 2 2 0 0 95 94 36
122 2 2 0 0 78 270 18
123 2 2 0 0 217 258 120
124 2 2 0 0 17 280 73
125 2 2 0 0 207 319 244
126 2 2 0 0 229 245 202
127 2 2 0 0 269 334 221
128 2 2 0 0 69 343 238
129 2 2 0 0 60 289 59
130 2 2 0 0 120 258 121
131 2 2 0 0 54 199 166
132 2 2 0 0 267 283 177
133 2 2 0 0 249 254 199
134 2 2 0 0 248 292 192
135 2 2 0 0 244 319 269
136 2 2 0 0 83 291 84
137 2 2 0 0 230 297 76
138 2 2 0 0 145 309 72
139 2 2 0 0 84 291 222
140 2 2 0 0 266 331 166
141 2 2 0 0 254 279 208
142 2 2 0 0 115 224 34
143 2 2 0 0 50 254 51
144 2 2 0 0 128 256 129
145 2 2 0 0 180 182 181
146 2 2 0 0 28 259 100
147 2 2 0 0 217 335 258
148 2 2 0 0 299 326 211
149 2 2 0 0 137 284 138
150 2 2 0 0 87 315 241
151 2 2 0 0 98 323 26
152 2 2 0 0 160 244 221
153 2 2 0 0 213 235 191
154 2 2 0 0 141 298 96
155 2 2 0 0 214 281 242
156 2 2 0 0 223 243 195
157 2 2 0 0 163 204 203
158 2 2 0 0 196 210 167
159 2 2 0 0 210 283 267
160 2 2 0 0 240 326 299
161 2 2 0 0 68 343 69
162 2 2 0 0 258 312 121
163 2 2 0 0 72 280 16
164 2 2 0 0 147 301 164
165 2 2 0 0 268 301 147
166 2 2 0 0 222 291 286
167 2 2 0 0 187 233 196
168 2 2 0 0 165 260 223
169 2 2 0 0 32 314 33
170 2 2 0 0 174 303 201
171 2 2 0 0 245 265 202
172 2 2 0 0 115 255 224
173 2 2 0 0 226 316 282
174 2 2 0 0 142 230 76
175 2 2 0 0 191 311 238
176 2 2 0 0 111 314 32
177 2 2 0 0 256 282 129
178 2 2 0 0 235 311 191
179 2 2 0 0 206 306 251
180 2 2 0 0 63 266 64
181 2 2 0 0 26 323 99
182 2 2 0 0 105 330 31
183 2 2 0 0 243 344 285
184 2 2 0 0 208 239 166
185 2 2 0 0 247 310 47
186 2 2 0 0 47 310 160
187 2 2 0 0 172 186 170
188 2 2 0 0 2 338 38
189 2 2 0 0 213 326 240
190 2 2 0 0 64 180 65
191 2 2 0 0 201 361 294
192 2 2 0 0 199 254 208
193 2 2 0 0 172 192 186
194 2 2 0 0 253 338 116
195 2 2 0 0 198 219 91
196 2 2 0 0 123 172 170
197 2 2 0 0 182 183 181
198 2 2 0 0 157 179 178
199 2 2 0 0 164 169 168
200 2 2 0 0 39 308 40
201 2 2 0 0 162 245 173
202 2 2 0 0 169 240 190
203 2 2 0 0 228 242 192
204 2 2 0 0 157 178 152
205 2 2 0 0 216 241 85
206 2 2 0 0 158 312 278
207 2 2 0 0 123 170 124
208 2 2 0 0 164 168 148
209 2 2 0 0 147 164 148
210 2 2 0 0 188 303 174
211 2 2 0 0 124 162 125
212 2 2 0 0 169 190 168
213 2 2 0 0 121 158 122
214 2 2 0 0 162 173 125
215 2 2 0 0 151 157 152
216 2 2 0 0 84 216 85
217 2 2 0 0 172 228 192
218 2 2 0 0 151 237 157
219 2 2 0 0 191 238 67
220 2 2 0 0 132 189 133
221 2 2 0 0 107 277 227
222 2 2 0 0 189 252 226
223 2 2 0 0 170 334 171
224 2 2 0 0 109 159 110
225 2 2 0 0 189 226 133
226 2 2 0 0 118 197 119
227 2 2 0 0 35 161 118
228 2 2 0 0 108 188 174
229 2 2 0 0 108 174 109
230 2 2 0 0 126 220 127
231 2 2 0 0 49 193 50
232 2 2 0 0 119 217 120
233 2 2 0 0 134 256 135
234 2 2 0 0 135 251 136
235 2 2 0 0 127 206 128
236 2 2 0 0 194 286 153
237 2 2 0 0 190 234 200
238 2 2 0 0 158 322 122
239 2 2 0 0 183 214 185
240 2 2 0 0 267 296 210
241 2 2 0 0 190 200 168
242 2 2 0 0 46 247 47
243 2 2 0 0 155 175 42
244 2 2 0 0 234 258 200
245 2 2 0 0 47 160 48
246 2 2 0 0 246 257 219
247 2 2 0 0 96 231 97
248 2 2 0 0 84 222 216
249 2 2 0 0 65 154 66
250 2 2 0 0 155 177 176
251 2 2 0 0 204 262 261
252 2 2 0 0 3 155 42
253 2 2 0 0 176 207 175
254 2 2 0 0 177 209 202
255 2 2 0 0 278 312 234
256 2 2 0 0 128 348 256
257 2 2 0 0 240 329 213
258 2 2 0 0 198 246 219
259 2 2 0 0 66 191 67
260 2 2 0 0 113 167 114
261 2 2 0 0 311 328 301
262 2 2 0 0 48 205 6
263 2 2 0 0 88 195 89
264 2 2 0 0 6 156 49
265 2 2 0 0 87 165 88
266 2 2 0 0 146 268 147
267 2 2 0 0 177 202 176
268 2 2 0 0 131 304 132
269 2 2 0 0 101 341 332
270 2 2 0 0 89 163 90
271 2 2 0 0 155 176 175
272 2 2 0 0 183 184 181
273 2 2 0 0 167 225 114
274 2 2 0 0 90 198 91
275 2 2 0 0 171 353 170
276 2 2 0 0 100 341 101
277 2 2 0 0 194 355 178
278 2 2 0 0 209 236 229
279 2 2 0 0 209 229 202
280 2 2 0 0 182 264 183
281 2 2 0 0 183 185 184
282 2 2 0 0 273 303 188
283 2 2 0 0 185 250 211
284 2 2 0 0 273 306 206
285 2 2 0 0 22 315 87
286 2 2 0 0 140 298 141
287 2 2 0 0 189 261 252
288 2 2 0 0 185 211 184
289 2 2 0 0 206 348 128
290 2 2 0 0 69 212 70
291 2 2 0 0 183 264 214
292 2 2 0 0 51 339 7
293 2 2 0 0 155 267 177
294 2 2 0 0 227 306 188
295 2 2 0 0 112 187 113
296 2 2 0 0 153 355 194
297 2 2 0 0 197 357 215
298 2 2 0 0 231 232 97
299 2 2 0 0 239 327 182
300 2 2 0 0 158 350 322
301 2 2 0 0 176 265 207
302 2 2 0 0 24 263 93
303 2 2 0 0 159 359 201
304 2 2 0 0 91 307 23
305 2 2 0 0 201 359 174
306 2 2 0 0 202 265 176
307 2 2 0 0 188 360 227
308 2 2 0 0 40 308 255
309 2 2 0 0 227 360 107
310 2 2 0 0 244 269 221
311 2 2 0 0 264 271 214
312 2 2 0 0 77 297 82
313 2 2 0 0 132 304 275
314 2 2 0 0 189 275 261
315 2 2 0 0 3 267 155
316 2 2 0 0 257 263 219
317 2 2 0 0 212 268 70
318 2 2 0 0 85 302 21
319 2 2 0 0 177 283 209
320 2 2 0 0 175 354 218
321 2 2 0 0 248 281 156
322 2 2 0 0 325 335 276
323 2 2 0 0 218 321 43
324 2 2 0 0 53 249 199
325 2 2 0 0 78 336 81
326 2 2 0 0 44 349 4
327 2 2 0 0 317 318 262
328 2 2 0 0 239 266 166
329 2 2 0 0 54 166 55
330 2 2 0 0 126 272 220
331 2 2 0 0 247 321 218
332 2 2 0 0 162 353 342
333 2 2 0 0 93 263 257
334 2 2 0 0 225 324 255
335 2 2 0 0 244 354 207
336 2 2 0 0 342 353 171
337 2 2 0 0 53 199 54
338 2 2 0 0 294 361 272
339 2 2 0 0 110 295 111
340 2 2 0 0 237 293 157
341 2 2 0 0 149 325 276
342 2 2 0 0 154 288 213
343 2 2 0 0 303 361 201
344 2 2 0 0 82 297 83
345 2 2 0 0 181 288 154
346 2 2 0 0 134 282 256
347 2 2 0 0 132 275 189
348 2 2 0 0 243 305 179
349 2 2 0 0 317 344 179
350 2 2 0 0 92 263 24
351 2 2 0 0 149 276 150
352 2 2 0 0 294 356 201
353 2 2 0 0 271 281 214
354 2 2 0 0 73 309 144
355 2 2 0 0 221 292 205
356 2 2 0 0 212 311 301
357 2 2 0 0 5 346 46
358 2 2 0 0 123 322 172
359 2 2 0 0 291 297 230
360 2 2 0 0 106 277 107
361 2 2 0 0 168 325 148
362 2 2 0 0 34 224 117
363 2 2 0 0 130 320 257
364 2 2 0 0 122 322 123
365 2 2 0 0 161 316 252
366 2 2 0 0 148 325 149
367 2 2 0 0 304 347 246
368 2 2 0 0 218 310 247
369 2 2 0 0 186 334 170
370 2 2 0 0 93 320 94
371 2 2 0 0 250 278 211
372 2 2 0 0 150 276 274
373 2 2 0 0 274 276 217
374 2 2 0 0 160 310 244
375 2 2 0 0 190 299 234
376 2 2 0 0 216 333 260
377 2 2 0 0 156 281 271
378 2 2 0 0 179 344 243
379 2 2 0 0 33 314 112
380 2 2 0 0 233 290 196
381 2 2 0 0 293 317 179
382 2 2 0 0 219 307 91
383 2 2 0 0 182 327 264
384 2 2 0 0 228 350 250
385 2 2 0 0 196 283 210
386 2 2 0 0 131 347 304
387 2 2 0 0 16 280 17
388 2 2 0 0 243 285 195
389 2 2 0 0 310 354 244
390 2 2 0 0 97 351 25
391 2 2 0 0 205 292 248
392 2 2 0 0 163 285 204
393 2 2 0 0 211 326 184
394 2 2 0 0 318 357 161
395 2 2 0 0 252 318 161
396 2 2 0 0 207 354 175
397 2 2 0 0 67 343 13
398 2 2 0 0 278 350 158
399 2 2 0 0 255 324 40
400 2 2 0 0 215 357 318
401 2 2 0 0 162 342 245
402 2 2 0 0 252 316 226
403 2 2 0 0 104 287 105
404 2 2 0 0 83 297 291
405 2 2 0 0 260 340 216
406 2 2 0 0 280 309 73
407 2 2 0 0 232 351 97
408 2 2 0 0 55 331 9
409 2 2 0 0 153 286 37
410 2 2 0 0 251 348 206
411 2 2 0 0 224 308 253
412 2 2 0 0 275 304 203
413 2 2 0 0 238 343 67
414 2 2 0 0 250 350 278
415 2 2 0 0 179 305 178
416 2 2 0 0 264 327 279
417 2 2 0 0 240 299 190
418 2 2 0 0 235 328 311
419 2 2 0 0 209 290 236
420 2 2 0 0 234 299 278
421 2 2 0 0 63 331 266
422 2 2 0 0 184 288 181
423 2 2 0 0 256 348 135
424 2 2 0 0 135 348 251
425 2 2 0 0 253 308 39
426 2 2 0 0 157 293 179
427 2 2 0 0 187 295 233
428 2 2 0 0 288 326 213
429 2 2 0 0 222 333 216
430 2 2 0 0 284 287 104
431 2 2 0 0 38 338 253
432 2 2 0 0 276 335 217
433 2 2 0 0 52 339 249
434 2 2 0 0 208 327 239
435 2 2 0 0 257 347 130
436 2 2 0 0 92 307 263
437 2 2 0 0 241 302 85
438 2 2 0 0 218 354 310
439 2 2 0 0 257 320 93
440 2 2 0 0 110 352 295
441 2 2 0 0 236 356 229
442 2 2 0 0 96 298 231
443 2 2 0 0 223 305 243
444 2 2 0 0 82 336 77
445 2 2 0 0 269 319 171
446 2 2 0 0 196 290 283
447 2 2 0 0 46 300 247
448 2 2 0 0 277 313 227
449 2 2 0 0 170 353 124
450 2 2 0 0 164 328 169
451 2 2 0 0 124 353 162
452 2 2 0 0 9 331 63
453 2 2 0 0 194 333 286
454 2 2 0 0 263 307 219
455 2 2 0 0 178 355 152
456 2 2 0 0 173 294 272
457 2 2 0 0 234 312 258
458 2 2 0 0 216 340 241
459 2 2 0 0 152 355 153
460 2 2 0 0 118 357 197
461 2 2 0 0 161 357 118
462 2 2 0 0 64 362 180
463 2 2 0 0 109 359 159
464 2 2 0 0 21 302 86
465 2 2 0 0 174 359 109
466 2 2 0 0 108 360 188
467 2 2 0 0 107 360 108
468 2 2 0 0 169 329 240
469 2 2 0 0 23 307 92
470 2 2 0 0 106 287 277
471 2 2 0 0 255 308 224
472 2 2 0 0 279 327 208
473 2 2 0 0 121 312 158
474 2 2 0 0 213 329 235
475 2 2 0 0 232 341 259
476 2 2 0 0 212 301 268
477 2 2 0 0 136 313 137
478 2 2 0 0 295 314 111
479 2 2 0 0 35 316 161
480 2 2 0 0 43 321 44
481 2 2 0 0 40 324 41
482 2 2 0 0 328 329 169
483 2 2 0 0 159 352 110
484 2 2 0 0 283 290 209
485 2 2 0 0 235 329 328
486 2 2 0 0 172 322 228
487 2 2 0 0 86 315 22
488 2 2 0 0 249 339 51
489 2 2 0 0 25 351 98
490 2 2 0 0 130 347 131
491 2 2 0 0 200 325 168
492 2 2 0 0 253 358 38
493 2 2 0 0 278 299 211
494 2 2 0 0 165 340 260
495 2 2 0 0 1 358 39
496 2 2 0 0 200 335 325
497 2 2 0 0 220 303 273
498 2 2 0 0 39 358 253
499 2 2 0 0 258 335 200
500 2 2 0 0 265 319 207
501 2 2 0 0 13 343 68
502 2 2 0 0 38 358 1
503 2 2 0 0 286 333 222
504 2 2 0 0 188 306 273
505 2 2 0 0 260 333 194
506 2 2 0 0 332 341 231
507 2 2 0 0 319 342 171
508 2 2 0 0 262 344 317
509 2 2 0 0 231 341 232
510 2 2 0 0 140 332 298
511 2 2 0 0 7 339 52
512 2 2 0 0 116 338 2
513 2 2 0 0 45 346 5
514 2 2 0 0 229 356 294
515 2 2 0 0 4 349 45
516 2 2 0 0 233 337 290
517 2 2 0 0 246 347 257
518 2 2 0 0 272 361 220
519 2 2 0 0 245 342 265
520 2 2 0 0 259 323 232
521 2 2 0 0 171 334 269
522 2 2 0 0 302 315 86
523 2 2 0 0 322 350 228
524 2 2 0 0 290 337 236
525 2 2 0 0 259 341 100
526 2 2 0 0 239 362 266
527 2 2 0 0 45 349 346
528 2 2 0 0 98 351 323
529 2 2 0 0 266 362 64
530 2 2 0 0 300 321 247
531 2 2 0 0 44 321 300
532 2 2 0 0 301 328 164
533 2 2 0 0 215 317 293
534 2 2 0 0 184 326 288
535 2 2 0 0 265 342 319
536 2 2 0 0 296 324 225
537 2 2 0 0 287 330 105
538 2 2 0 0 41 324 296
539 2 2 0 0 295 352 233
540 2 2 0 0 140 345 332
541 2 2 0 0 99 323 259
542 2 2 0 0 346 349 300
543 2 2 0 0 220 361 303
544 2 2 0 0 215 318 317
545 2 2 0 0 298 332 231
546 2 2 0 0 241 315 302
547 2 2 0 0 323 351 232
548 2 2 0 0 106 330 287
549 2 2 0 0 332 345 101
550 2 2 0 0 46 346 300
551 2 2 0 0 300 349 44
552 2 2 0 0 337 352 159
553 2 2 0 0 233 352 337
554 2 2 0 0 18 270 79
555 2 2 0 0 143 75 74
556 2 2 0 0 143 74 144
557 2 2 0 0 142 75 143
558 2 2 0 0 80 270 81
559 2 2 0 0 62 56 9
560 2 2 0 0 62 9 63
561 2 2 0 0 11 10 60
562 2 2 0 0 10 58 60
563 2 2 0 0 59 289 12
564 2 2 0 0 12 289 61
565 2 2 0 0 14 13 15
566 2 2 0 0 79 20 19
567 2 2 0 0 79 80 20
568 2 2 0 0 28 27 99
569 2 2 0 0 29 105 31
570 2 2 0 0 61 57 56
571 2 2 0 0 61 56 62
572 2 2 0 0 144 74 73
573 2 2 0 0 139 103 102
574 2 2 0 0 138 103 139
575 2 2 0 0 138 284 103
$EndElements
