$MeshFormat
2.2 0 8
$EndMeshFormat
$Nodes
21
1 0 0 0
2 5 0 0
3 10 0 0
4 10 5 0
5 10 10 0
6 5 10 0
7 5 5 0
8 0 5 0
9 2.499999999996199 0 0
10 7.5 0 0
11 10 2.499999999996199 0
12 10 7.5 0
13 7.5 10 0
14 5 7.5 0
15 2.5 5 0
16 0 2.5 0
17 5 2.499999999996199 0
18 7.5 5 0
19 2.499999999998099 2.499999999998099 0
20 7.5 2.499999999996199 0
21 7.5 7.5 0
$EndNodes
$Elements
12
1 3 2 1 1 1 9 19 16
2 3 2 1 1 16 19 15 8
3 3 2 1 1 9 2 17 19
4 3 2 1 1 19 17 7 15
5 3 2 1 2 2 10 20 17
6 3 2 1 2 17 20 18 7
7 3 2 1 2 10 3 11 20
8 3 2 1 2 20 11 4 18
9 3 2 1 3 4 12 21 18
10 3 2 1 3 18 21 14 7
11 3 2 1 3 12 5 13 21
12 3 2 1 3 21 13 6 14
$EndElements
