$MeshFormat
2.2 0 8
$EndMeshFormat
$PhysicalNames
2
2 1 "matrix"
2 2 "fiber"
$EndPhysicalNames
$Nodes
64
1 0 0 0
2 0.5604991216397929 0 0
3 0.5604991216397929 0.5604991216397929 0
4 0 0.5604991216397929 0
5 0.4865690322437349 0.2269652283629244 0
6 0.0934165202732988 0 0
7 0.1868330405465976 0 0
8 0.2802495608198964 0 0
9 0.3736660810931952 0 0
10 0.467082601366494 0 0
11 0.5604991216397929 0.0934165202732988 0
12 0.5604991216397929 0.1868330405465976 0
13 0.5604991216397929 0.2802495608198964 0
14 0.5604991216397929 0.3736660810931952 0
15 0.5604991216397929 0.467082601366494 0
16 0.467082601366494 0.5604991216397929 0
17 0.3736660810931953 0.5604991216397929 0
18 0.2802495608198964 0.5604991216397929 0
19 0.1868330405465977 0.5604991216397929 0
20 0.09341652027329883 0.5604991216397929 0
21 0 0.467082601366494 0
22 0 0.3736660810931953 0
23 0 0.2802495608198964 0
24 0 0.1868330405465977 0
25 0 0.09341652027329883 0
26 0.4636602373743769 0.3199098627716781 0
27 0.4001819815899661 0.3915620015416557 0
28 0.3106763682947996 0.4255070031825352 0
29 0.2156480548352278 0.4139684769000074 0
30 0.1368668826095147 0.3595897600110834 0
31 0.09238066875852452 0.274828361220436 0
32 0.09238066875852449 0.1791020955054129 0
33 0.1368668826095147 0.09434069671476539 0
34 0.2156480548352278 0.03996197982584143 0
35 0.3106763682947994 0.02842345354331355 0
36 0.400181981589966 0.06236845518419304 0
37 0.4636602373743768 0.1340205939541705 0
38 0.2740591476767799 0.1103787086098455 0
39 0.3260319411898767 0.331020367467175 0
40 0.1752820466771539 0.2269652283629244 0
41 0.3970563281526646 0.1980150541047927 0
42 0.2274425620690043 0.311668156598278 0
43 0.3377589298192966 0.09198856153314205 0
44 0.3287862292972414 0.1627046185060224 0
45 0.2520402039541807 0.1963753557962913 0
46 0.3204774727581849 0.2469387567604165 0
47 0.3915075718861417 0.2818489880899397 0
48 0.1994329679259669 0.1397374177308263 0
49 0.3946222202656179 0.1312384569738186 0
50 0.2699497315972271 0.3705410010369988 0
51 0.1579930400285494 0.2932628765481805 0
52 0.1437114621384182 0.4690654727540498 0
53 0.4080136979337187 0.4787271229457004 0
54 0.480900087597131 0.4205823391873103 0
55 0.2410208844322951 0.4897912807551377 0
56 0.06757570678606717 0.4161635699919067 0
57 0.322725318514781 0.5030047300325918 0
58 0.4903846127220845 0.05796111388233249 0
59 0.4925463654051386 0.4925463654051386 0
60 0.06418474156530024 0.4938162135837637 0
61 0.06830828911612416 0.1124131535672655 0
62 0.05784631011939473 0.3362710882619178 0
63 0.1401247804099482 0.0356639267253753 0
64 0.06018333765271996 0.05143485337311277 0
$EndNodes
$Elements
102
1 2 2 2 1 45 46 42
2 2 2 2 1 40 45 42
3 2 2 2 1 42 46 39
4 2 2 2 1 32 48 40
5 2 2 2 1 33 48 32
6 2 2 2 1 39 47 27
7 2 2 2 1 27 47 26
8 2 2 2 1 5 47 41
9 2 2 2 1 26 47 5
10 2 2 2 1 5 41 37
11 2 2 2 1 30 42 29
12 2 2 2 1 32 40 31
13 2 2 2 1 35 38 34
14 2 2 2 1 28 39 27
15 2 2 2 1 38 48 34
16 2 2 2 1 34 48 33
17 2 2 2 1 39 50 42
18 2 2 2 1 42 51 40
19 2 2 2 1 41 47 46
20 2 2 2 1 40 48 45
21 2 2 2 1 41 46 44
22 2 2 2 1 44 46 45
23 2 2 2 1 36 43 35
24 2 2 2 1 42 50 29
25 2 2 2 1 31 51 30
26 2 2 2 1 30 51 42
27 2 2 2 1 40 51 31
28 2 2 2 1 41 49 37
29 2 2 2 1 37 49 36
30 2 2 2 1 29 50 28
31 2 2 2 1 28 50 39
32 2 2 2 1 35 43 38
33 2 2 2 1 46 47 39
34 2 2 2 1 44 45 38
35 2 2 2 1 45 48 38
36 2 2 2 1 43 44 38
37 2 2 2 1 44 49 41
38 2 2 2 1 43 49 44
39 2 2 2 1 36 49 43
40 2 2 1 2 24 32 31
41 2 2 1 2 24 31 23
42 2 2 1 2 20 52 19
43 2 2 1 2 52 55 19
44 2 2 1 2 9 10 36
45 2 2 1 2 37 11 12
46 2 2 1 2 7 63 6
47 2 2 1 2 27 53 28
48 2 2 1 2 53 57 28
49 2 2 1 2 37 12 5
50 2 2 1 2 26 13 14
51 2 2 1 2 11 58 2
52 2 2 1 2 33 63 34
53 2 2 1 2 34 63 7
54 2 2 1 2 26 5 13
55 2 2 1 2 14 54 26
56 2 2 1 2 2 58 10
57 2 2 1 2 20 60 52
58 2 2 1 2 29 55 52
59 2 2 1 2 5 12 13
60 2 2 1 2 26 54 27
61 2 2 1 2 29 52 30
62 2 2 1 2 33 64 63
63 2 2 1 2 28 55 29
64 2 2 1 2 37 58 11
65 2 2 1 2 17 53 16
66 2 2 1 2 28 57 55
67 2 2 1 2 24 61 32
68 2 2 1 2 25 61 24
69 2 2 1 2 36 58 37
70 2 2 1 2 15 54 14
71 2 2 1 2 22 56 21
72 2 2 1 2 27 54 53
73 2 2 1 2 16 59 3
74 2 2 1 2 3 59 15
75 2 2 1 2 21 60 4
76 2 2 1 2 4 60 20
77 2 2 1 2 17 57 53
78 2 2 1 2 10 58 36
79 2 2 1 2 56 60 21
80 2 2 1 2 61 64 33
81 2 2 1 2 63 64 6
82 2 2 1 2 19 55 18
83 2 2 1 2 30 62 31
84 2 2 1 2 55 57 18
85 2 2 1 2 52 56 30
86 2 2 1 2 18 57 17
87 2 2 1 2 23 62 22
88 2 2 1 2 31 62 23
89 2 2 1 2 32 61 33
90 2 2 1 2 53 59 16
91 2 2 1 2 1 64 25
92 2 2 1 2 6 64 1
93 2 2 1 2 52 60 56
94 2 2 1 2 15 59 54
95 2 2 1 2 54 59 53
96 2 2 1 2 56 62 30
97 2 2 1 2 22 62 56
98 2 2 1 2 25 64 61
99 2 2 1 2 7 8 34
100 2 2 1 2 8 9 35
101 2 2 1 2 34 8 35
102 2 2 1 2 35 9 36
$EndElements
